#Weiss Schnee (RWBY)
    
    0-calm=47**aa13.90.0.3.50.13.90.0.3.50_ab_ac_ba50_bb5.1_bc185.500.8.0.1_bd5_be180_ca61.0.0.77.20.0.26.0.10_cb0_daFCF0E3.0.0.100_db_dd9.1.17.0.6.50_dh1.30.68.35.2_di5_qa_qb_dc4.1.FCF0E3.FCF0E3.FCF0E3_eh1.50_ea2.50.BFD1F0.52.0.0_ec_ed37.75.1.1.DEEBFD.9F9CAD_ef_eg_r0417.D1DCF6.9F9CAD.4E4E4E.2.2.90.100.152.620.545.0_r0517.D1DCF6.9F9CAD.52.1.2.56.50.116.546.588.0_r0617.D1DCF6.9F9CAD.4E4E4E.1.2.100.100.135.590.565.0_r0717.D1DCF6.9F9CAD.52.1.2.63.100.133.549.602.0_r0858.EBEFFB.FFFFFF.4E4E4E.2.0.75.200.357.631.542.1_r0947.E9EEFB.F7F9FE.9F9CAD.1.1.58.60.218.415.566.0_r1117.D1DCF6.A4A1B1.56.1.2.5.42.144.544.584.0_r1317.D1DCF6.9F9CAD.56.1.2.46.89.144.594.570.0_fa1.70.72.65.34.60.56_fb6_fh1_fc2.8AD1F7.FFFFFF.2.8AD1F7.FFFFFF.45.61.61.45.49.49_fd16.0.40.50.56_fe64.72_ff0000000000_fg0.63_pa0.0.0.0.34.46.81.80.0.0_t0015.E0AAAD.61.0.25.25.92.643.494.1_pb_pc_pd_pe_ga0_gb1_gc8.0_ge0000000000_gh_gf_gg_gd10000000_ha89.89_hb54.1.61.99_hc0.39.14.0.39.14_hd0.1.36.38_ia_if_ib_id_ic_jc_ie_ja_jb_jd2.BFD1F0.BFD1F0.50_je2.BFD1F0.BFD1F0.50_jf_jg_ka24.EEF6FF.2.2.0_kb_kc_kd_ke_kf_la_lb_oa_os_ob1.55.55.55_oc1.55.55.55_od_oe0.61.0.0_of_lc_m0043.56.3.0.2.1.0.63.61.78.5.61_m0252.EEF6FF.EEF6FF.0.0.2.21.64.9.3.0.61_m0343.56.3.0.2.1.0.73.59.75.5.61_m0443.56.3.0.2.1.0.55.50.78.1.61_n00_s00_og_oh_oo_op_oq_or_om_on_ok_ol_oi_oj_ad0.0.0.0.0.0.0.0.0.0
    
    0-happy=47**aa32.76.1.49.50.19.42.0.16.57_ab_ac_ba50_bb6.1_bc185.500.8.0.1_bd6_be180_ca61.0.0.77.20.0.26.0.10_cb0_daFCF0E3.0.0.100_db_dd9.1.17.0.6.50_dh1.30.68.35.2_di5_qa_qb_dc4.1.FCF0E3.FCF0E3.FCF0E3_eh1.50_ea2.50.BFD1F0.52.0.0_ec_ed37.75.1.1.DEEBFD.9F9CAD_ef_eg_r0417.D1DCF6.9F9CAD.4E4E4E.2.2.90.100.152.620.545.0_r0517.D1DCF6.9F9CAD.52.1.2.56.50.116.546.588.0_r0617.D1DCF6.9F9CAD.4E4E4E.1.2.100.100.135.590.565.0_r0717.D1DCF6.9F9CAD.52.1.2.63.100.133.549.602.0_r0858.EBEFFB.FFFFFF.4E4E4E.2.0.75.200.357.631.542.1_r0947.E9EEFB.F7F9FE.9F9CAD.1.1.58.60.218.415.566.0_r1117.D1DCF6.A4A1B1.56.1.2.5.42.144.544.584.0_r1317.D1DCF6.9F9CAD.56.1.2.46.89.144.594.570.0_fa1.70.72.65.34.60.56_fb6_fh1_fc2.8AD1F7.FFFFFF.2.8AD1F7.FFFFFF.45.61.61.45.49.49_fd16.0.40.50.56_fe64.72_ff0000000000_fg0.63_pa0.0.0.0.34.46.81.80.0.0_t0015.E0AAAD.61.0.25.25.92.643.494.1_pb_pc_pd_pe_ga0_gb1_gc8.0_ge0000000000_gh_gf_gg_gd10000000_ha89.89_hb54.1.61.99_hc1.43.0.1.43.0_hd35.1.44.100_ia_if_ib_id_ic_jc_ie_ja_jb_jd2.EEF6FF.EEF6FF.50_je2.EEF6FF.EEF6FF.50_jf_jg_ka24.EEF6FF.2.2.0_kb_kc_kd_ke_kf_la_lb_oa_os_ob1.55.55.55_oc1.55.55.55_od_oe0.61.0.0_of_lc_m0043.56.3.0.2.1.0.63.61.78.5.61_m0252.EEF6FF.EEF6FF.0.0.2.21.64.9.3.0.61_m0343.56.3.0.2.1.0.73.59.75.5.61_m0443.56.3.0.2.1.0.55.50.78.1.61_n00_s00_og_oh_oo_op_oq_or_om_on_ok_ol_oi_oj_ad0.0.0.0.0.0.0.0.0.0
    
    0-angry=47**aa36.75.1.42.32.36.75.1.42.32_ab_ac_ba50_bb19.1_bc185.500.8.0.1_bd4_be180_ca61.0.0.77.20.0.26.0.10_cb0_daFCF0E3.0.0.100_db_dd9.1.17.0.6.50_dh1.30.68.35.2_di5_qa_qb_dc4.1.FCF0E3.FCF0E3.FCF0E3_eh1.50_ea2.50.BFD1F0.52.0.0_ec_ed37.75.1.1.DEEBFD.9F9CAD_ef_eg_r0417.D1DCF6.9F9CAD.4E4E4E.2.2.90.100.152.620.545.0_r0517.D1DCF6.9F9CAD.52.1.2.56.50.116.546.588.0_r0617.D1DCF6.9F9CAD.4E4E4E.1.2.100.100.135.590.565.0_r0717.D1DCF6.9F9CAD.52.1.2.63.100.133.549.602.0_r0858.EBEFFB.FFFFFF.4E4E4E.2.0.75.200.357.631.542.1_r0947.E9EEFB.F7F9FE.9F9CAD.1.1.58.60.218.415.566.0_r1117.D1DCF6.A4A1B1.56.1.2.5.42.144.544.584.0_r1317.D1DCF6.9F9CAD.56.1.2.46.89.144.594.570.0_fa1.70.72.65.34.60.56_fb6_fh1_fc2.8AD1F7.FFFFFF.2.8AD1F7.FFFFFF.45.61.61.45.49.49_fd16.0.40.50.56_fe64.72_ff0000000000_fg0.63_pa0.0.0.0.34.46.81.80.0.0_t0015.E0AAAD.61.0.25.25.92.643.494.1_pb_pc_pd_pe_ga0_gb1_gc8.0_ge0000000000_gh_gf_gg_gd10000000_ha89.89_hb54.1.61.99_hc2.22.0.2.22.0_hd38.1.31.38_ia_if_ib_id_ic_jc_ie_ja_jb_jd2.EEF6FF.EEF6FF.50_je2.EEF6FF.EEF6FF.50_jf_jg_ka24.EEF6FF.2.2.0_kb_kc_kd_ke_kf_la_lb_oa_os_ob1.55.55.55_oc1.55.55.55_od_oe0.61.0.0_of_lc_m0043.56.3.0.2.1.0.63.61.78.5.61_m0252.EEF6FF.EEF6FF.0.0.2.21.64.9.3.0.61_m0343.56.3.0.2.1.0.73.59.75.5.61_m0443.56.3.0.2.1.0.55.50.78.1.61_n00_s00_og_oh_oo_op_oq_or_om_on_ok_ol_oi_oj_ad0.0.0.0.0.0.0.0.0.0
    
    0-sad=47**aa13.90.0.3.50.13.90.0.3.50_ab_ac_ba50_bb25.1_bc185.500.8.0.1_bd0_be180_ca61.0.0.77.20.0.26.0.10_cb0_daFCF0E3.0.0.100_db_dd9.1.17.0.6.50_dh1.30.68.35.2_di5_qa_qb_dc4.1.FCF0E3.FCF0E3.FCF0E3_eh1.50_ea2.50.BFD1F0.52.0.0_ec_ed37.75.1.1.DEEBFD.9F9CAD_ef_eg_r0417.D1DCF6.9F9CAD.4E4E4E.2.2.90.100.152.620.545.0_r0517.D1DCF6.9F9CAD.52.1.2.56.50.116.546.588.0_r0617.D1DCF6.9F9CAD.4E4E4E.1.2.100.100.135.590.565.0_r0717.D1DCF6.9F9CAD.52.1.2.63.100.133.549.602.0_r0858.EBEFFB.FFFFFF.4E4E4E.2.0.75.200.357.631.542.1_r0947.E9EEFB.F7F9FE.9F9CAD.1.1.58.60.218.415.566.0_r1117.D1DCF6.A4A1B1.56.1.2.5.42.144.544.584.0_r1317.D1DCF6.9F9CAD.56.1.2.46.89.144.594.570.0_fa1.70.72.65.34.60.56_fb6_fh1_fc2.8AD1F7.FFFFFF.2.8AD1F7.FFFFFF.45.61.61.45.49.49_fd16.0.40.50.56_fe64.72_ff0000000000_fg0.63_pa0.0.0.0.34.46.81.80.0.0_t0015.E0AAAD.61.0.25.25.92.643.494.1_pb_pc_pd_pe_ga0_gb1_gc8.0_ge0000000000_gh_gf_gg_gd10000000_ha89.89_hb16.1.28.99_hc3.69.25.3.69.25_hd5.1.44.41_ia_if_ib_id_ic_jc_ie_ja_jb_jd2.EEF6FF.EEF6FF.50_je2.EEF6FF.EEF6FF.50_jf_jg_ka24.EEF6FF.2.2.0_kb_kc_kd_ke_kf_la_lb_oa_os_ob1.55.55.55_oc1.55.55.55_od_oe0.61.0.0_of_lc_m0043.56.3.0.2.1.0.63.61.78.5.61_m0252.EEF6FF.EEF6FF.0.0.2.21.64.9.3.0.61_m0343.56.3.0.2.1.0.73.59.75.5.61_m0443.56.3.0.2.1.0.55.50.78.1.61_n00_s00_og_oh_oo_op_oq_or_om_on_ok_ol_oi_oj_ad0.0.0.0.0.0.0.0.0.0
    
    0-sarcastic=47**aa9.76.1.47.46.9.76.1.47.46_ab_ac_ba50_bb1.1_bc185.500.8.0.1_bd1_be180_ca61.0.0.77.20.0.26.0.10_cb0_daFCF0E3.0.0.100_db_dd9.1.17.0.6.50_dh1.30.68.35.2_di5_qa_qb_dc4.1.FCF0E3.FCF0E3.FCF0E3_eh1.50_ea2.50.BFD1F0.52.0.0_ec_ed37.75.1.1.DEEBFD.9F9CAD_ef_eg_r0417.D1DCF6.9F9CAD.4E4E4E.2.2.90.100.152.620.545.0_r0517.D1DCF6.9F9CAD.52.1.2.56.50.116.546.588.0_r0617.D1DCF6.9F9CAD.4E4E4E.1.2.100.100.135.590.565.0_r0717.D1DCF6.9F9CAD.52.1.2.63.100.133.549.602.0_r0858.EBEFFB.FFFFFF.4E4E4E.2.0.75.200.357.631.542.1_r0947.E9EEFB.F7F9FE.9F9CAD.1.1.58.60.218.415.566.0_r1117.D1DCF6.A4A1B1.56.1.2.5.42.144.544.584.0_r1317.D1DCF6.9F9CAD.56.1.2.46.89.144.594.570.0_fa1.70.72.65.34.60.56_fb6_fh1_fc2.8AD1F7.FFFFFF.2.8AD1F7.FFFFFF.45.61.61.45.49.49_fd16.0.40.50.56_fe64.72_ff0000000000_fg0.63_pa0.0.0.0.34.46.81.80.0.0_t0015.E0AAAD.61.0.25.25.92.643.494.1_pb_pc_pd_pe_ga0_gb1_gc8.0_ge0000000000_gh_gf_gg_gd10000000_ha79.79_hb50.1.61.99_hc1.40.7.1.40.7_hd1.1.31.4_ia_if_ib_id_ic_jc_ie_ja_jb_jd2.EEF6FF.EEF6FF.50_je2.EEF6FF.EEF6FF.50_jf_jg_ka24.EEF6FF.2.2.0_kb_kc_kd_ke_kf_la_lb_oa_os_ob1.55.55.55_oc1.55.55.55_od_oe0.61.0.0_of_lc_m0043.56.3.0.2.1.0.63.61.78.5.61_m0252.EEF6FF.EEF6FF.0.0.2.21.64.9.3.0.61_m0343.56.3.0.2.1.0.73.59.75.5.61_m0443.56.3.0.2.1.0.55.50.78.1.61_n00_s00_og_oh_oo_op_oq_or_om_on_ok_ol_oi_oj_ad0.0.0.0.0.0.0.0.0.0
    
    0-interested=47**aa31.75.0.0.100.7.100.0.0.36_ab_ac_ba50_bb5.1_bc185.500.8.0.1_bd7_be180_ca61.0.0.77.20.0.26.0.10_cb0_daFCF0E3.0.0.100_db_dd9.1.17.0.6.50_dh1.30.68.35.2_di5_qa_qb_dc4.1.FCF0E3.FCF0E3.FCF0E3_eh1.50_ea2.50.BFD1F0.52.0.0_ec_ed37.75.1.1.DEEBFD.9F9CAD_ef_eg_r0417.D1DCF6.9F9CAD.4E4E4E.2.2.90.100.152.620.545.0_r0517.D1DCF6.9F9CAD.52.1.2.56.50.116.546.588.0_r0617.D1DCF6.9F9CAD.4E4E4E.1.2.100.100.135.590.565.0_r0717.D1DCF6.9F9CAD.52.1.2.63.100.133.549.602.0_r0858.EBEFFB.FFFFFF.4E4E4E.2.0.75.200.357.631.542.1_r0947.E9EEFB.F7F9FE.9F9CAD.1.1.58.60.218.415.566.0_r1117.D1DCF6.A4A1B1.56.1.2.5.42.144.544.584.0_r1317.D1DCF6.9F9CAD.56.1.2.46.89.144.594.570.0_fa1.70.72.65.34.60.56_fb6_fh1_fc2.8AD1F7.FFFFFF.2.8AD1F7.FFFFFF.45.61.61.45.49.49_fd16.0.40.50.56_fe64.72_ff0000000000_fg0.63_pa0.0.0.0.34.46.81.80.0.0_t0015.E0AAAD.61.0.25.25.92.643.494.1_pb_pc_pd_pe_ga0_gb1_gc8.0_ge0000000000_gh_gf_gg_gd10000000_ha85.85_hb50.1.61.99_hc0.48.23.0.48.23_hd25.1.32.31_ia_if_ib_id_ic_jc_ie_ja_jb_jd2.EEF6FF.EEF6FF.50_je2.EEF6FF.EEF6FF.50_jf_jg_ka24.EEF6FF.2.2.0_kb_kc_kd_ke_kf_la_lb_oa_os_ob1.55.55.55_oc1.55.55.55_od_oe0.61.0.0_of_lc_m0043.56.3.0.2.1.0.63.61.78.5.61_m0252.EEF6FF.EEF6FF.0.0.2.21.64.9.3.0.61_m0343.56.3.0.2.1.0.73.59.75.5.61_m0443.56.3.0.2.1.0.55.50.78.1.61_n00_s00_og_oh_oo_op_oq_or_om_on_ok_ol_oi_oj_ad0.0.0.0.0.0.0.0.0.0
    
    0-shocked=47**aa9.76.1.47.46.9.76.1.47.46_ab_ac_ba50_bb6.1_bc185.500.8.0.1_bd6_be180_ca61.0.0.77.20.0.26.0.10_cb0_daFCF0E3.0.0.100_db_dd9.1.17.0.6.50_dh1.30.68.35.2_di5_qa_qb_dc4.1.FCF0E3.FCF0E3.FCF0E3_eh1.50_ea2.50.BFD1F0.52.0.0_ec_ed37.75.1.1.DEEBFD.9F9CAD_ef_eg_r0417.D1DCF6.9F9CAD.4E4E4E.2.2.90.100.152.620.545.0_r0517.D1DCF6.9F9CAD.52.1.2.56.50.116.546.588.0_r0617.D1DCF6.9F9CAD.4E4E4E.1.2.100.100.135.590.565.0_r0717.D1DCF6.9F9CAD.52.1.2.63.100.133.549.602.0_r0858.EBEFFB.FFFFFF.4E4E4E.2.0.75.200.357.631.542.1_r0947.E9EEFB.F7F9FE.9F9CAD.1.1.58.60.218.415.566.0_r1117.D1DCF6.A4A1B1.56.1.2.5.42.144.544.584.0_r1317.D1DCF6.9F9CAD.56.1.2.46.89.144.594.570.0_fa1.70.72.65.34.60.56_fb6_fh1_fc2.8AD1F7.FFFFFF.2.8AD1F7.FFFFFF.45.61.61.45.49.49_fd16.0.40.50.56_fe64.72_ff0000000000_fg0.63_pa0.0.0.0.34.46.81.80.0.0_t0015.E0AAAD.61.0.25.25.92.643.494.1_pb_pc_pd_pe_ga0_gb1_gc8.0_ge0001000000_gh_gf_gg_gd10000000_ha100.100_hb54.1.61.99_hc0.75.40.0.75.40_hd36.1.22.16_ia_if_ib_id_ic_jc_ie_ja_jb_jd2.EEF6FF.EEF6FF.50_je2.EEF6FF.EEF6FF.50_jf_jg_ka24.EEF6FF.2.2.0_kb_kc_kd_ke_kf_la_lb_oa_os_ob1.55.55.55_oc1.55.55.55_od_oe0.61.0.0_of_lc_m0043.56.3.0.2.1.0.63.61.78.5.61_m0252.EEF6FF.EEF6FF.0.0.2.21.64.9.3.0.61_m0343.56.3.0.2.1.0.73.59.75.5.61_m0443.56.3.0.2.1.0.55.50.78.1.61_n00_s00_og_oh_oo_op_oq_or_om_on_ok_ol_oi_oj_ad0.0.0.0.0.0.0.0.0.0
    
    0-embarrassed=47**aa9.58.1.47.46.9.76.1.47.46_ab_ac_ba50_bb44.1_bc185.500.8.0.1_bd44_be180_ca61.0.0.77.20.0.26.0.10_cb0_daFCF0E3.0.0.100_db_dd10.1.17.0.6.50_dh1.30.68.35.2_di5_qa_qb_dc4.1.FCF0E3.FCF0E3.FCF0E3_eh1.50_ea2.50.BFD1F0.52.0.0_ec_ed37.75.1.1.DEEBFD.9F9CAD_ef_eg_r0417.D1DCF6.9F9CAD.4E4E4E.2.2.90.100.152.620.545.0_r0517.D1DCF6.9F9CAD.52.1.2.56.50.116.546.588.0_r0617.D1DCF6.9F9CAD.4E4E4E.1.2.100.100.135.590.565.0_r0717.D1DCF6.9F9CAD.52.1.2.63.100.133.549.602.0_r0858.EBEFFB.FFFFFF.4E4E4E.2.0.75.200.357.631.542.1_r0947.E9EEFB.F7F9FE.9F9CAD.1.1.58.60.218.415.566.0_r1117.D1DCF6.A4A1B1.56.1.2.5.42.144.544.584.0_r1317.D1DCF6.9F9CAD.56.1.2.46.89.144.594.570.0_fa1.70.72.65.34.60.56_fb6_fh1_fc2.8AD1F7.FFFFFF.2.8AD1F7.FFFFFF.45.61.61.45.49.49_fd16.0.40.50.56_fe64.72_ff0000000000_fg0.63_pa0.0.0.0.34.46.81.80.0.0_t0015.E0AAAD.61.0.25.25.92.643.494.1_pb_pc_pd_pe_ga0_gb1_gc21.0_ge0000000000_gh_gf_gg_gd10000000_ha89.89_hb12.1.96.99_hc0.46.16.0.46.16_hd8.1.11.4_ia_if_ib_id_ic_jc_ie_ja_jb_jd2.EEF6FF.EEF6FF.50_je2.EEF6FF.EEF6FF.50_jf_jg_ka24.EEF6FF.2.2.0_kb_kc_kd_ke_kf_la_lb_oa_os_ob1.55.55.55_oc1.55.55.55_od_oe0.61.0.0_of_lc_m0043.56.3.0.2.1.0.63.61.78.5.61_m0252.EEF6FF.EEF6FF.0.0.2.21.64.9.3.0.61_m0343.56.3.0.2.1.0.73.59.75.5.61_m0443.56.3.0.2.1.0.55.50.78.1.61_n00_s00_og_oh_oo_op_oq_or_om_on_ok_ol_oi_oj_ad0.0.0.0.0.0.0.0.0.0
    
    0-loss=47**aa14.83.1.47.43.14.83.1.47.50_ab_ac_ba50_bb44.1_bc185.500.8.0.1_bd44_be180_ca61.0.0.77.20.0.26.0.10_cb0_daFCF0E3.0.0.100_db_dd9.1.17.0.6.50_dh1.30.68.35.2_di5_qa_qb_dc4.1.FCF0E3.FCF0E3.FCF0E3_eh1.50_ea2.50.BFD1F0.52.0.0_ec_ed37.75.1.1.DEEBFD.9F9CAD_ef_eg_r0417.D1DCF6.9F9CAD.4E4E4E.2.2.90.100.152.620.545.0_r0517.D1DCF6.9F9CAD.52.1.2.56.50.116.546.588.0_r0617.D1DCF6.9F9CAD.4E4E4E.1.2.100.100.135.590.565.0_r0717.D1DCF6.9F9CAD.52.1.2.63.100.133.549.602.0_r0858.EBEFFB.FFFFFF.4E4E4E.2.0.75.200.357.631.542.1_r0947.E9EEFB.F7F9FE.9F9CAD.1.1.58.60.218.415.566.0_r1117.D1DCF6.A4A1B1.56.1.2.5.42.144.544.584.0_r1317.D1DCF6.9F9CAD.56.1.2.46.89.144.594.570.0_fa1.70.72.65.34.60.56_fb6_fh1_fc2.8AD1F7.FFFFFF.2.8AD1F7.FFFFFF.45.61.61.45.49.49_fd16.0.40.50.56_fe64.72_ff0000000000_fg0.63_pa0.0.0.0.34.46.81.80.0.0_t0015.E0AAAD.61.0.25.25.92.643.494.1_pb_pc_pd_pe_ga0_gb1_gc8.0_ge1000000000_gh1_gf_gg_gd10000000_ha89.89_hb51.1.64.99_hc0.75.0.0.75.0_hd25.1.24.21_ia_if_ib_id_ic_jc_ie_ja_jb_jd2.EEF6FF.EEF6FF.50_je2.EEF6FF.EEF6FF.50_jf_jg_ka24.EEF6FF.2.2.0_kb_kc_kd_ke_kf_la_lb_oa_os_ob1.55.55.55_oc1.55.55.55_od_oe0.61.0.0_of_lc_m0043.56.3.0.2.1.0.63.61.78.5.61_m0252.EEF6FF.EEF6FF.0.0.2.21.64.9.3.0.61_m0343.56.3.0.2.1.0.73.59.75.5.61_m0443.56.3.0.2.1.0.55.50.78.1.61_n00_s00_og_oh_oo_op_oq_or_om_on_ok_ol_oi_oj_ad0.0.0.0.0.0.0.0.0.0
    
    0-strip=47**aa25.44.0.28.69.11.56.0.28.50_ab_ac_ba50_bb6.1_bc185.500.8.0.1_bd6_be180_ca61.0.0.77.20.0.26.0.10_cb0_daFCF0E3.0.0.100_db_dd9.1.17.0.6.50_dh1.30.68.35.2_di5_qa_qb_dc4.1.FCF0E3.FCF0E3.FCF0E3_eh1.50_ea2.50.BFD1F0.52.0.0_ec_ed37.75.1.1.DEEBFD.9F9CAD_ef_eg_r0417.D1DCF6.9F9CAD.4E4E4E.2.2.90.100.152.620.545.0_r0517.D1DCF6.9F9CAD.52.1.2.56.50.116.546.588.0_r0617.D1DCF6.9F9CAD.4E4E4E.1.2.100.100.135.590.565.0_r0717.D1DCF6.9F9CAD.52.1.2.63.100.133.549.602.0_r0858.EBEFFB.FFFFFF.4E4E4E.2.0.75.200.357.631.542.1_r0947.E9EEFB.F7F9FE.9F9CAD.1.1.58.60.218.415.566.0_r1117.D1DCF6.A4A1B1.56.1.2.5.42.144.544.584.0_r1317.D1DCF6.9F9CAD.56.1.2.46.89.144.594.570.0_fa1.70.72.65.34.60.56_fb6_fh1_fc2.8AD1F7.FFFFFF.2.8AD1F7.FFFFFF.45.61.61.45.49.49_fd16.0.40.50.56_fe64.72_ff0000000000_fg0.63_pa0.0.0.0.34.46.81.80.0.0_t0015.E0AAAD.61.0.25.25.92.643.494.1_pb_pc_pd_pe_ga0_gb1_gc8.0_ge0000000000_gh_gf_gg_gd10000000_ha89.89_hb23.1.17.99_hc0.31.6.0.31.6_hd24.1.31.4_ia_if_ib_id_ic_jc_ie_ja_jb_jd2.EEF6FF.EEF6FF.50_je2.EEF6FF.EEF6FF.50_jf_jg_ka24.EEF6FF.2.2.0_kb_kc_kd_ke_kf_la_lb_oa_os_ob1.55.55.55_oc1.55.55.55_od_oe0.61.0.0_of_lc_m0043.56.3.0.2.1.0.63.61.78.5.61_m0252.EEF6FF.EEF6FF.0.0.2.21.64.9.3.0.61_m0343.56.3.0.2.1.0.73.59.75.5.61_m0443.56.3.0.2.1.0.55.50.78.1.61_n00_s00_og_oh_oo_op_oq_or_om_on_ok_ol_oi_oj_ad0.0.0.0.0.0.0.0.0.0
    

#lost jewelry
    1-stripped=47**aa32.76.1.49.47.19.42.0.34.47_ab_ac_ba50_bb7.1_bc185.500.8.0.1_bd6_be180_ca61.0.0.77.20.0.26.0.10_cb0_daFCF0E3.0.0.100_db_dd9.1.17.0.6.50_dh1.30.68.35.2_di5_qa_qb_dc4.1.FCF0E3.FCF0E3.FCF0E3_eh1.50_ea2.50.BFD1F0.52.0.0_ec_ed37.75.1.1.DEEBFD.9F9CAD_ef_eg_r0417.D1DCF6.9F9CAD.4E4E4E.2.2.90.100.152.620.545.0_r0517.D1DCF6.9F9CAD.52.1.2.56.50.116.546.588.0_r0617.D1DCF6.9F9CAD.4E4E4E.1.2.100.100.135.590.565.0_r0717.D1DCF6.9F9CAD.52.1.2.63.100.133.549.602.0_r0858.EBEFFB.FFFFFF.4E4E4E.2.0.75.200.357.631.542.1_r0947.E9EEFB.F7F9FE.9F9CAD.1.1.58.60.218.415.566.0_r1117.D1DCF6.A4A1B1.56.1.2.5.42.144.544.584.0_r1317.D1DCF6.9F9CAD.56.1.2.46.89.144.594.570.0_fa1.70.72.65.34.60.56_fb6_fh1_fc2.8AD1F7.FFFFFF.2.8AD1F7.FFFFFF.45.61.61.45.49.49_fd16.0.40.50.56_fe64.72_ff0000000000_fg0.63_pa0.0.0.0.34.46.81.80.0.0_t0015.E0AAAD.61.0.25.25.92.643.494.1_pb_pc_pd_pe_ga0_gb1_gc8.0_ge0000000000_gh_gf_gg_gd10000000_ha89.89_hb55.1.44.99_hc1.44.0.1.44.0_hd35.1.31.73_ia_if_ib_id_ic_jc_ie_ja_jb_jd2.EEF6FF.EEF6FF.50_je2.EEF6FF.EEF6FF.50_jf_jg_ka24.EEF6FF.2.2.0_kb_kc_kd_ke_kf_la_lb_oa_os_ob_oc_od_oe_of_lc_m0043.56.3.0.2.1.0.63.61.78.5.61_m0252.EEF6FF.EEF6FF.0.0.2.21.64.9.3.0.61_m0343.56.3.0.2.1.0.73.59.75.5.61_m0443.56.3.0.2.1.0.55.50.78.1.61_n00_s00_og_oh_oo_op_oq_or_om_on_ok_ol_oi_oj_ad0.0.0.0.0.0.0.0.0.0
    
    1-calm=47**aa13.90.0.3.50.13.90.0.3.50_ab_ac_ba50_bb5.1_bc185.500.8.0.1_bd5_be180_ca61.0.0.77.20.0.26.0.10_cb0_daFCF0E3.0.0.100_db_dd9.1.17.0.6.50_dh1.30.68.35.2_di5_qa_qb_dc4.1.FCF0E3.FCF0E3.FCF0E3_eh1.50_ea2.50.BFD1F0.52.0.0_ec_ed37.75.1.1.DEEBFD.9F9CAD_ef_eg_r0417.D1DCF6.9F9CAD.4E4E4E.2.2.90.100.152.620.545.0_r0517.D1DCF6.9F9CAD.52.1.2.56.50.116.546.588.0_r0617.D1DCF6.9F9CAD.4E4E4E.1.2.100.100.135.590.565.0_r0717.D1DCF6.9F9CAD.52.1.2.63.100.133.549.602.0_r0858.EBEFFB.FFFFFF.4E4E4E.2.0.75.200.357.631.542.1_r0947.E9EEFB.F7F9FE.9F9CAD.1.1.58.60.218.415.566.0_r1117.D1DCF6.A4A1B1.56.1.2.5.42.144.544.584.0_r1317.D1DCF6.9F9CAD.56.1.2.46.89.144.594.570.0_fa1.70.72.65.34.60.56_fb6_fh1_fc2.8AD1F7.FFFFFF.2.8AD1F7.FFFFFF.45.61.61.45.49.49_fd16.0.40.50.56_fe64.72_ff0000000000_fg0.63_pa0.0.0.0.34.46.81.80.0.0_t0015.E0AAAD.61.0.25.25.92.643.494.1_pb_pc_pd_pe_ga0_gb1_gc8.0_ge0000000000_gh_gf_gg_gd10000000_ha89.89_hb54.1.61.99_hc0.39.14.0.39.14_hd0.1.36.38_ia_if_ib_id_ic_jc_ie_ja_jb_jd2.EEF6FF.EEF6FF.50_je2.EEF6FF.EEF6FF.50_jf_jg_ka24.EEF6FF.2.2.0_kb_kc_kd_ke_kf_la_lb_oa_os_ob_oc_od_oe_of_lc_m0043.56.3.0.2.1.0.63.61.78.5.61_m0252.EEF6FF.EEF6FF.0.0.2.21.64.9.3.0.61_m0343.56.3.0.2.1.0.73.59.75.5.61_m0443.56.3.0.2.1.0.55.50.78.1.61_n00_s00_og_oh_oo_op_oq_or_om_on_ok_ol_oi_oj_ad0.0.0.0.0.0.0.0.0.0
    
    1-happy=47**aa32.76.1.49.50.19.42.0.16.57_ab_ac_ba50_bb6.1_bc185.500.8.0.1_bd6_be180_ca61.0.0.77.20.0.26.0.10_cb0_daFCF0E3.0.0.100_db_dd9.1.17.0.6.50_dh1.30.68.35.2_di5_qa_qb_dc4.1.FCF0E3.FCF0E3.FCF0E3_eh1.50_ea2.50.BFD1F0.52.0.0_ec_ed37.75.1.1.DEEBFD.9F9CAD_ef_eg_r0417.D1DCF6.9F9CAD.4E4E4E.2.2.90.100.152.620.545.0_r0517.D1DCF6.9F9CAD.52.1.2.56.50.116.546.588.0_r0617.D1DCF6.9F9CAD.4E4E4E.1.2.100.100.135.590.565.0_r0717.D1DCF6.9F9CAD.52.1.2.63.100.133.549.602.0_r0858.EBEFFB.FFFFFF.4E4E4E.2.0.75.200.357.631.542.1_r0947.E9EEFB.F7F9FE.9F9CAD.1.1.58.60.218.415.566.0_r1117.D1DCF6.A4A1B1.56.1.2.5.42.144.544.584.0_r1317.D1DCF6.9F9CAD.56.1.2.46.89.144.594.570.0_fa1.70.72.65.34.60.56_fb6_fh1_fc2.8AD1F7.FFFFFF.2.8AD1F7.FFFFFF.45.61.61.45.49.49_fd16.0.40.50.56_fe64.72_ff0000000000_fg0.63_pa0.0.0.0.34.46.81.80.0.0_t0015.E0AAAD.61.0.25.25.92.643.494.1_pb_pc_pd_pe_ga0_gb1_gc8.0_ge0000000000_gh_gf_gg_gd10000000_ha89.89_hb54.1.61.99_hc1.43.0.1.43.0_hd35.1.44.100_ia_if_ib_id_ic_jc_ie_ja_jb_jd2.EEF6FF.EEF6FF.50_je2.EEF6FF.EEF6FF.50_jf_jg_ka24.EEF6FF.2.2.0_kb_kc_kd_ke_kf_la_lb_oa_os_ob_oc_od_oe_of_lc_m0043.56.3.0.2.1.0.63.61.78.5.61_m0252.EEF6FF.EEF6FF.0.0.2.21.64.9.3.0.61_m0343.56.3.0.2.1.0.73.59.75.5.61_m0443.56.3.0.2.1.0.55.50.78.1.61_n00_s00_og_oh_oo_op_oq_or_om_on_ok_ol_oi_oj_ad0.0.0.0.0.0.0.0.0.0
    
    1-angry=47**aa36.75.1.42.32.36.75.1.42.32_ab_ac_ba50_bb19.1_bc185.500.8.0.1_bd4_be180_ca61.0.0.77.20.0.26.0.10_cb0_daFCF0E3.0.0.100_db_dd9.1.17.0.6.50_dh1.30.68.35.2_di5_qa_qb_dc4.1.FCF0E3.FCF0E3.FCF0E3_eh1.50_ea2.50.BFD1F0.52.0.0_ec_ed37.75.1.1.DEEBFD.9F9CAD_ef_eg_r0417.D1DCF6.9F9CAD.4E4E4E.2.2.90.100.152.620.545.0_r0517.D1DCF6.9F9CAD.52.1.2.56.50.116.546.588.0_r0617.D1DCF6.9F9CAD.4E4E4E.1.2.100.100.135.590.565.0_r0717.D1DCF6.9F9CAD.52.1.2.63.100.133.549.602.0_r0858.EBEFFB.FFFFFF.4E4E4E.2.0.75.200.357.631.542.1_r0947.E9EEFB.F7F9FE.9F9CAD.1.1.58.60.218.415.566.0_r1117.D1DCF6.A4A1B1.56.1.2.5.42.144.544.584.0_r1317.D1DCF6.9F9CAD.56.1.2.46.89.144.594.570.0_fa1.70.72.65.34.60.56_fb6_fh1_fc2.8AD1F7.FFFFFF.2.8AD1F7.FFFFFF.45.61.61.45.49.49_fd16.0.40.50.56_fe64.72_ff0000000000_fg0.63_pa0.0.0.0.34.46.81.80.0.0_t0015.E0AAAD.61.0.25.25.92.643.494.1_pb_pc_pd_pe_ga0_gb1_gc8.0_ge0000000000_gh_gf_gg_gd10000000_ha89.89_hb54.1.61.99_hc2.22.0.2.22.0_hd38.1.31.38_ia_if_ib_id_ic_jc_ie_ja_jb_jd2.EEF6FF.EEF6FF.50_je2.EEF6FF.EEF6FF.50_jf_jg_ka24.EEF6FF.2.2.0_kb_kc_kd_ke_kf_la_lb_oa_os_ob_oc_od_oe_of_lc_m0043.56.3.0.2.1.0.63.61.78.5.61_m0252.EEF6FF.EEF6FF.0.0.2.21.64.9.3.0.61_m0343.56.3.0.2.1.0.73.59.75.5.61_m0443.56.3.0.2.1.0.55.50.78.1.61_n00_s00_og_oh_oo_op_oq_or_om_on_ok_ol_oi_oj_ad0.0.0.0.0.0.0.0.0.0
    
    1-sad=47**aa13.90.0.3.50.13.90.0.3.50_ab_ac_ba50_bb25.1_bc185.500.8.0.1_bd0_be180_ca61.0.0.77.20.0.26.0.10_cb0_daFCF0E3.0.0.100_db_dd9.1.17.0.6.50_dh1.30.68.35.2_di5_qa_qb_dc4.1.FCF0E3.FCF0E3.FCF0E3_eh1.50_ea2.50.BFD1F0.52.0.0_ec_ed37.75.1.1.DEEBFD.9F9CAD_ef_eg_r0417.D1DCF6.9F9CAD.4E4E4E.2.2.90.100.152.620.545.0_r0517.D1DCF6.9F9CAD.52.1.2.56.50.116.546.588.0_r0617.D1DCF6.9F9CAD.4E4E4E.1.2.100.100.135.590.565.0_r0717.D1DCF6.9F9CAD.52.1.2.63.100.133.549.602.0_r0858.EBEFFB.FFFFFF.4E4E4E.2.0.75.200.357.631.542.1_r0947.E9EEFB.F7F9FE.9F9CAD.1.1.58.60.218.415.566.0_r1117.D1DCF6.A4A1B1.56.1.2.5.42.144.544.584.0_r1317.D1DCF6.9F9CAD.56.1.2.46.89.144.594.570.0_fa1.70.72.65.34.60.56_fb6_fh1_fc2.8AD1F7.FFFFFF.2.8AD1F7.FFFFFF.45.61.61.45.49.49_fd16.0.40.50.56_fe64.72_ff0000000000_fg0.63_pa0.0.0.0.34.46.81.80.0.0_t0015.E0AAAD.61.0.25.25.92.643.494.1_pb_pc_pd_pe_ga0_gb1_gc8.0_ge0000000000_gh_gf_gg_gd10000000_ha89.89_hb16.1.28.99_hc3.69.25.3.69.25_hd5.1.44.41_ia_if_ib_id_ic_jc_ie_ja_jb_jd2.EEF6FF.EEF6FF.50_je2.EEF6FF.EEF6FF.50_jf_jg_ka24.EEF6FF.2.2.0_kb_kc_kd_ke_kf_la_lb_oa_os_ob_oc_od_oe_of_lc_m0043.56.3.0.2.1.0.63.61.78.5.61_m0252.EEF6FF.EEF6FF.0.0.2.21.64.9.3.0.61_m0343.56.3.0.2.1.0.73.59.75.5.61_m0443.56.3.0.2.1.0.55.50.78.1.61_n00_s00_og_oh_oo_op_oq_or_om_on_ok_ol_oi_oj_ad0.0.0.0.0.0.0.0.0.0
    
    1-sarcastic=47**aa9.76.1.47.46.9.76.1.47.46_ab_ac_ba50_bb1.1_bc185.500.8.0.1_bd1_be180_ca61.0.0.77.20.0.26.0.10_cb0_daFCF0E3.0.0.100_db_dd9.1.17.0.6.50_dh1.30.68.35.2_di5_qa_qb_dc4.1.FCF0E3.FCF0E3.FCF0E3_eh1.50_ea2.50.BFD1F0.52.0.0_ec_ed37.75.1.1.DEEBFD.9F9CAD_ef_eg_r0417.D1DCF6.9F9CAD.4E4E4E.2.2.90.100.152.620.545.0_r0517.D1DCF6.9F9CAD.52.1.2.56.50.116.546.588.0_r0617.D1DCF6.9F9CAD.4E4E4E.1.2.100.100.135.590.565.0_r0717.D1DCF6.9F9CAD.52.1.2.63.100.133.549.602.0_r0858.EBEFFB.FFFFFF.4E4E4E.2.0.75.200.357.631.542.1_r0947.E9EEFB.F7F9FE.9F9CAD.1.1.58.60.218.415.566.0_r1117.D1DCF6.A4A1B1.56.1.2.5.42.144.544.584.0_r1317.D1DCF6.9F9CAD.56.1.2.46.89.144.594.570.0_fa1.70.72.65.34.60.56_fb6_fh1_fc2.8AD1F7.FFFFFF.2.8AD1F7.FFFFFF.45.61.61.45.49.49_fd16.0.40.50.56_fe64.72_ff0000000000_fg0.63_pa0.0.0.0.34.46.81.80.0.0_t0015.E0AAAD.61.0.25.25.92.643.494.1_pb_pc_pd_pe_ga0_gb1_gc8.0_ge0000000000_gh_gf_gg_gd10000000_ha79.79_hb50.1.61.99_hc1.40.7.1.40.7_hd1.1.31.4_ia_if_ib_id_ic_jc_ie_ja_jb_jd2.EEF6FF.EEF6FF.50_je2.EEF6FF.EEF6FF.50_jf_jg_ka24.EEF6FF.2.2.0_kb_kc_kd_ke_kf_la_lb_oa_os_ob_oc_od_oe_of_lc_m0043.56.3.0.2.1.0.63.61.78.5.61_m0252.EEF6FF.EEF6FF.0.0.2.21.64.9.3.0.61_m0343.56.3.0.2.1.0.73.59.75.5.61_m0443.56.3.0.2.1.0.55.50.78.1.61_n00_s00_og_oh_oo_op_oq_or_om_on_ok_ol_oi_oj_ad0.0.0.0.0.0.0.0.0.0
    
    1-interested=47**aa31.75.0.0.100.7.100.0.0.36_ab_ac_ba50_bb5.1_bc185.500.8.0.1_bd7_be180_ca61.0.0.77.20.0.26.0.10_cb0_daFCF0E3.0.0.100_db_dd9.1.17.0.6.50_dh1.30.68.35.2_di5_qa_qb_dc4.1.FCF0E3.FCF0E3.FCF0E3_eh1.50_ea2.50.BFD1F0.52.0.0_ec_ed37.75.1.1.DEEBFD.9F9CAD_ef_eg_r0417.D1DCF6.9F9CAD.4E4E4E.2.2.90.100.152.620.545.0_r0517.D1DCF6.9F9CAD.52.1.2.56.50.116.546.588.0_r0617.D1DCF6.9F9CAD.4E4E4E.1.2.100.100.135.590.565.0_r0717.D1DCF6.9F9CAD.52.1.2.63.100.133.549.602.0_r0858.EBEFFB.FFFFFF.4E4E4E.2.0.75.200.357.631.542.1_r0947.E9EEFB.F7F9FE.9F9CAD.1.1.58.60.218.415.566.0_r1117.D1DCF6.A4A1B1.56.1.2.5.42.144.544.584.0_r1317.D1DCF6.9F9CAD.56.1.2.46.89.144.594.570.0_fa1.70.72.65.34.60.56_fb6_fh1_fc2.8AD1F7.FFFFFF.2.8AD1F7.FFFFFF.45.61.61.45.49.49_fd16.0.40.50.56_fe64.72_ff0000000000_fg0.63_pa0.0.0.0.34.46.81.80.0.0_t0015.E0AAAD.61.0.25.25.92.643.494.1_pb_pc_pd_pe_ga0_gb1_gc8.0_ge0000000000_gh_gf_gg_gd10000000_ha85.85_hb50.1.61.99_hc0.48.23.0.48.23_hd25.1.32.31_ia_if_ib_id_ic_jc_ie_ja_jb_jd2.EEF6FF.EEF6FF.50_je2.EEF6FF.EEF6FF.50_jf_jg_ka24.EEF6FF.2.2.0_kb_kc_kd_ke_kf_la_lb_oa_os_ob_oc_od_oe_of_lc_m0043.56.3.0.2.1.0.63.61.78.5.61_m0252.EEF6FF.EEF6FF.0.0.2.21.64.9.3.0.61_m0343.56.3.0.2.1.0.73.59.75.5.61_m0443.56.3.0.2.1.0.55.50.78.1.61_n00_s00_og_oh_oo_op_oq_or_om_on_ok_ol_oi_oj_ad0.0.0.0.0.0.0.0.0.0
    
    1-shocked=47**aa9.76.1.47.46.9.76.1.47.46_ab_ac_ba50_bb6.1_bc185.500.8.0.1_bd6_be180_ca61.0.0.77.20.0.26.0.10_cb0_daFCF0E3.0.0.100_db_dd9.1.17.0.6.50_dh1.30.68.35.2_di5_qa_qb_dc4.1.FCF0E3.FCF0E3.FCF0E3_eh1.50_ea2.50.BFD1F0.52.0.0_ec_ed37.75.1.1.DEEBFD.9F9CAD_ef_eg_r0417.D1DCF6.9F9CAD.4E4E4E.2.2.90.100.152.620.545.0_r0517.D1DCF6.9F9CAD.52.1.2.56.50.116.546.588.0_r0617.D1DCF6.9F9CAD.4E4E4E.1.2.100.100.135.590.565.0_r0717.D1DCF6.9F9CAD.52.1.2.63.100.133.549.602.0_r0858.EBEFFB.FFFFFF.4E4E4E.2.0.75.200.357.631.542.1_r0947.E9EEFB.F7F9FE.9F9CAD.1.1.58.60.218.415.566.0_r1117.D1DCF6.A4A1B1.56.1.2.5.42.144.544.584.0_r1317.D1DCF6.9F9CAD.56.1.2.46.89.144.594.570.0_fa1.70.72.65.34.60.56_fb6_fh1_fc2.8AD1F7.FFFFFF.2.8AD1F7.FFFFFF.45.61.61.45.49.49_fd16.0.40.50.56_fe64.72_ff0000000000_fg0.63_pa0.0.0.0.34.46.81.80.0.0_t0015.E0AAAD.61.0.25.25.92.643.494.1_pb_pc_pd_pe_ga0_gb1_gc8.0_ge0001000000_gh_gf_gg_gd10000000_ha100.100_hb54.1.61.99_hc0.75.40.0.75.40_hd36.1.22.16_ia_if_ib_id_ic_jc_ie_ja_jb_jd2.EEF6FF.EEF6FF.50_je2.EEF6FF.EEF6FF.50_jf_jg_ka24.EEF6FF.2.2.0_kb_kc_kd_ke_kf_la_lb_oa_os_ob_oc_od_oe_of_lc_m0043.56.3.0.2.1.0.63.61.78.5.61_m0252.EEF6FF.EEF6FF.0.0.2.21.64.9.3.0.61_m0343.56.3.0.2.1.0.73.59.75.5.61_m0443.56.3.0.2.1.0.55.50.78.1.61_n00_s00_og_oh_oo_op_oq_or_om_on_ok_ol_oi_oj_ad0.0.0.0.0.0.0.0.0.0
    
    1-embarrassed=47**aa9.58.1.47.46.9.76.1.47.46_ab_ac_ba50_bb44.1_bc185.500.8.0.1_bd44_be180_ca61.0.0.77.20.0.26.0.10_cb0_daFCF0E3.0.0.100_db_dd10.1.17.0.6.50_dh1.30.68.35.2_di5_qa_qb_dc4.1.FCF0E3.FCF0E3.FCF0E3_eh1.50_ea2.50.BFD1F0.52.0.0_ec_ed37.75.1.1.DEEBFD.9F9CAD_ef_eg_r0417.D1DCF6.9F9CAD.4E4E4E.2.2.90.100.152.620.545.0_r0517.D1DCF6.9F9CAD.52.1.2.56.50.116.546.588.0_r0617.D1DCF6.9F9CAD.4E4E4E.1.2.100.100.135.590.565.0_r0717.D1DCF6.9F9CAD.52.1.2.63.100.133.549.602.0_r0858.EBEFFB.FFFFFF.4E4E4E.2.0.75.200.357.631.542.1_r0947.E9EEFB.F7F9FE.9F9CAD.1.1.58.60.218.415.566.0_r1117.D1DCF6.A4A1B1.56.1.2.5.42.144.544.584.0_r1317.D1DCF6.9F9CAD.56.1.2.46.89.144.594.570.0_fa1.70.72.65.34.60.56_fb6_fh1_fc2.8AD1F7.FFFFFF.2.8AD1F7.FFFFFF.45.61.61.45.49.49_fd16.0.40.50.56_fe64.72_ff0000000000_fg0.63_pa0.0.0.0.34.46.81.80.0.0_t0015.E0AAAD.61.0.25.25.92.643.494.1_pb_pc_pd_pe_ga0_gb1_gc21.0_ge0000000000_gh_gf_gg_gd10000000_ha89.89_hb12.1.96.99_hc0.46.16.0.46.16_hd8.1.11.4_ia_if_ib_id_ic_jc_ie_ja_jb_jd2.EEF6FF.EEF6FF.50_je2.EEF6FF.EEF6FF.50_jf_jg_ka24.EEF6FF.2.2.0_kb_kc_kd_ke_kf_la_lb_oa_os_ob_oc_od_oe_of_lc_m0043.56.3.0.2.1.0.63.61.78.5.61_m0252.EEF6FF.EEF6FF.0.0.2.21.64.9.3.0.61_m0343.56.3.0.2.1.0.73.59.75.5.61_m0443.56.3.0.2.1.0.55.50.78.1.61_n00_s00_og_oh_oo_op_oq_or_om_on_ok_ol_oi_oj_ad0.0.0.0.0.0.0.0.0.0
    
    1-loss=47**aa14.83.1.47.43.14.83.1.47.50_ab_ac_ba50_bb44.1_bc185.500.8.0.1_bd44_be180_ca61.0.0.77.20.0.26.0.10_cb0_daFCF0E3.0.0.100_db_dd9.1.17.0.6.50_dh1.30.68.35.2_di5_qa_qb_dc4.1.FCF0E3.FCF0E3.FCF0E3_eh1.50_ea2.50.BFD1F0.52.0.0_ec_ed37.75.1.1.DEEBFD.9F9CAD_ef_eg_r0417.D1DCF6.9F9CAD.4E4E4E.2.2.90.100.152.620.545.0_r0517.D1DCF6.9F9CAD.52.1.2.56.50.116.546.588.0_r0617.D1DCF6.9F9CAD.4E4E4E.1.2.100.100.135.590.565.0_r0717.D1DCF6.9F9CAD.52.1.2.63.100.133.549.602.0_r0858.EBEFFB.FFFFFF.4E4E4E.2.0.75.200.357.631.542.1_r0947.E9EEFB.F7F9FE.9F9CAD.1.1.58.60.218.415.566.0_r1117.D1DCF6.A4A1B1.56.1.2.5.42.144.544.584.0_r1317.D1DCF6.9F9CAD.56.1.2.46.89.144.594.570.0_fa1.70.72.65.34.60.56_fb6_fh1_fc2.8AD1F7.FFFFFF.2.8AD1F7.FFFFFF.45.61.61.45.49.49_fd16.0.40.50.56_fe64.72_ff0000000000_fg0.63_pa0.0.0.0.34.46.81.80.0.0_t0015.E0AAAD.61.0.25.25.92.643.494.1_pb_pc_pd_pe_ga0_gb1_gc8.0_ge1000000000_gh1_gf_gg_gd10000000_ha89.89_hb51.1.64.99_hc0.75.0.0.75.0_hd25.1.24.21_ia_if_ib_id_ic_jc_ie_ja_jb_jd2.EEF6FF.EEF6FF.50_je2.EEF6FF.EEF6FF.50_jf_jg_ka24.EEF6FF.2.2.0_kb_kc_kd_ke_kf_la_lb_oa_os_ob_oc_od_oe_of_lc_m0043.56.3.0.2.1.0.63.61.78.5.61_m0252.EEF6FF.EEF6FF.0.0.2.21.64.9.3.0.61_m0343.56.3.0.2.1.0.73.59.75.5.61_m0443.56.3.0.2.1.0.55.50.78.1.61_n00_s00_og_oh_oo_op_oq_or_om_on_ok_ol_oi_oj_ad0.0.0.0.0.0.0.0.0.0
    
    1-strip=47**aa20.90.0.0.50.20.90.0.0.57_ab_ac_ba50_bb50.1_bc185.500.8.0.1_bd50_be180_ca61.0.0.77.20.0.26.0.10_cb0_daFCF0E3.0.0.100_db_dd9.1.17.0.6.50_dh1.30.68.35.2_di5_qa_qb_dc4.1.FCF0E3.FCF0E3.FCF0E3_eh1.50_ea2.50.BFD1F0.52.0.0_ec_ed37.75.1.1.DEEBFD.9F9CAD_ef_eg_r0417.D1DCF6.9F9CAD.4E4E4E.2.2.90.100.152.620.545.0_r0517.D1DCF6.9F9CAD.52.1.2.56.50.116.546.588.0_r0617.D1DCF6.9F9CAD.4E4E4E.1.2.100.100.135.590.565.0_r0717.D1DCF6.9F9CAD.52.1.2.63.100.133.549.602.0_r0858.EBEFFB.FFFFFF.4E4E4E.2.0.75.200.357.631.542.1_r0947.E9EEFB.F7F9FE.9F9CAD.1.1.58.60.218.415.566.0_r1117.D1DCF6.A4A1B1.56.1.2.5.42.144.544.584.0_r1317.D1DCF6.9F9CAD.56.1.2.46.89.144.594.570.0_fa1.70.72.65.34.60.56_fb6_fh1_fc2.8AD1F7.FFFFFF.2.8AD1F7.FFFFFF.45.61.61.45.49.49_fd16.0.40.50.56_fe64.72_ff0000000000_fg0.63_pa0.0.0.0.34.46.81.80.0.0_t0015.E0AAAD.61.0.25.25.92.643.494.1_pb_pc_pd_pe_ga0_gb1_gc8.0_ge0000000000_gh_gf_gg_gd10000000_ha89.89_hb54.1.9.99_hc0.13.0.0.51.36_hd10.1.31.4_ia_if_ib_id_ic_jc_ie_ja_jb_jd2.EEF6FF.EEF6FF.50_je2.EEF6FF.EEF6FF.50_jf_jg_ka24.EEF6FF.2.2.0_kb_kc_kd_ke_kf_la_lb_oa_os_ob_oc_od_oe_of_lc_m0043.56.3.0.2.1.0.63.61.78.5.61_m0252.EEF6FF.EEF6FF.0.0.2.21.64.9.3.0.61_m0343.56.3.0.2.1.0.73.59.75.5.61_m0443.56.3.0.2.1.0.55.50.78.1.61_n00_s00_og_oh_oo_op_oq_or_om_on_ok_ol_oi_oj_ad0.0.0.0.0.0.0.0.0.0
    

#lost sandals
    2-stripped=47**aa9.100.0.0.50.9.100.0.0.57_ab_ac_ba50_bb6.1_bc185.500.8.0.1_bd6_be180_ca61.0.0.77.20.0.26.0.10_cb0_daFCF0E3.0.0.100_db_dd9.1.17.0.6.50_dh1.30.68.35.2_di5_qa_qb_dc4.1.FCF0E3.FCF0E3.FCF0E3_eh1.50_ea2.50.BFD1F0.52.0.0_ec_ed37.75.1.1.DEEBFD.9F9CAD_ef_eg_r0417.D1DCF6.9F9CAD.4E4E4E.2.2.90.100.152.620.545.0_r0517.D1DCF6.9F9CAD.52.1.2.56.50.116.546.588.0_r0617.D1DCF6.9F9CAD.4E4E4E.1.2.100.100.135.590.565.0_r0717.D1DCF6.9F9CAD.52.1.2.63.100.133.549.602.0_r0858.EBEFFB.FFFFFF.4E4E4E.2.0.75.200.357.631.542.1_r0947.E9EEFB.F7F9FE.9F9CAD.1.1.58.60.218.415.566.0_r1117.D1DCF6.A4A1B1.56.1.2.5.42.144.544.584.0_r1317.D1DCF6.9F9CAD.56.1.2.46.89.144.594.570.0_fa1.70.72.65.34.60.56_fb6_fh1_fc2.8AD1F7.FFFFFF.2.8AD1F7.FFFFFF.45.61.61.45.49.49_fd16.0.40.50.56_fe64.72_ff0000000000_fg0.63_pa0.0.0.0.34.46.81.80.0.0_t0015.E0AAAD.61.0.25.25.92.643.494.1_pb_pc_pd_pe_ga0_gb1_gc8.0_ge0000000000_gh_gf_gg_gd10000000_ha89.89_hb54.1.61.99_hc0.31.13.0.31.13_hd37.1.47.21_ia_if_ib_id_ic_jc_ie_ja_jb_jd_je_jf_jg_ka24.EEF6FF.2.2.0_kb_kc_kd_ke_kf_la_lb_oa_os_ob_oc_od_oe_of_lc_m0043.56.3.0.2.1.0.63.61.78.5.61_m0252.EEF6FF.EEF6FF.0.0.2.21.64.9.3.0.61_m0343.56.3.0.2.1.0.73.59.75.5.61_m0443.56.3.0.2.1.0.55.50.78.1.61_n00_s00_og_oh_oo_op_oq_or_om_on_ok_ol_oi_oj_ad0.0.0.0.0.0.0.0.0.0
    
    2-calm=47**aa7.71.1.47.46.7.71.1.47.46_ab_ac_ba50_bb6.1_bc185.500.8.0.1_bd6_be180_ca61.0.0.77.20.0.26.0.10_cb0_daFCF0E3.0.0.100_db_dd9.1.17.0.6.50_dhFBD8C7.30.68.35.2_di5_qa_qb_dc0.3.FEE5E5.1.1_eh_ea2.50.BFD1F0.52.0.0_ec_ed37.75.1.1.DEEBFD.9F9CAD_ef_eg_r0417.D1DCF6.9F9CAD.4E4E4E.2.2.90.100.152.620.545.0_r0517.D1DCF6.9F9CAD.52.1.2.56.50.116.546.588.0_r0617.D1DCF6.9F9CAD.4E4E4E.1.2.100.100.135.590.565.0_r0717.D1DCF6.9F9CAD.52.1.2.63.100.133.549.602.0_r0858.EBEFFB.FFFFFF.4E4E4E.2.0.75.200.357.631.542.1_r0947.E9EEFB.F7F9FE.9F9CAD.1.1.58.60.218.415.566.0_r1117.D1DCF6.A4A1B1.56.1.2.5.42.144.544.584.0_r1317.D1DCF6.9F9CAD.56.1.2.46.89.144.594.570.0_fa1.70.72.65.34.60.56_fb6_fh1_fc2.8AD1F7.FFFFFF.2.8AD1F7.FFFFFF.45.61.61.45.49.49_fd16.0.40.50.56_fe64.72_ff0000000000_fg0.63_pa0.0.0.0.34.46.81.80.0.0_t0015.E0AAAD.61.0.25.25.92.643.494.1_pb_pc_pd_pe_ga0_gb1_gc15.0_ge0000000000_gh_gf_gg_gd10000000_ha89.89_hb54.1.61.99_hc0.69.6.0.69.6_hd6.1.90.40_ia_if_ib_id_ic_jc_ie_ja_jb_jd_je_jf_jg_ka24.EEF6FF.2.2.0_kb_kc_kd_ke_kf_la_lb_oa_os_ob_oc_od_oe_of_lc_m0043.56.3.0.2.1.0.63.61.78.5.61_m0252.EEF6FF.EEF6FF.0.0.2.21.64.9.3.0.61_m0343.56.3.0.2.1.0.73.59.75.5.61_m0443.56.3.0.2.1.0.55.50.78.1.61_n00_s00_og_oh_oo_op_oq_or_om_on_ok_ol_oi_oj_ad0.0.0.0.0.0.0.0.0.0
    
    2-happy=47**aa26.40.1.16.54.26.39.0.16.54_ab_ac_ba50_bb6.1_bc185.500.8.0.1_bd6_be180_ca61.0.0.77.20.0.26.0.10_cb0_daFCF0E3.0.0.100_db_dd9.1.17.0.6.50_dhFBD8C7.30.68.35.2_di5_qa_qb_dc0.3.FEE5E5.1.1_eh_ea2.50.BFD1F0.52.0.0_ec_ed37.75.1.1.DEEBFD.9F9CAD_ef_eg_r0417.D1DCF6.9F9CAD.4E4E4E.2.2.90.100.152.620.545.0_r0517.D1DCF6.9F9CAD.52.1.2.56.50.116.546.588.0_r0617.D1DCF6.9F9CAD.4E4E4E.1.2.100.100.135.590.565.0_r0717.D1DCF6.9F9CAD.52.1.2.63.100.133.549.602.0_r0858.EBEFFB.FFFFFF.4E4E4E.2.0.75.200.357.631.542.1_r0947.E9EEFB.F7F9FE.9F9CAD.1.1.58.60.218.415.566.0_r1117.D1DCF6.A4A1B1.56.1.2.5.42.144.544.584.0_r1317.D1DCF6.9F9CAD.56.1.2.46.89.144.594.570.0_fa1.70.72.65.34.60.56_fb6_fh1_fc2.8AD1F7.FFFFFF.2.8AD1F7.FFFFFF.45.61.61.45.49.49_fd16.0.40.50.56_fe64.72_ff0000000000_fg0.63_pa0.0.0.0.34.46.81.80.0.0_t0015.E0AAAD.61.0.25.25.92.643.494.1_pb_pc_pd_pe_ga0_gb1_gc15.0_ge0000000000_gh_gf_gg_gd10000000_ha89.89_hb54.1.61.99_hc1.43.0.1.43.0_hd35.1.44.100_ia_if_ib_id_ic_jc_ie_ja_jb_jd_je_jf_jg_ka24.EEF6FF.2.2.0_kb_kc_kd_ke_kf_la_lb_oa_os_ob_oc_od_oe_of_lc_m0043.56.3.0.2.1.0.63.61.78.5.61_m0252.EEF6FF.EEF6FF.0.0.2.21.64.9.3.0.61_m0343.56.3.0.2.1.0.73.59.75.5.61_m0443.56.3.0.2.1.0.55.50.78.1.61_n00_s00_og_oh_oo_op_oq_or_om_on_ok_ol_oi_oj_ad0.0.0.0.0.0.0.0.0.0
    
    2-angry=47**aa36.75.1.42.21.36.75.1.42.21_ab_ac_ba50_bb19.1_bc185.500.8.0.1_bd4_be181_ca61.0.0.77.20.0.26.0.10_cb0_daFCF0E3.0.0.100_db_dd9.1.17.0.6.50_dhFBD8C7.30.68.35.2_di5_qa_qb_dc0.3.FEE5E5.1.1_eh_ea2.50.BFD1F0.52.0.0_ec_ed37.75.1.1.DEEBFD.9F9CAD_ef_eg_r0417.D1DCF6.9F9CAD.4E4E4E.2.2.90.100.152.620.545.0_r0517.D1DCF6.9F9CAD.52.1.2.56.50.116.546.588.0_r0617.D1DCF6.9F9CAD.4E4E4E.1.2.100.100.135.590.565.0_r0717.D1DCF6.9F9CAD.52.1.2.63.100.133.549.602.0_r0858.EBEFFB.FFFFFF.4E4E4E.2.0.75.200.357.631.542.1_r0947.E9EEFB.F7F9FE.9F9CAD.1.1.58.60.218.415.566.0_r1117.D1DCF6.A4A1B1.56.1.2.5.42.144.544.584.0_r1317.D1DCF6.9F9CAD.56.1.2.46.89.144.594.570.0_fa1.70.72.65.34.60.56_fb6_fh1_fc2.8AD1F7.FFFFFF.2.8AD1F7.FFFFFF.45.61.61.45.49.49_fd16.0.40.50.56_fe64.72_ff0000000000_fg0.63_pa0.0.0.0.34.46.81.80.0.0_t0015.E0AAAD.61.0.25.25.92.643.494.1_pb_pc_pd_pe_ga0_gb1_gc15.0_ge0000000000_gh_gf_gg_gd10000000_ha89.89_hb54.1.61.99_hc2.22.0.2.22.0_hd38.1.31.38_ia_if_ib_id_ic_jc_ie_ja_jb_jd_je_jf_jg_ka24.EEF6FF.2.2.0_kb_kc_kd_ke_kf_la_lb_oa_os_ob_oc_od_oe_of_lc_m0043.56.3.0.2.1.0.63.61.78.5.61_m0252.EEF6FF.EEF6FF.0.0.2.21.64.9.3.0.61_m0343.56.3.0.2.1.0.73.59.75.5.61_m0443.56.3.0.2.1.0.55.50.78.1.61_n00_s00_og_oh_oo_op_oq_or_om_on_ok_ol_oi_oj_ad0.0.0.0.0.0.0.0.0.0
    
    2-sad=47**aa13.90.0.3.50.13.90.0.3.50_ab_ac_ba50_bb25.1_bc185.500.8.0.1_bd0_be180_ca61.0.0.77.20.0.26.0.10_cb0_daFCF0E3.0.0.100_db_dd9.1.17.0.6.50_dhFBD8C7.30.68.35.2_di5_qa_qb_dc0.3.FEE5E5.1.1_eh_ea2.50.BFD1F0.52.0.0_ec_ed37.75.1.1.DEEBFD.9F9CAD_ef_eg_r0417.D1DCF6.9F9CAD.4E4E4E.2.2.90.100.152.620.545.0_r0517.D1DCF6.9F9CAD.52.1.2.56.50.116.546.588.0_r0617.D1DCF6.9F9CAD.4E4E4E.1.2.100.100.135.590.565.0_r0717.D1DCF6.9F9CAD.52.1.2.63.100.133.549.602.0_r0858.EBEFFB.FFFFFF.4E4E4E.2.0.75.200.357.631.542.1_r0947.E9EEFB.F7F9FE.9F9CAD.1.1.58.60.218.415.566.0_r1117.D1DCF6.A4A1B1.56.1.2.5.42.144.544.584.0_r1317.D1DCF6.9F9CAD.56.1.2.46.89.144.594.570.0_fa1.70.72.65.34.60.56_fb6_fh1_fc2.8AD1F7.FFFFFF.2.8AD1F7.FFFFFF.45.61.61.45.49.49_fd16.0.40.50.56_fe64.72_ff0000000000_fg0.63_pa0.0.0.0.34.46.81.80.0.0_t0015.E0AAAD.61.0.25.25.92.643.494.1_pb_pc_pd_pe_ga0_gb1_gc15.0_ge0000000000_gh_gf_gg_gd10000000_ha89.89_hb16.1.28.99_hc3.69.25.3.69.25_hd5.1.44.41_ia_if_ib_id_ic_jc_ie_ja_jb_jd_je_jf_jg_ka24.EEF6FF.2.2.0_kb_kc_kd_ke_kf_la_lb_oa_os_ob_oc_od_oe_of_lc_m0043.56.3.0.2.1.0.63.61.78.5.61_m0252.EEF6FF.EEF6FF.0.0.2.21.64.9.3.0.61_m0343.56.3.0.2.1.0.73.59.75.5.61_m0443.56.3.0.2.1.0.55.50.78.1.61_n00_s00_og_oh_oo_op_oq_or_om_on_ok_ol_oi_oj_ad0.0.0.0.0.0.0.0.0.0
    
    2-sarcastic=47**aa9.72.1.47.76.9.72.1.47.46_ab_ac_ba50_bb1.1_bc185.500.8.0.1_bd1_be180_ca61.0.0.77.20.0.26.0.10_cb0_daFCF0E3.0.0.100_db_dd9.1.17.0.6.50_dhFBD8C7.30.68.35.2_di5_qa_qb_dc0.3.FEE5E5.1.1_eh_ea2.50.BFD1F0.52.0.0_ec_ed37.75.1.1.DEEBFD.9F9CAD_ef_eg_r0417.D1DCF6.9F9CAD.4E4E4E.2.2.90.100.152.620.545.0_r0517.D1DCF6.9F9CAD.52.1.2.56.50.116.546.588.0_r0617.D1DCF6.9F9CAD.4E4E4E.1.2.100.100.135.590.565.0_r0717.D1DCF6.9F9CAD.52.1.2.63.100.133.549.602.0_r0858.EBEFFB.FFFFFF.4E4E4E.2.0.75.200.357.631.542.1_r0947.E9EEFB.F7F9FE.9F9CAD.1.1.58.60.218.415.566.0_r1117.D1DCF6.A4A1B1.56.1.2.5.42.144.544.584.0_r1317.D1DCF6.9F9CAD.56.1.2.46.89.144.594.570.0_fa1.70.72.65.34.60.56_fb6_fh1_fc2.8AD1F7.FFFFFF.2.8AD1F7.FFFFFF.45.61.61.45.49.49_fd16.0.40.50.56_fe64.72_ff0000000000_fg0.63_pa0.0.0.0.34.46.81.80.0.0_t0015.E0AAAD.61.0.25.25.92.643.494.1_pb_pc_pd_pe_ga0_gb1_gc15.0_ge0000000000_gh_gf_gg_gd10000000_ha79.79_hb50.1.61.99_hc1.40.7.1.40.7_hd1.1.31.4_ia_if_ib_id_ic_jc_ie_ja_jb_jd_je_jf_jg_ka24.EEF6FF.2.2.0_kb_kc_kd_ke_kf_la_lb_oa_os_ob_oc_od_oe_of_lc_m0043.56.3.0.2.1.0.63.61.78.5.61_m0252.EEF6FF.EEF6FF.0.0.2.21.64.9.3.0.61_m0343.56.3.0.2.1.0.73.59.75.5.61_m0443.56.3.0.2.1.0.55.50.78.1.61_n00_s00_og_oh_oo_op_oq_or_om_on_ok_ol_oi_oj_ad0.0.0.0.0.0.0.0.0.0
    
    2-interested=47**aa22.80.0.47.46.22.80.0.47.46_ab_ac_ba50_bb0.1_bc185.500.8.0.1_bd0_be180_ca61.0.0.77.20.0.26.0.10_cb0_daFCF0E3.0.0.100_db_dd9.1.17.0.6.50_dhFBD8C7.30.68.35.2_di5_qa_qb_dc0.3.FEE5E5.1.1_eh_ea2.50.BFD1F0.52.0.0_ec_ed37.75.1.1.DEEBFD.9F9CAD_ef_eg_r0417.D1DCF6.9F9CAD.4E4E4E.2.2.90.100.152.620.545.0_r0517.D1DCF6.9F9CAD.52.1.2.56.50.116.546.588.0_r0617.D1DCF6.9F9CAD.4E4E4E.1.2.100.100.135.590.565.0_r0717.D1DCF6.9F9CAD.52.1.2.63.100.133.549.602.0_r0858.EBEFFB.FFFFFF.4E4E4E.2.0.75.200.357.631.542.1_r0947.E9EEFB.F7F9FE.9F9CAD.1.1.58.60.218.415.566.0_r1117.D1DCF6.A4A1B1.56.1.2.5.42.144.544.584.0_r1317.D1DCF6.9F9CAD.56.1.2.46.89.144.594.570.0_fa1.70.72.65.34.60.56_fb6_fh1_fc2.8AD1F7.FFFFFF.2.8AD1F7.FFFFFF.45.61.61.45.49.49_fd16.0.40.50.56_fe64.72_ff0000000000_fg0.63_pa0.0.0.0.34.46.81.80.0.0_t0015.E0AAAD.61.0.25.25.92.643.494.1_pb_pc_pd_pe_ga0_gb1_gc15.0_ge0000000000_gh_gf_gg_gd10000000_ha89.89_hb12.1.96.99_hc0.46.16.0.46.16_hd10.1.11.4_ia_if_ib_id_ic_jc_ie_ja_jb_jd_je_jf_jg_ka24.EEF6FF.2.2.0_kb_kc_kd_ke_kf_la_lb_oa_os_ob_oc_od_oe_of_lc_m0043.56.3.0.2.1.0.63.61.78.5.61_m0252.EEF6FF.EEF6FF.0.0.2.21.64.9.3.0.61_m0343.56.3.0.2.1.0.73.59.75.5.61_m0443.56.3.0.2.1.0.55.50.78.1.61_n00_s00_og_oh_oo_op_oq_or_om_on_ok_ol_oi_oj_ad0.0.0.0.0.0.0.0.0.0
    
    2-shocked=47**aa8.69.1.47.46.8.69.1.47.46_ab_ac_ba50_bb6.1_bc185.500.8.0.1_bd6_be180_ca61.0.0.77.20.0.26.0.10_cb0_daFCF0E3.0.0.100_db_dd9.1.17.0.6.50_dhFBD8C7.30.68.35.2_di5_qa_qb_dc0.3.FEE5E5.1.1_eh_ea2.50.BFD1F0.52.0.0_ec_ed37.75.1.1.DEEBFD.9F9CAD_ef_eg_r0417.D1DCF6.9F9CAD.4E4E4E.2.2.90.100.152.620.545.0_r0517.D1DCF6.9F9CAD.52.1.2.56.50.116.546.588.0_r0617.D1DCF6.9F9CAD.4E4E4E.1.2.100.100.135.590.565.0_r0717.D1DCF6.9F9CAD.52.1.2.63.100.133.549.602.0_r0858.EBEFFB.FFFFFF.4E4E4E.2.0.75.200.357.631.542.1_r0947.E9EEFB.F7F9FE.9F9CAD.1.1.58.60.218.415.566.0_r1117.D1DCF6.A4A1B1.56.1.2.5.42.144.544.584.0_r1317.D1DCF6.9F9CAD.56.1.2.46.89.144.594.570.0_fa1.70.72.65.34.60.56_fb6_fh1_fc2.8AD1F7.FFFFFF.2.8AD1F7.FFFFFF.45.61.61.45.49.49_fd16.0.40.50.56_fe64.72_ff0000000000_fg0.63_pa0.0.0.0.34.46.81.80.0.0_t0015.E0AAAD.61.0.25.25.92.643.494.1_pb_pc_pd_pe_ga0_gb1_gc15.0_ge0001000000_gh_gf_gg_gd10000000_ha100.100_hb55.1.56.99_hc0.75.40.0.75.40_hd36.1.22.16_ia_if_ib_id_ic_jc_ie_ja_jb_jd_je_jf_jg_ka24.EEF6FF.2.2.0_kb_kc_kd_ke_kf_la_lb_oa_os_ob_oc_od_oe_of_lc_m0043.56.3.0.2.1.0.63.61.78.5.61_m0252.EEF6FF.EEF6FF.0.0.2.21.64.9.3.0.61_m0343.56.3.0.2.1.0.73.59.75.5.61_m0443.56.3.0.2.1.0.55.50.78.1.61_n00_s00_og_oh_oo_op_oq_or_om_on_ok_ol_oi_oj_ad0.0.0.0.0.0.0.0.0.0
    
    2-embarrassed=47**aa8.69.1.47.46.8.69.1.47.46_ab_ac_ba50_bb44.1_bc185.500.8.0.1_bd44_be180_ca61.0.0.77.20.0.26.0.10_cb0_daFCF0E3.0.0.100_db_dd10.1.17.0.6.50_dhFBD8C7.30.68.35.2_di5_qa_qb_dc0.3.FEE5E5.1.1_eh_ea2.50.BFD1F0.52.0.0_ec_ed37.75.1.1.DEEBFD.9F9CAD_ef_eg_r0417.D1DCF6.9F9CAD.4E4E4E.2.2.90.100.152.620.545.0_r0517.D1DCF6.9F9CAD.52.1.2.56.50.116.546.588.0_r0617.D1DCF6.9F9CAD.4E4E4E.1.2.100.100.135.590.565.0_r0717.D1DCF6.9F9CAD.52.1.2.63.100.133.549.602.0_r0858.EBEFFB.FFFFFF.4E4E4E.2.0.75.200.357.631.542.1_r0947.E9EEFB.F7F9FE.9F9CAD.1.1.58.60.218.415.566.0_r1117.D1DCF6.A4A1B1.56.1.2.5.42.144.544.584.0_r1317.D1DCF6.9F9CAD.56.1.2.46.89.144.594.570.0_fa1.70.72.65.34.60.56_fb6_fh1_fc2.8AD1F7.FFFFFF.2.8AD1F7.FFFFFF.45.61.61.45.49.49_fd16.0.40.50.56_fe64.72_ff0000000000_fg0.63_pa0.0.0.0.34.46.81.80.0.0_t0015.E0AAAD.61.0.25.25.92.643.494.1_pb_pc_pd_pe_ga0_gb1_gc30.0_ge0000000000_gh_gf_gg_gd10000000_ha82.82_hb54.1.61.99_hc0.73.0.0.73.0_hd43.1.11.4_ia_if_ib_id_ic_jc_ie_ja_jb_jd_je_jf_jg_ka24.EEF6FF.2.2.0_kb_kc_kd_ke_kf_la_lb_oa_os_ob_oc_od_oe_of_lc_m0043.56.3.0.2.1.0.63.61.78.5.61_m0252.EEF6FF.EEF6FF.0.0.2.21.64.9.3.0.61_m0343.56.3.0.2.1.0.73.59.75.5.61_m0443.56.3.0.2.1.0.55.50.78.1.61_n00_s00_og_oh_oo_op_oq_or_om_on_ok_ol_oi_oj_ad0.0.0.0.0.0.0.0.0.0
    
    2-loss=47**aa7.67.1.47.46.7.68.1.47.46_ab_ac_ba50_bb44.1_bc185.500.8.0.1_bd44_be180_ca61.0.0.77.20.0.26.0.10_cb0_daFCF0E3.0.0.100_db_dd10.1.17.0.6.50_dhFBD8C7.30.68.35.2_di5_qa_qb_dc0.3.FEE5E5.1.1_eh_ea2.50.BFD1F0.52.0.0_ec_ed37.75.1.1.DEEBFD.9F9CAD_ef_eg_r0417.D1DCF6.9F9CAD.4E4E4E.2.2.90.100.152.620.545.0_r0517.D1DCF6.9F9CAD.52.1.2.56.50.116.546.588.0_r0617.D1DCF6.9F9CAD.4E4E4E.1.2.100.100.135.590.565.0_r0717.D1DCF6.9F9CAD.52.1.2.63.100.133.549.602.0_r0858.EBEFFB.FFFFFF.4E4E4E.2.0.75.200.357.631.542.1_r0947.E9EEFB.F7F9FE.9F9CAD.1.1.58.60.218.415.566.0_r1117.D1DCF6.A4A1B1.56.1.2.5.42.144.544.584.0_r1317.D1DCF6.9F9CAD.56.1.2.46.89.144.594.570.0_fa1.70.72.65.34.60.56_fb6_fh1_fc2.8AD1F7.FFFFFF.2.8AD1F7.FFFFFF.45.61.61.45.49.49_fd16.0.40.50.56_fe64.72_ff0000000000_fg0.63_pa0.0.0.0.34.46.81.80.0.0_t0015.E0AAAD.61.0.25.25.92.643.494.1_pb_pc_pd_pe_ga0_gb1_gc30.0_ge0000000000_gh_gf_gg_gd10000000_ha100.100_hb54.1.31.99_hc0.69.23.0.69.23_hd36.1.27.12_ia_if_ib_id_ic_jc_ie_ja_jb_jd_je_jf_jg_ka24.EEF6FF.2.2.0_kb_kc_kd_ke_kf_la_lb_oa_os_ob_oc_od_oe_of_lc_m0043.56.3.0.2.1.0.63.61.78.5.61_m0252.EEF6FF.EEF6FF.0.0.2.21.64.9.3.0.61_m0343.56.3.0.2.1.0.73.59.75.5.61_m0443.56.3.0.2.1.0.55.50.78.1.61_n00_s00_og_oh_oo_op_oq_or_om_on_ok_ol_oi_oj_ad0.0.0.0.0.0.0.0.0.0
    
    2-strip=47**aa33.64.0.47.11.36.61.0.47.38_ab_ac_ba50_bb5.1_bc185.500.8.0.1_bd5_be180_ca61.0.0.77.20.0.26.0.10_cb0_daFCF0E3.0.0.100_db_dd10.1.17.0.6.50_dhFBD8C7.30.68.35.2_di5_qa_qb_dc0.3.FEE5E5.1.1_eh_ea2.50.BFD1F0.52.0.0_ec_ed37.75.1.1.DEEBFD.9F9CAD_ef_eg_r0417.D1DCF6.9F9CAD.4E4E4E.2.2.90.100.152.620.545.0_r0517.D1DCF6.9F9CAD.52.1.2.56.50.116.546.588.0_r0617.D1DCF6.9F9CAD.4E4E4E.1.2.100.100.135.590.565.0_r0717.D1DCF6.9F9CAD.52.1.2.63.100.133.549.602.0_r0858.EBEFFB.FFFFFF.4E4E4E.2.0.75.200.357.631.542.1_r0947.E9EEFB.F7F9FE.9F9CAD.1.1.58.60.218.415.566.0_r1117.D1DCF6.A4A1B1.56.1.2.5.42.144.544.584.0_r1317.D1DCF6.9F9CAD.56.1.2.46.89.144.594.570.0_fa1.70.72.65.34.60.56_fb6_fh1_fc2.8AD1F7.FFFFFF.2.8AD1F7.FFFFFF.45.61.61.45.49.49_fd16.0.40.50.56_fe64.72_ff0000000000_fg0.63_pa0.0.0.0.34.46.81.80.0.0_t0015.E0AAAD.61.0.25.25.92.643.494.1_pb_pc_pd_pe_ga0_gb1_gc32.0_ge0000000000_gh_gf_gg_gd10000000_ha81.81_hb100.1.21.99_hc0.69.6.0.69.6_hd48.1.15.4_ia_if_ib_id_ic_jc_ie_ja_jb_jd_je_jf_jg_ka24.EEF6FF.2.2.0_kb_kc_kd_ke_kf_la_lb_oa_os_ob_oc_od_oe_of_lc_m0043.56.3.0.2.1.0.63.61.78.5.61_m0252.EEF6FF.EEF6FF.0.0.2.21.64.9.3.0.61_m0343.56.3.0.2.1.0.73.59.75.5.61_m0443.56.3.0.2.1.0.55.50.78.1.61_n00_s00_og_oh_oo_op_oq_or_om_on_ok_ol_oi_oj_ad0.0.0.0.0.0.0.0.0.0
    
#lost panties

    3-stripped=47**aa13.92.0.47.46.13.92.0.47.46_ab_ac_ba50_bb6.1_bc150.500.8.0.1_bd6_be180_ca61.0.0.77.20.0.26.0.10_cb0_daFCF0E3.0.0.100_db_dd13.1.17.0.6.50_dhFBD8C7.30.68.35.2_di5_qa_qb_dc0.3.FEE5E5.1.1_eh_ea2.50.BFD1F0.52.0.0_ec_ed37.75.1.1.DEEBFD.9F9CAD_ef_eg_r0417.D1DCF6.9F9CAD.56.2.2.90.100.152.620.545.0_r0617.D1DCF6.9F9CAD.56.1.2.100.100.135.590.565.0_r0717.D1DCF6.9F9CAD.56.1.2.63.100.133.549.602.0_r0858.EBEFFB.FFFFFF.4E4E4E.2.0.75.200.357.631.542.1_r0947.E9EEFB.F7F9FE.9F9CAD.1.1.58.60.218.415.566.0_r1117.D1DCF6.A4A1B1.56.1.2.5.42.144.544.584.0_r1317.D1DCF6.9F9CAD.56.1.2.46.89.144.594.570.0_fa1.70.72.65.34.60.56_fb6_fh1_fc2.8AD1F7.FFFFFF.2.8AD1F7.FFFFFF.45.61.61.45.49.49_fd16.0.40.50.56_fe64.72_ff0000000000_fg0.63_pa0.0.0.0.34.46.81.80.0.0_t0015.E0AAAD.61.0.25.25.92.643.494.1_pb_pc_pd_pe_ga0_gb1_gc32.0_ge0000000000_gh_gf_gg_gd10000000_ha77.77_hb100.1.32.99_hc3.65.0.3.65.0_hd47.1.21.35_ia_if_ib_id_ic_jc_ie_ja_jb_jd_je_jf_jg_ka_kb_kc_kd_ke_kf_la_lb_oa_os_ob_oc_od_oe_of_lc_m0043.56.3.0.2.1.0.63.61.78.5.61_m0343.56.3.0.2.1.0.73.59.75.5.61_m0443.56.3.0.2.1.0.55.50.78.1.61_n00_s00_og_oh_oo_op_oq_or_om_on_ok_ol_oi_oj_ad0.0.0.0.0.0.0.0.0.0
    
    3-calm=47**aa19.61.1.28.77.14.84.1.28.63_ab_ac_ba50_bb5.1_bc150.500.8.0.1_bd5_be180_ca61.0.0.77.20.0.26.0.10_cb0_daFCF0E3.0.0.100_db_dd10.1.17.0.6.50_dhFBD8C7.30.68.35.2_di5_qa_qb_dc4.0.FEE5E5.FEE5E5.FEE5E5_eh_ea2.50.BFD1F0.52.0.0_ec_ed37.75.1.1.DEEBFD.9F9CAD_ef_eg_r0417.D1DCF6.9F9CAD.56.2.2.90.100.152.620.545.0_r0617.D1DCF6.9F9CAD.56.1.2.100.100.135.590.565.0_r0717.D1DCF6.9F9CAD.56.1.2.63.100.133.549.602.0_r0858.EBEFFB.FFFFFF.4E4E4E.2.0.75.200.357.631.542.1_r0947.E9EEFB.F7F9FE.9F9CAD.1.1.58.60.218.415.566.0_r1117.D1DCF6.A4A1B1.56.1.2.5.42.144.544.584.0_r1317.D1DCF6.9F9CAD.56.1.2.46.89.144.594.570.0_fa1.70.72.65.34.60.56_fb6_fh1_fc2.8AD1F7.FFFFFF.2.8AD1F7.FFFFFF.45.61.61.45.49.49_fd16.0.40.50.56_fe64.72_ff0000000000_fg0.63_pa0.0.0.0.34.46.81.80.0.0_t0015.E0AAAD.61.0.25.25.92.643.494.1_pb_pc_pd_pe_ga0_gb1_gc28.0_ge0000000000_gh_gf_gg_gd10000000_ha89.89_hb55.1.44.99_hc3.69.27.3.69.27_hd6.1.31.4_ia_if_ib_id_ic_jc_ie_ja_jb_jd_je_jf_jg_ka_kb_kc_kd_ke_kf_la_lb_oa_os_ob_oc_od_oe_of_lc_m0043.56.3.0.2.1.0.63.61.78.5.61_m0343.56.3.0.2.1.0.73.59.75.5.61_m0443.56.3.0.2.1.0.55.50.78.1.61_n00_s00_og_oh_oo_op_oq_or_om_on_ok_ol_oi_oj_ad0.0.0.0.0.0.0.0.0.0
    
    3-happy=47**aa6.93.1.28.38.27.40.0.16.51_ab_ac_ba50_bb6.1_bc150.500.8.0.1_bd5_be180_ca61.0.0.77.20.0.26.0.10_cb0_daFCF0E3.0.0.100_db_dd10.1.17.0.6.50_dhFBD8C7.30.68.35.2_di5_qa_qb_dc4.0.FEE5E5.FEE5E5.FEE5E5_eh_ea2.50.BFD1F0.52.0.0_ec_ed37.75.1.1.DEEBFD.9F9CAD_ef_eg_r0417.D1DCF6.9F9CAD.56.2.2.90.100.152.620.545.0_r0617.D1DCF6.9F9CAD.56.1.2.100.100.135.590.565.0_r0717.D1DCF6.9F9CAD.56.1.2.63.100.133.549.602.0_r0858.EBEFFB.FFFFFF.4E4E4E.2.0.75.200.357.631.542.1_r0947.E9EEFB.F7F9FE.9F9CAD.1.1.58.60.218.415.566.0_r1117.D1DCF6.A4A1B1.56.1.2.5.42.144.544.584.0_r1317.D1DCF6.9F9CAD.56.1.2.46.89.144.594.570.0_fa1.70.72.65.34.60.56_fb6_fh1_fc2.8AD1F7.FFFFFF.2.8AD1F7.FFFFFF.45.61.61.45.49.49_fd16.0.40.50.56_fe64.72_ff0000000000_fg0.63_pa0.0.0.0.34.46.81.80.0.0_t0015.E0AAAD.61.0.25.25.92.643.494.1_pb_pc_pd_pe_ga0_gb1_gc28.0_ge0000000000_gh_gf_gg_gd10000000_ha89.89_hb54.1.61.99_hc1.43.0.1.43.0_hd35.1.44.100_ia_if_ib_id_ic_jc_ie_ja_jb_jd_je_jf_jg_ka_kb_kc_kd_ke_kf_la_lb_oa_os_ob_oc_od_oe_of_lc_m0043.56.3.0.2.1.0.63.61.78.5.61_m0343.56.3.0.2.1.0.73.59.75.5.61_m0443.56.3.0.2.1.0.55.50.78.1.61_n00_s00_og_oh_oo_op_oq_or_om_on_ok_ol_oi_oj_ad0.0.0.0.0.0.0.0.0.0
    
    3-angry=47**aa19.61.1.28.77.14.84.1.28.63_ab_ac_ba50_bb19.1_bc150.500.8.0.1_bd4_be181_ca61.0.0.77.20.0.26.0.10_cb0_daFCF0E3.0.0.100_db_dd10.1.17.0.6.50_dhFBD8C7.30.68.35.2_di5_qa_qb_dc4.0.FEE5E5.FEE5E5.FEE5E5_eh_ea2.50.BFD1F0.52.0.0_ec_ed37.75.1.1.DEEBFD.9F9CAD_ef_eg_r0417.D1DCF6.9F9CAD.56.2.2.90.100.152.620.545.0_r0617.D1DCF6.9F9CAD.56.1.2.100.100.135.590.565.0_r0717.D1DCF6.9F9CAD.56.1.2.63.100.133.549.602.0_r0858.EBEFFB.FFFFFF.4E4E4E.2.0.75.200.357.631.542.1_r0947.E9EEFB.F7F9FE.9F9CAD.1.1.58.60.218.415.566.0_r1117.D1DCF6.A4A1B1.56.1.2.5.42.144.544.584.0_r1317.D1DCF6.9F9CAD.56.1.2.46.89.144.594.570.0_fa1.70.72.65.34.60.56_fb6_fh1_fc2.8AD1F7.FFFFFF.2.8AD1F7.FFFFFF.45.61.61.45.49.49_fd16.0.40.50.56_fe64.72_ff0000000000_fg0.63_pa0.0.0.0.34.46.81.80.0.0_t0015.E0AAAD.61.0.25.25.92.643.494.1_pb_pc_pd_pe_ga0_gb1_gc28.0_ge0000000000_gh_gf_gg_gd10000000_ha89.89_hb54.1.61.99_hc2.22.0.2.22.0_hd38.1.31.38_ia_if_ib_id_ic_jc_ie_ja_jb_jd_je_jf_jg_ka_kb_kc_kd_ke_kf_la_lb_oa_os_ob_oc_od_oe_of_lc_m0043.56.3.0.2.1.0.63.61.78.5.61_m0343.56.3.0.2.1.0.73.59.75.5.61_m0443.56.3.0.2.1.0.55.50.78.1.61_n00_s00_og_oh_oo_op_oq_or_om_on_ok_ol_oi_oj_ad0.0.0.0.0.0.0.0.0.0
    
    3-sad=47**aa19.61.1.28.77.14.84.1.28.63_ab_ac_ba50_bb25.1_bc150.500.8.0.1_bd0_be180_ca61.0.0.77.20.0.26.0.10_cb0_daFCF0E3.0.0.100_db_dd10.1.17.0.6.50_dhFBD8C7.30.68.35.2_di5_qa_qb_dc4.0.FEE5E5.FEE5E5.FEE5E5_eh_ea2.50.BFD1F0.52.0.0_ec_ed37.75.1.1.DEEBFD.9F9CAD_ef_eg_r0417.D1DCF6.9F9CAD.56.2.2.90.100.152.620.545.0_r0617.D1DCF6.9F9CAD.56.1.2.100.100.135.590.565.0_r0717.D1DCF6.9F9CAD.56.1.2.63.100.133.549.602.0_r0858.EBEFFB.FFFFFF.4E4E4E.2.0.75.200.357.631.542.1_r0947.E9EEFB.F7F9FE.9F9CAD.1.1.58.60.218.415.566.0_r1117.D1DCF6.A4A1B1.56.1.2.5.42.144.544.584.0_r1317.D1DCF6.9F9CAD.56.1.2.46.89.144.594.570.0_fa1.70.72.65.34.60.56_fb6_fh1_fc2.8AD1F7.FFFFFF.2.8AD1F7.FFFFFF.45.61.61.45.49.49_fd16.0.40.50.56_fe64.72_ff0000000000_fg0.63_pa0.0.0.0.34.46.81.80.0.0_t0015.E0AAAD.61.0.25.25.92.643.494.1_pb_pc_pd_pe_ga0_gb1_gc28.0_ge0000000000_gh_gf_gg_gd10000000_ha89.89_hb58.1.0.99_hc3.73.23.3.73.23_hd5.1.41.0_ia_if_ib_id_ic_jc_ie_ja_jb_jd_je_jf_jg_ka_kb_kc_kd_ke_kf_la_lb_oa_os_ob_oc_od_oe_of_lc_m0043.56.3.0.2.1.0.63.61.78.5.61_m0343.56.3.0.2.1.0.73.59.75.5.61_m0443.56.3.0.2.1.0.55.50.78.1.61_n00_s00_og_oh_oo_op_oq_or_om_on_ok_ol_oi_oj_ad0.0.0.0.0.0.0.0.0.0
    
    3-sarcastic=47**aa19.61.1.28.77.14.84.1.28.63_ab_ac_ba50_bb1.1_bc150.500.8.0.1_bd1_be180_ca61.0.0.77.20.0.26.0.10_cb0_daFCF0E3.0.0.100_db_dd10.1.17.0.6.50_dhFBD8C7.30.68.35.2_di5_qa_qb_dc4.0.FEE5E5.FEE5E5.FEE5E5_eh_ea2.50.BFD1F0.52.0.0_ec_ed37.75.1.1.DEEBFD.9F9CAD_ef_eg_r0417.D1DCF6.9F9CAD.56.2.2.90.100.152.620.545.0_r0617.D1DCF6.9F9CAD.56.1.2.100.100.135.590.565.0_r0717.D1DCF6.9F9CAD.56.1.2.63.100.133.549.602.0_r0858.EBEFFB.FFFFFF.4E4E4E.2.0.75.200.357.631.542.1_r0947.E9EEFB.F7F9FE.9F9CAD.1.1.58.60.218.415.566.0_r1117.D1DCF6.A4A1B1.56.1.2.5.42.144.544.584.0_r1317.D1DCF6.9F9CAD.56.1.2.46.89.144.594.570.0_fa1.70.72.65.34.60.56_fb6_fh1_fc2.8AD1F7.FFFFFF.2.8AD1F7.FFFFFF.45.61.61.45.49.49_fd16.0.40.50.56_fe64.72_ff0000000000_fg0.63_pa0.0.0.0.34.46.81.80.0.0_t0015.E0AAAD.61.0.25.25.92.643.494.1_pb_pc_pd_pe_ga0_gb1_gc28.0_ge0000000000_gh_gf_gg_gd10000000_ha79.79_hb50.1.61.99_hc1.40.0.1.40.0_hd1.1.31.4_ia_if_ib_id_ic_jc_ie_ja_jb_jd_je_jf_jg_ka_kb_kc_kd_ke_kf_la_lb_oa_os_ob_oc_od_oe_of_lc_m0043.56.3.0.2.1.0.63.61.78.5.61_m0343.56.3.0.2.1.0.73.59.75.5.61_m0443.56.3.0.2.1.0.55.50.78.1.61_n00_s00_og_oh_oo_op_oq_or_om_on_ok_ol_oi_oj_ad0.0.0.0.0.0.0.0.0.0
    
    3-interested=47**aa6.93.1.28.38.17.66.0.16.51_ab_ac_ba50_bb4.1_bc150.500.8.0.1_bd6_be180_ca61.0.0.77.20.0.26.0.10_cb0_daFCF0E3.0.0.100_db_dd10.1.17.0.6.50_dhFBD8C7.30.68.35.2_di5_qa_qb_dc4.0.FEE5E5.FEE5E5.FEE5E5_eh_ea2.50.BFD1F0.52.0.0_ec_ed37.75.1.1.DEEBFD.9F9CAD_ef_eg_r0417.D1DCF6.9F9CAD.56.2.2.90.100.152.620.545.0_r0617.D1DCF6.9F9CAD.56.1.2.100.100.135.590.565.0_r0717.D1DCF6.9F9CAD.56.1.2.63.100.133.549.602.0_r0858.EBEFFB.FFFFFF.4E4E4E.2.0.75.200.357.631.542.1_r0947.E9EEFB.F7F9FE.9F9CAD.1.1.58.60.218.415.566.0_r1117.D1DCF6.A4A1B1.56.1.2.5.42.144.544.584.0_r1317.D1DCF6.9F9CAD.56.1.2.46.89.144.594.570.0_fa1.70.72.65.34.60.56_fb6_fh1_fc2.8AD1F7.FFFFFF.2.8AD1F7.FFFFFF.45.61.61.45.49.49_fd16.0.40.50.56_fe64.72_ff0000000000_fg0.63_pa0.0.0.0.34.46.81.80.0.0_t0015.E0AAAD.61.0.25.25.92.643.494.1_pb_pc_pd_pe_ga0_gb1_gc28.0_ge0000000000_gh_gf_gg_gd10000000_ha96.96_hb49.1.66.99_hc0.56.35.0.56.35_hd17.1.11.4_ia_if_ib_id_ic_jc_ie_ja_jb_jd_je_jf_jg_ka_kb_kc_kd_ke_kf_la_lb_oa_os_ob_oc_od_oe_of_lc_m0043.56.3.0.2.1.0.63.61.78.5.61_m0343.56.3.0.2.1.0.73.59.75.5.61_m0443.56.3.0.2.1.0.55.50.78.1.61_n00_s00_og_oh_oo_op_oq_or_om_on_ok_ol_oi_oj_ad0.0.0.0.0.0.0.0.0.0
    
    3-shocked=47**aa28.47.1.26.46.28.47.1.26.46_ab_ac_ba50_bb7.0_bc150.500.8.0.1_bd7_be180_ca61.0.0.77.20.0.26.0.10_cb0_daFCF0E3.0.0.100_db_dd10.1.17.0.6.50_dhFBD8C7.30.68.35.2_di5_qa_qb_dc0.3.FEE5E5.1.1_eh_ea2.50.BFD1F0.52.0.0_ec_ed37.75.1.1.DEEBFD.9F9CAD_ef_eg_r0417.D1DCF6.9F9CAD.56.2.2.90.100.152.620.545.0_r0617.D1DCF6.9F9CAD.56.1.2.100.100.135.590.565.0_r0717.D1DCF6.9F9CAD.56.1.2.63.100.133.549.602.0_r0858.EBEFFB.FFFFFF.4E4E4E.2.0.75.200.357.631.542.1_r0947.E9EEFB.F7F9FE.9F9CAD.1.1.58.60.218.415.566.0_r1117.D1DCF6.A4A1B1.56.1.2.5.42.144.544.584.0_r1317.D1DCF6.9F9CAD.56.1.2.46.89.144.594.570.0_fa1.70.72.65.34.60.56_fb6_fh1_fc2.8AD1F7.FFFFFF.2.8AD1F7.FFFFFF.45.61.61.45.49.49_fd16.0.40.50.56_fe64.72_ff0000000000_fg0.63_pa0.0.0.0.34.46.81.80.0.0_t0015.E0AAAD.61.0.25.25.92.643.494.1_pb_pc_pd_pe_ga0_gb1_gc28.0_ge0000100000_gh_gf_gg_gd10000000_ha100.100_hb50.1.56.99_hc0.75.40.0.75.40_hd36.1.22.16_ia_if_ib_id_ic_jc_ie_ja_jb_jd_je_jf_jg_ka_kb_kc_kd_ke_kf_la_lb_oa_os_ob_oc_od_oe_of_lc_m0043.56.3.0.2.1.0.63.61.78.5.61_m0343.56.3.0.2.1.0.73.59.75.5.61_m0443.56.3.0.2.1.0.55.50.78.1.61_n00_s00_og_oh_oo_op_oq_or_om_on_ok_ol_oi_oj_ad0.0.0.0.0.0.0.0.0.0
    
    3-embarrassed=47**aa19.61.1.28.77.14.84.1.28.63_ab_ac_ba50_bb44.1_bc150.500.8.0.1_bd46_be180_ca61.0.0.77.20.0.26.0.10_cb0_daFCF0E3.0.0.100_db_dd13.1.17.0.6.50_dhFBD8C7.30.68.35.2_di5_qa_qb_dc4.0.FEE5E5.FEE5E5.FEE5E5_eh_ea2.50.BFD1F0.52.0.0_ec_ed37.75.1.1.DEEBFD.9F9CAD_ef_eg_r0417.D1DCF6.9F9CAD.56.2.2.90.100.152.620.545.0_r0617.D1DCF6.9F9CAD.56.1.2.100.100.135.590.565.0_r0717.D1DCF6.9F9CAD.56.1.2.63.100.133.549.602.0_r0858.EBEFFB.FFFFFF.4E4E4E.2.0.75.200.357.631.542.1_r0947.E9EEFB.F7F9FE.9F9CAD.1.1.58.60.218.415.566.0_r1117.D1DCF6.A4A1B1.56.1.2.5.42.144.544.584.0_r1317.D1DCF6.9F9CAD.56.1.2.46.89.144.594.570.0_fa1.70.72.65.34.60.56_fb6_fh1_fc2.8AD1F7.FFFFFF.2.8AD1F7.FFFFFF.45.61.61.45.49.49_fd16.0.40.50.56_fe64.72_ff0000000000_fg0.63_pa0.0.0.0.34.46.81.80.0.0_t0015.E0AAAD.61.0.25.25.92.643.494.1_pb_pc_pd_pe_ga0_gb1_gc31.0_ge0000000000_gh_gf_gg_gd10000000_ha76.76_hb100.1.0.99_hc3.65.13.3.65.13_hd43.1.11.4_ia_if_ib_id_ic_jc_ie_ja_jb_jd_je_jf_jg_ka_kb_kc_kd_ke_kf_la_lb_oa_os_ob_oc_od_oe_of_lc_m0043.56.3.0.2.1.0.63.61.78.5.61_m0343.56.3.0.2.1.0.73.59.75.5.61_m0443.56.3.0.2.1.0.55.50.78.1.61_n00_s00_og_oh_oo_op_oq_or_om_on_ok_ol_oi_oj_ad0.0.0.0.0.0.0.0.0.0
    
    3-horny=47**aa19.55.1.28.41.6.100.0.16.45_ab_ac_ba50_bb46.1_bc150.500.8.0.1_bd46_be180_ca61.0.0.77.20.0.26.0.10_cb0_daFCF0E3.0.0.100_db_dd13.1.17.0.6.50_dhFBD8C7.30.68.35.2_di5_qa_qb_dc0.3.FEE5E5.1.1_eh_ea2.50.BFD1F0.52.0.0_ec_ed37.75.1.1.DEEBFD.9F9CAD_ef_eg_r0417.D1DCF6.9F9CAD.56.2.2.90.100.152.620.545.0_r0617.D1DCF6.9F9CAD.56.1.2.100.100.135.590.565.0_r0717.D1DCF6.9F9CAD.56.1.2.63.100.133.549.602.0_r0858.EBEFFB.FFFFFF.4E4E4E.2.0.75.200.357.631.542.1_r0947.E9EEFB.F7F9FE.9F9CAD.1.1.58.60.218.415.566.0_r1117.D1DCF6.A4A1B1.56.1.2.5.42.144.544.584.0_r1317.D1DCF6.9F9CAD.56.1.2.46.89.144.594.570.0_fa1.70.72.65.34.60.56_fb6_fh1_fc2.8AD1F7.FFFFFF.2.8AD1F7.FFFFFF.45.61.61.45.49.49_fd16.0.40.50.56_fe64.72_ff0000000000_fg0.63_pa0.0.0.0.34.46.81.80.0.0_t0015.E0AAAD.61.0.25.25.92.643.494.1_pb_pc_pd_pe_ga0_gb1_gc31.0_ge0000000000_gh_gf_gg_gd10000000_ha89.89_hb54.1.61.99_hc0.65.0.0.65.0_hd42.1.21.30_ia_if_ib_id_ic_jc_ie_ja_jb_jd_je_jf_jg_ka_kb_kc_kd_ke_kf_la_lb_oa_os_ob_oc_od_oe_of_lc_m0043.56.3.0.2.1.0.63.61.78.5.61_m0343.56.3.0.2.1.0.73.59.75.5.61_m0443.56.3.0.2.1.0.55.50.78.1.61_n00_s00_og_oh_oo_op_oq_or_om_on_ok_ol_oi_oj_ad0.0.0.0.0.0.0.0.0.0
    
    3-loss=47**aa7.100.1.47.40.7.100.1.47.40_ab_ac_ba50_bb57.1_bc150.500.8.0.1_bd57_be180_ca61.0.0.77.20.0.26.0.10_cb0_daFCF0E3.0.0.100_db_dd13.1.17.0.6.50_dhFBD8C7.30.68.35.2_di5_qa_qb_dc0.3.FEE5E5.1.1_eh_ea2.50.BFD1F0.52.0.0_ec_ed37.75.1.1.DEEBFD.9F9CAD_ef_eg_r0417.D1DCF6.9F9CAD.56.2.2.90.100.152.620.545.0_r0617.D1DCF6.9F9CAD.56.1.2.100.100.135.590.565.0_r0717.D1DCF6.9F9CAD.56.1.2.63.100.133.549.602.0_r0858.EBEFFB.FFFFFF.4E4E4E.2.0.75.200.357.631.542.1_r0947.E9EEFB.F7F9FE.9F9CAD.1.1.58.60.218.415.566.0_r1117.D1DCF6.A4A1B1.56.1.2.5.42.144.544.584.0_r1317.D1DCF6.9F9CAD.56.1.2.46.89.144.594.570.0_fa1.70.72.65.34.60.56_fb7_fh1_fc2.93D7FF.FFFFFF.2.93D7FF.FFFFFF.8.61.61.8.49.49_fd16.0.40.50.56_fe64.72_ff0000000000_fg0.63_pa0.0.0.0.34.46.81.80.0.0_t0015.E0AAAD.61.0.25.25.92.643.494.1_pb_pc_pd_pe_ga0_gb1_gc31.0_ge0000000000_gh_gf_gg_gd10000000_ha100.100_hb50.1.0.99_hc0.75.40.0.75.40_hd33.1.31.49_ia_if_ib_id_ic_jc_ie_ja_jb_jd_je_jf_jg_ka_kb_kc_kd_ke_kf_la_lb_oa_os_ob_oc_od_oe_of_lc_m0043.56.3.0.2.1.0.63.61.78.5.61_m0343.56.3.0.2.1.0.73.59.75.5.61_m0443.56.3.0.2.1.0.55.50.78.1.61_n00_s00_og_oh_oo_op_oq_or_om_on_ok_ol_oi_oj_ad0.0.0.0.0.0.0.0.0.0
    
    5-calm=47**aa13.90.0.3.50.13.90.0.3.50_ab_ac_ba50_bb0.0_bc150.500.8.0.1_bd0_be180_ca61.0.0.77.20.0.26.0.10_cb0_daFCF0E3.0.0.100_db_dd10.1.17.0.6.50_dhFBD8C7.30.68.35.2_di5_qa_qb_dc62.3.FFBEC3.1.1_eh_ea2.50.BFD1F0.52.0.0_ec_ed37.75.1.1.DEEBFD.9F9CAD_ef_eg_r0417.D1DCF6.9F9CAD.56.2.2.90.100.152.620.545.0_r0617.D1DCF6.9F9CAD.56.1.2.100.100.135.590.565.0_r0717.D1DCF6.9F9CAD.56.1.2.63.100.133.549.602.0_r0858.EBEFFB.FFFFFF.4E4E4E.2.0.75.200.357.631.542.1_r0947.E9EEFB.F7F9FE.9F9CAD.1.1.58.60.218.415.566.0_r1117.D1DCF6.A4A1B1.56.1.2.5.42.144.544.584.0_r1317.D1DCF6.9F9CAD.56.1.2.46.89.144.594.570.0_fa1.70.72.65.34.60.56_fb6_fh1_fc2.8AD1F7.FFFFFF.2.8AD1F7.FFFFFF.45.61.61.45.49.49_fd16.0.40.50.56_fe64.72_ff0000000000_fg0.63_pa0.0.0.0.34.46.81.80.0.0_t0015.E0AAAD.61.0.25.25.92.643.494.1_pb_pc_pd_pe_ga0_gb1_gc23.0_ge0000000000_gh_gf_gg_gd11100000_ha89.89_hb54.1.61.99_hc0.47.0.0.47.0_hd0.1.42.34_ia_if_ib_id_ic_jc_ie_ja_jb_jd_je_jf_jg_ka_kb_kc_kd_ke_kf_la_lb_oa_os_ob_oc_od_oe_of_lc_m0043.56.3.0.2.1.0.63.61.78.5.61_m0343.56.3.0.2.1.0.73.59.75.5.61_m0443.56.3.0.2.1.0.55.50.78.1.61_n00_s00_og_oh_oo_op_oq_or_om_on_ok_ol_oi_oj_ad0.0.0.0.0.0.0.0.0.0
    
    5-happy=47**aa26.40.1.16.54.26.39.0.16.54_ab_ac_ba50_bb6.0_bc150.500.8.0.1_bd6_be180_ca61.0.0.77.20.0.26.0.10_cb0_daFCF0E3.0.0.100_db_dd10.1.17.0.6.50_dhFBD8C7.30.68.35.2_di5_qa_qb_dc62.3.FFBEC3.1.1_eh_ea2.50.BFD1F0.52.0.0_ec_ed37.75.1.1.DEEBFD.9F9CAD_ef_eg_r0417.D1DCF6.9F9CAD.56.2.2.90.100.152.620.545.0_r0617.D1DCF6.9F9CAD.56.1.2.100.100.135.590.565.0_r0717.D1DCF6.9F9CAD.56.1.2.63.100.133.549.602.0_r0858.EBEFFB.FFFFFF.4E4E4E.2.0.75.200.357.631.542.1_r0947.E9EEFB.F7F9FE.9F9CAD.1.1.58.60.218.415.566.0_r1117.D1DCF6.A4A1B1.56.1.2.5.42.144.544.584.0_r1317.D1DCF6.9F9CAD.56.1.2.46.89.144.594.570.0_fa1.70.72.65.34.60.56_fb6_fh1_fc2.8AD1F7.FFFFFF.2.8AD1F7.FFFFFF.45.61.61.45.49.49_fd16.0.40.50.56_fe64.72_ff0000000000_fg0.63_pa0.0.0.0.34.46.81.80.0.0_t0015.E0AAAD.61.0.25.25.92.643.494.1_pb_pc_pd_pe_ga0_gb1_gc23.0_ge0000000000_gh_gf_gg_gd11100000_ha89.89_hb54.1.61.99_hc1.43.0.1.43.0_hd35.1.44.100_ia_if_ib_id_ic_jc_ie_ja_jb_jd_je_jf_jg_ka_kb_kc_kd_ke_kf_la_lb_oa_os_ob_oc_od_oe_of_lc_m0043.56.3.0.2.1.0.63.61.78.5.61_m0343.56.3.0.2.1.0.73.59.75.5.61_m0443.56.3.0.2.1.0.55.50.78.1.61_n00_s00_og_oh_oo_op_oq_or_om_on_ok_ol_oi_oj_ad0.0.0.0.0.0.0.0.0.0
    
    5-angry=47**aa36.75.1.42.21.36.75.1.42.21_ab_ac_ba57_bb19.1_bc150.500.8.0.1_bd4_be182_ca61.0.0.77.20.0.26.0.10_cb0_daFCF0E3.0.0.100_db_dd10.1.17.0.6.50_dhFBD8C7.30.68.35.2_di5_qa_qb_dc62.3.FFBEC3.1.1_eh_ea2.50.BFD1F0.52.0.0_ec_ed37.75.1.1.DEEBFD.9F9CAD_ef_eg_r0417.D1DCF6.9F9CAD.56.2.2.90.100.152.620.545.0_r0617.D1DCF6.9F9CAD.56.1.2.100.100.135.590.565.0_r0717.D1DCF6.9F9CAD.56.1.2.63.100.133.549.602.0_r0858.EBEFFB.FFFFFF.4E4E4E.2.0.75.200.357.631.542.1_r0947.E9EEFB.F7F9FE.9F9CAD.1.1.58.60.218.415.566.0_r1117.D1DCF6.A4A1B1.56.1.2.5.42.144.544.584.0_r1317.D1DCF6.9F9CAD.56.1.2.46.89.144.594.570.0_fa1.70.72.65.34.60.56_fb6_fh1_fc2.8AD1F7.FFFFFF.2.8AD1F7.FFFFFF.45.61.61.45.49.49_fd16.0.40.50.56_fe64.72_ff0000000000_fg0.63_pa0.0.0.0.34.46.81.80.0.0_t0015.E0AAAD.61.0.25.25.92.643.494.1_pb_pc_pd_pe_ga0_gb1_gc23.0_ge0000000000_gh_gf_gg_gd11100000_ha89.89_hb54.1.61.99_hc2.22.0.2.22.0_hd38.1.31.38_ia_if_ib_id_ic_jc_ie_ja_jb_jd_je_jf_jg_ka_kb_kc_kd_ke_kf_la_lb_oa_os_ob_oc_od_oe_of_lc_m0043.56.3.0.2.1.0.63.61.78.5.61_m0343.56.3.0.2.1.0.73.59.75.5.61_m0443.56.3.0.2.1.0.55.50.78.1.61_n00_s00_og_oh_oo_op_oq_or_om_on_ok_ol_oi_oj_ad0.0.0.0.0.0.0.0.0.0
    
    5-sad=47**aa13.90.0.3.50.13.90.0.3.50_ab_ac_ba50_bb25.1_bc150.500.8.0.1_bd0_be180_ca61.0.0.77.20.0.26.0.10_cb0_daFCF0E3.0.0.100_db_dd10.1.17.0.6.50_dhFBD8C7.30.68.35.2_di5_qa_qb_dc62.3.FFBEC3.1.1_eh_ea2.50.BFD1F0.52.0.0_ec_ed37.75.1.1.DEEBFD.9F9CAD_ef_eg_r0417.D1DCF6.9F9CAD.56.2.2.90.100.152.620.545.0_r0617.D1DCF6.9F9CAD.56.1.2.100.100.135.590.565.0_r0717.D1DCF6.9F9CAD.56.1.2.63.100.133.549.602.0_r0858.EBEFFB.FFFFFF.4E4E4E.2.0.75.200.357.631.542.1_r0947.E9EEFB.F7F9FE.9F9CAD.1.1.58.60.218.415.566.0_r1117.D1DCF6.A4A1B1.56.1.2.5.42.144.544.584.0_r1317.D1DCF6.9F9CAD.56.1.2.46.89.144.594.570.0_fa1.70.72.65.34.60.56_fb6_fh1_fc2.8AD1F7.FFFFFF.2.8AD1F7.FFFFFF.45.61.61.45.49.49_fd16.0.40.50.56_fe64.72_ff0000000000_fg0.63_pa0.0.0.0.34.46.81.80.0.0_t0015.E0AAAD.61.0.25.25.92.643.494.1_pb_pc_pd_pe_ga0_gb1_gc23.0_ge0000000000_gh_gf_gg_gd11100000_ha89.89_hb16.1.28.99_hc3.69.25.3.69.25_hd5.1.44.41_ia_if_ib_id_ic_jc_ie_ja_jb_jd_je_jf_jg_ka_kb_kc_kd_ke_kf_la_lb_oa_os_ob_oc_od_oe_of_lc_m0043.56.3.0.2.1.0.63.61.78.5.61_m0343.56.3.0.2.1.0.73.59.75.5.61_m0443.56.3.0.2.1.0.55.50.78.1.61_n00_s00_og_oh_oo_op_oq_or_om_on_ok_ol_oi_oj_ad0.0.0.0.0.0.0.0.0.0
    
    5-sarcastic=47**aa9.76.1.47.46.9.76.1.47.46_ab_ac_ba50_bb1.1_bc150.500.8.0.1_bd1_be180_ca61.0.0.77.20.0.26.0.10_cb0_daFCF0E3.0.0.100_db_dd10.1.17.0.6.50_dhFBD8C7.30.68.35.2_di5_qa_qb_dc62.3.FFBEC3.1.1_eh_ea2.50.BFD1F0.52.0.0_ec_ed37.75.1.1.DEEBFD.9F9CAD_ef_eg_r0417.D1DCF6.9F9CAD.56.2.2.90.100.152.620.545.0_r0617.D1DCF6.9F9CAD.56.1.2.100.100.135.590.565.0_r0717.D1DCF6.9F9CAD.56.1.2.63.100.133.549.602.0_r0858.EBEFFB.FFFFFF.4E4E4E.2.0.75.200.357.631.542.1_r0947.E9EEFB.F7F9FE.9F9CAD.1.1.58.60.218.415.566.0_r1117.D1DCF6.A4A1B1.56.1.2.5.42.144.544.584.0_r1317.D1DCF6.9F9CAD.56.1.2.46.89.144.594.570.0_fa1.70.72.65.34.60.56_fb6_fh1_fc2.8AD1F7.FFFFFF.2.8AD1F7.FFFFFF.45.61.61.45.49.49_fd16.0.40.50.56_fe64.72_ff0000000000_fg0.63_pa0.0.0.0.34.46.81.80.0.0_t0015.E0AAAD.61.0.25.25.92.643.494.1_pb_pc_pd_pe_ga0_gb1_gc23.0_ge0000000000_gh_gf_gg_gd11100000_ha79.79_hb50.1.61.99_hc1.40.7.1.40.7_hd1.1.31.4_ia_if_ib_id_ic_jc_ie_ja_jb_jd_je_jf_jg_ka_kb_kc_kd_ke_kf_la_lb_oa_os_ob_oc_od_oe_of_lc_m0043.56.3.0.2.1.0.63.61.78.5.61_m0343.56.3.0.2.1.0.73.59.75.5.61_m0443.56.3.0.2.1.0.55.50.78.1.61_n00_s00_og_oh_oo_op_oq_or_om_on_ok_ol_oi_oj_ad0.0.0.0.0.0.0.0.0.0
    
    5-interested=47**aa31.75.0.0.100.7.100.0.0.36_ab_ac_ba50_bb5.1_bc150.500.8.0.1_bd7_be180_ca61.0.0.77.20.0.26.0.10_cb0_daFCF0E3.0.0.100_db_dd10.1.17.0.6.50_dhFBD8C7.30.68.35.2_di5_qa_qb_dc62.3.FFBEC3.1.1_eh_ea2.50.BFD1F0.52.0.0_ec_ed37.75.1.1.DEEBFD.9F9CAD_ef_eg_r0417.D1DCF6.9F9CAD.56.2.2.90.100.152.620.545.0_r0617.D1DCF6.9F9CAD.56.1.2.100.100.135.590.565.0_r0717.D1DCF6.9F9CAD.56.1.2.63.100.133.549.602.0_r0858.EBEFFB.FFFFFF.4E4E4E.2.0.75.200.357.631.542.1_r0947.E9EEFB.F7F9FE.9F9CAD.1.1.58.60.218.415.566.0_r1117.D1DCF6.A4A1B1.56.1.2.5.42.144.544.584.0_r1317.D1DCF6.9F9CAD.56.1.2.46.89.144.594.570.0_fa1.70.72.65.34.60.56_fb6_fh1_fc2.8AD1F7.FFFFFF.2.8AD1F7.FFFFFF.45.61.61.45.49.49_fd16.0.40.50.56_fe64.72_ff0000000000_fg0.63_pa0.0.0.0.34.46.81.80.0.0_t0015.E0AAAD.61.0.25.25.92.643.494.1_pb_pc_pd_pe_ga0_gb1_gc23.0_ge0000000000_gh_gf_gg_gd11100000_ha85.85_hb50.1.61.99_hc0.48.23.0.48.23_hd25.1.32.31_ia_if_ib_id_ic_jc_ie_ja_jb_jd_je_jf_jg_ka_kb_kc_kd_ke_kf_la_lb_oa_os_ob_oc_od_oe_of_lc_m0043.56.3.0.2.1.0.63.61.78.5.61_m0343.56.3.0.2.1.0.73.59.75.5.61_m0443.56.3.0.2.1.0.55.50.78.1.61_n00_s00_og_oh_oo_op_oq_or_om_on_ok_ol_oi_oj_ad0.0.0.0.0.0.0.0.0.0
    
    5-shocked=47**aa9.76.1.47.46.9.76.1.47.46_ab_ac_ba50_bb6.1_bc150.500.8.0.1_bd6_be180_ca61.0.0.77.20.0.26.0.10_cb0_daFCF0E3.0.0.100_db_dd10.1.17.0.6.50_dhFBD8C7.30.68.35.2_di5_qa_qb_dc62.3.FFBEC3.1.1_eh_ea2.50.BFD1F0.52.0.0_ec_ed37.75.1.1.DEEBFD.9F9CAD_ef_eg_r0417.D1DCF6.9F9CAD.56.2.2.90.100.152.620.545.0_r0617.D1DCF6.9F9CAD.56.1.2.100.100.135.590.565.0_r0717.D1DCF6.9F9CAD.56.1.2.63.100.133.549.602.0_r0858.EBEFFB.FFFFFF.4E4E4E.2.0.75.200.357.631.542.1_r0947.E9EEFB.F7F9FE.9F9CAD.1.1.58.60.218.415.566.0_r1117.D1DCF6.A4A1B1.56.1.2.5.42.144.544.584.0_r1317.D1DCF6.9F9CAD.56.1.2.46.89.144.594.570.0_fa1.70.72.65.34.60.56_fb6_fh1_fc2.8AD1F7.FFFFFF.2.8AD1F7.FFFFFF.45.61.61.45.49.49_fd16.0.40.50.56_fe64.72_ff0000000000_fg0.63_pa0.0.0.0.34.46.81.80.0.0_t0015.E0AAAD.61.0.25.25.92.643.494.1_pb_pc_pd_pe_ga0_gb1_gc23.0_ge0001000000_gh_gf_gg_gd11100000_ha100.100_hb54.1.61.99_hc0.75.40.0.75.40_hd36.1.22.16_ia_if_ib_id_ic_jc_ie_ja_jb_jd_je_jf_jg_ka_kb_kc_kd_ke_kf_la_lb_oa_os_ob_oc_od_oe_of_lc_m0043.56.3.0.2.1.0.63.61.78.5.61_m0343.56.3.0.2.1.0.73.59.75.5.61_m0443.56.3.0.2.1.0.55.50.78.1.61_n00_s00_og_oh_oo_op_oq_or_om_on_ok_ol_oi_oj_ad0.0.0.0.0.0.0.0.0.0
    
    5-embarrassed=47**aa19.61.1.28.77.14.84.1.28.63_ab_ac_ba50_bb44.1_bc150.500.8.0.1_bd46_be180_ca61.0.0.77.20.0.26.0.10_cb0_daFCF0E3.0.0.100_db_dd13.1.17.0.6.50_dhFBD8C7.30.68.35.2_di5_qa_qb_dc62.3.FFBEC3.1.1_eh_ea2.50.BFD1F0.52.0.0_ec_ed37.75.1.1.DEEBFD.9F9CAD_ef_eg_r0417.D1DCF6.9F9CAD.56.2.2.90.100.152.620.545.0_r0617.D1DCF6.9F9CAD.56.1.2.100.100.135.590.565.0_r0717.D1DCF6.9F9CAD.56.1.2.63.100.133.549.602.0_r0858.EBEFFB.FFFFFF.4E4E4E.2.0.75.200.357.631.542.1_r0947.E9EEFB.F7F9FE.9F9CAD.1.1.58.60.218.415.566.0_r1117.D1DCF6.A4A1B1.56.1.2.5.42.144.544.584.0_r1317.D1DCF6.9F9CAD.56.1.2.46.89.144.594.570.0_fa1.70.72.65.34.60.56_fb6_fh1_fc2.8AD1F7.FFFFFF.2.8AD1F7.FFFFFF.45.61.61.45.49.49_fd16.0.40.50.56_fe64.72_ff0000000000_fg0.63_pa0.0.0.0.34.46.81.80.0.0_t0015.E0AAAD.61.0.25.25.92.643.494.1_pb_pc_pd_pe_ga0_gb1_gc31.0_ge0000000000_gh_gf_gg_gd10000000_ha76.76_hb100.1.0.99_hc3.65.13.3.65.13_hd43.1.11.4_ia_if_ib_id_ic_jc_ie_ja_jb_jd_je_jf_jg_ka_kb_kc_kd_ke_kf_la_lb_oa_os_ob_oc_od_oe_of_lc_m0043.56.3.0.2.1.0.63.61.78.5.61_m0343.56.3.0.2.1.0.73.59.75.5.61_m0443.56.3.0.2.1.0.55.50.78.1.61_n00_s00_og_oh_oo_op_oq_or_om_on_ok_ol_oi_oj_ad0.0.0.0.0.0.0.0.0.0
    
    5-horny=47**aa19.55.1.28.41.6.100.0.16.45_ab_ac_ba50_bb46.1_bc150.500.8.0.1_bd46_be180_ca61.0.0.77.20.0.26.0.10_cb0_daFCF0E3.0.0.100_db_dd13.1.17.0.6.50_dhFBD8C7.30.68.35.2_di5_qa_qb_dc62.3.FFBEC3.1.1_eh_ea2.50.BFD1F0.52.0.0_ec_ed37.75.1.1.DEEBFD.9F9CAD_ef_eg_r0417.D1DCF6.9F9CAD.56.2.2.90.100.152.620.545.0_r0617.D1DCF6.9F9CAD.56.1.2.100.100.135.590.565.0_r0717.D1DCF6.9F9CAD.56.1.2.63.100.133.549.602.0_r0858.EBEFFB.FFFFFF.4E4E4E.2.0.75.200.357.631.542.1_r0947.E9EEFB.F7F9FE.9F9CAD.1.1.58.60.218.415.566.0_r1117.D1DCF6.A4A1B1.56.1.2.5.42.144.544.584.0_r1317.D1DCF6.9F9CAD.56.1.2.46.89.144.594.570.0_fa1.70.72.65.34.60.56_fb6_fh1_fc2.8AD1F7.FFFFFF.2.8AD1F7.FFFFFF.45.61.61.45.49.49_fd16.0.40.50.56_fe64.72_ff0000000000_fg0.63_pa0.0.0.0.34.46.81.80.0.0_t0015.E0AAAD.61.0.25.25.92.643.494.1_pb_pc_pd_pe_ga0_gb1_gc31.0_ge0000000000_gh_gf_gg_gd10000000_ha89.89_hb54.1.61.99_hc0.65.20.0.65.20_hd42.1.21.30_ia_if_ib_id_ic_jc_ie_ja_jb_jd_je_jf_jg_ka_kb_kc_kd_ke_kf_la_lb_oa_os_ob_oc_od_oe_of_lc_m0043.56.3.0.2.1.0.63.61.78.5.61_m0343.56.3.0.2.1.0.73.59.75.5.61_m0443.56.3.0.2.1.0.55.50.78.1.61_n00_s00_og_oh_oo_op_oq_or_om_on_ok_ol_oi_oj_ad0.0.0.0.0.0.0.0.0.0
    

    3-starting=47***aa11.61.1.47.34.11.61.1.47.35_ab_ac_ba50_bb62.1_bc185.200.0.0.1_bd62_be180_ca56.0.36.75.15.34.34.0.10_cb0_da1.0.0.100_db_dd0.3.0.9.17.50_dh1.30.50.50.0_di7_qa_qb_dc2735.3.1.1.1_eh_ea27.55.55.55.1.0_ec7.11.55.55.55.47.64.0_ed0.37.1.1.55.56_ef_eg_r00_fa4.76.87.73.32.65.56_fb7_fh1_fc0.FFDA00.55.0.FFDA00.55.37.61.61.37.48.50_fd1.0.36.55.56_fe50.73_ff0000000000_fg0.52_pa0.0.0.0.40.50.85.85.0.0_t00_pb0.54.54.0_pc_pd_pe_ga0_gb1_gc68.0_ge0000000000_gh_gf_gg_gd11000000_ha72.72_hb50.1.50.99_hc1.43.3.1.43.3_hd38.1.60.38_ia_if_ib_id_ic_jc_ie_ja_jb_jd_je_jf_jg_ka_kb_kc_kd_ke_kf_la_lb_oa_os_ob_oc_od_oe_of_lc_m00_n00_s00_og_oh_oo_op_oq_or_om_on_ok_ol_oi_oj_ad1.1.1.1.1.1.1.1.1.1*0*0*0*0*0*0*0*0#/]a00_b00_c00_d00_w00_x00_e00_y00_z00_ua1.55.0.0.100_uf0.3.0.0_ue_ub_u0_v0_uc7.0.30_ud7.8
    
    3-starting=47**aa12.100.1.4.100.22.75.1.28.65_ab_ac_ba50_bb62.1_bc150.500.8.0.1_bd62_be180_ca61.0.0.77.20.0.26.0.10_cb0_daFCF0E3.0.0.100_db_dd13.1.17.0.6.50_dhFBD8C7.30.68.35.2_di5_qa_qb_dc0.0.FEE5E5.1.1_eh_ea2.50.BFD1F0.52.0.0_ec_ed37.75.1.1.DEEBFD.9F9CAD_ef_eg_r0417.D1DCF6.9F9CAD.56.2.2.90.100.152.620.545.0_r0617.D1DCF6.9F9CAD.56.1.2.100.100.135.590.565.0_r0717.D1DCF6.9F9CAD.56.1.2.63.100.133.549.602.0_r0858.EBEFFB.FFFFFF.4E4E4E.2.0.75.200.357.631.542.1_r0947.E9EEFB.F7F9FE.9F9CAD.1.1.58.60.218.415.566.0_r1117.D1DCF6.A4A1B1.56.1.2.5.42.144.544.584.0_r1317.D1DCF6.9F9CAD.56.1.2.46.89.144.594.570.0_fa1.70.72.65.34.60.56_fb6_fh1_fc2.8AD1F7.FFFFFF.2.8AD1F7.FFFFFF.45.61.61.45.49.49_fd16.0.40.50.56_fe64.72_ff0000000000_fg0.63_pa0.0.0.0.34.46.81.80.0.0_t0015.E0AAAD.61.0.25.25.92.643.494.1_pb_pc_pd_pe_ga0_gb1_gc31.0_ge0000000000_gh_gf_gg_gd10000000_ha75.75_hb50.1.0.42_hc0.63.0.0.63.0_hd43.1.11.4_ia_if_ib_id_ic_jc_ie_ja_jb_jd_je_jf_jg_ka_kb_kc_kd_ke_kf_la_lb_oa_os_ob_oc_od_oe_of_lc_m0043.56.3.0.2.1.0.63.61.78.5.61_m0343.56.3.0.2.1.0.73.59.75.5.61_m0443.56.3.0.2.1.0.55.50.78.1.61_n00_s00_og_oh_oo_op_oq_or_om_on_ok_ol_oi_oj_ad0.0.0.0.0.0.0.0.0.0
    
#masturbating


    4-calm=47**aa17.68.1.4.34.23.73.1.28.93_ab_ac_ba50_bb64.1_bc150.500.8.0.1_bd64_be180_ca61.0.0.77.20.0.26.0.10_cb0_daFCF0E3.0.0.100_db_dd10.1.17.0.6.50_dhFBD8C7.30.68.35.2_di5_qa_qb_dc0.0.FEE5E5.1.1_eh_ea2.50.BFD1F0.52.0.0_ec_ed37.75.1.1.DEEBFD.9F9CAD_ef_eg_r0417.D1DCF6.9F9CAD.56.2.2.90.100.152.620.545.0_r0617.D1DCF6.9F9CAD.56.1.2.100.100.135.590.565.0_r0717.D1DCF6.9F9CAD.56.1.2.63.100.133.549.602.0_r0858.EBEFFB.FFFFFF.4E4E4E.2.0.75.200.357.631.542.1_r0947.E9EEFB.F7F9FE.9F9CAD.1.1.58.60.218.415.566.0_r1117.D1DCF6.A4A1B1.56.1.2.5.42.144.544.584.0_r1317.D1DCF6.9F9CAD.56.1.2.46.89.144.594.570.0_fa1.70.72.65.34.60.56_fb6_fh1_fc2.8AD1F7.FFFFFF.2.8AD1F7.FFFFFF.45.61.61.45.49.49_fd16.0.40.50.56_fe64.72_ff0000000000_fg0.63_pa0.0.0.0.34.46.81.80.0.0_t0015.E0AAAD.61.0.25.25.92.643.494.1_pb_pc_pd_pe_ga0_gb1_gc28.0_ge0000000000_gh_gf_gg_gd10000000_ha24.24_hb51.1.43.99_hc0.65.0.0.65.0_hd43.1.11.4_ia_if_ib_id_ic_jc_ie_ja_jb_jd_je_jf_jg_ka_kb_kc_kd_ke_kf_la_lb_oa_os_ob_oc_od_oe_of_lc_m0043.56.3.0.2.1.0.63.61.78.5.61_m0343.56.3.0.2.1.0.73.59.75.5.61_m0443.56.3.0.2.1.0.55.50.78.1.61_n00_s00_og_oh_oo_op_oq_or_om_on_ok_ol_oi_oj_ad0.0.0.0.0.0.0.0.0.0
    
    4-happy=47**aa17.68.1.4.34.23.73.1.28.96_ab_ac_ba50_bb75.1_bc150.500.8.0.1_bd64_be180_ca61.0.0.77.20.0.26.0.10_cb0_daFCF0E3.0.0.100_db_dd10.1.17.0.6.50_dhFBD8C7.30.68.35.2_di5_qa_qb_dc0.0.FEE5E5.1.1_eh_ea2.50.BFD1F0.52.0.0_ec_ed37.75.1.1.DEEBFD.9F9CAD_ef_eg_r0417.D1DCF6.9F9CAD.56.2.2.90.100.152.620.545.0_r0617.D1DCF6.9F9CAD.56.1.2.100.100.135.590.565.0_r0717.D1DCF6.9F9CAD.56.1.2.63.100.133.549.602.0_r0858.EBEFFB.FFFFFF.4E4E4E.2.0.75.200.357.631.542.1_r0947.E9EEFB.F7F9FE.9F9CAD.1.1.58.60.218.415.566.0_r1117.D1DCF6.A4A1B1.56.1.2.5.42.144.544.584.0_r1317.D1DCF6.9F9CAD.56.1.2.46.89.144.594.570.0_fa1.70.72.65.34.60.56_fb6_fh1_fc2.8AD1F7.FFFFFF.2.8AD1F7.FFFFFF.45.61.61.45.49.49_fd16.0.40.50.56_fe64.72_ff0000000000_fg0.63_pa0.0.0.0.34.46.81.80.0.0_t0015.E0AAAD.61.0.25.25.92.643.494.1_pb_pc_pd_pe_ga0_gb1_gc28.0_ge0000000000_gh_gf_gg_gd10000000_ha27.27_hb51.1.43.99_hc0.84.19.0.84.19_hd25.1.28.51_ia_if_ib_id_ic_jc_ie_ja_jb_jd_je_jf_jg_ka_kb_kc_kd_ke_kf_la_lb_oa_os_ob_oc_od_oe_of_lc_m0043.56.3.0.2.1.0.63.61.78.5.61_m0343.56.3.0.2.1.0.73.59.75.5.61_m0443.56.3.0.2.1.0.55.50.78.1.61_n00_s00_og_oh_oo_op_oq_or_om_on_ok_ol_oi_oj_ad0.0.0.0.0.0.0.0.0.0
    
    4-angry=47**aa21.73.1.28.100.23.73.1.28.96_ab_ac_ba50_bb75.1_bc150.500.8.0.1_bd60_be180_ca61.0.0.77.20.0.26.0.10_cb0_daFCF0E3.0.0.100_db_dd10.1.17.0.6.50_dhFBD8C7.30.68.35.2_di5_qa_qb_dc0.0.FEE5E5.1.1_eh_ea2.50.BFD1F0.52.0.0_ec_ed37.75.1.1.DEEBFD.9F9CAD_ef_eg_r0417.D1DCF6.9F9CAD.56.2.2.90.100.152.620.545.0_r0617.D1DCF6.9F9CAD.56.1.2.100.100.135.590.565.0_r0717.D1DCF6.9F9CAD.56.1.2.63.100.133.549.602.0_r0858.EBEFFB.FFFFFF.4E4E4E.2.0.75.200.357.631.542.1_r0947.E9EEFB.F7F9FE.9F9CAD.1.1.58.60.218.415.566.0_r1117.D1DCF6.A4A1B1.56.1.2.5.42.144.544.584.0_r1317.D1DCF6.9F9CAD.56.1.2.46.89.144.594.570.0_fa1.70.72.65.34.60.56_fb6_fh1_fc2.8AD1F7.FFFFFF.2.8AD1F7.FFFFFF.45.61.61.45.49.49_fd16.0.40.50.56_fe64.72_ff0000000000_fg0.63_pa0.0.0.0.34.46.81.80.0.0_t0015.E0AAAD.61.0.25.25.92.643.494.1_pb_pc_pd_pe_ga0_gb1_gc28.0_ge0000000000_gh_gf_gg_gd10000000_ha89.89_hb50.1.50.99_hc0.0.0.0.0.0_hd53.1.31.4_ia_if_ib_id_ic_jc_ie_ja_jb_jd_je_jf_jg_ka_kb_kc_kd_ke_kf_la_lb_oa_os_ob_oc_od_oe_of_lc_m0043.56.3.0.2.1.0.63.61.78.5.61_m0343.56.3.0.2.1.0.73.59.75.5.61_m0443.56.3.0.2.1.0.55.50.78.1.61_n00_s00_og_oh_oo_op_oq_or_om_on_ok_ol_oi_oj_ad0.0.0.0.0.0.0.0.0.0
    
    4-sad=47**aa12.62.1.16.10.12.62.1.16.10_ab_ac_ba50_bb73.1_bc150.500.8.0.1_bd73_be180_ca61.0.0.77.20.0.26.0.10_cb0_daFCF0E3.0.0.100_db_dd10.1.17.0.6.50_dhFBD8C7.30.68.35.2_di5_qa_qb_dc0.0.FEE5E5.1.1_eh_ea2.50.BFD1F0.52.0.0_ec_ed37.75.1.1.DEEBFD.9F9CAD_ef_eg_r0417.D1DCF6.9F9CAD.56.2.2.90.100.152.620.545.0_r0617.D1DCF6.9F9CAD.56.1.2.100.100.135.590.565.0_r0717.D1DCF6.9F9CAD.56.1.2.63.100.133.549.602.0_r0858.EBEFFB.FFFFFF.4E4E4E.2.0.75.200.357.631.542.1_r0947.E9EEFB.F7F9FE.9F9CAD.1.1.58.60.218.415.566.0_r1117.D1DCF6.A4A1B1.56.1.2.5.42.144.544.584.0_r1317.D1DCF6.9F9CAD.56.1.2.46.89.144.594.570.0_fa1.70.72.65.34.60.56_fb6_fh1_fc2.8AD1F7.FFFFFF.2.8AD1F7.FFFFFF.45.61.61.45.49.49_fd16.0.40.50.56_fe64.72_ff0000000000_fg0.63_pa0.0.0.0.34.46.81.80.0.0_t0015.E0AAAD.61.0.25.25.92.643.494.1_pb_pc_pd_pe_ga0_gb1_gc28.0_ge0000000000_gh_gf_gg_gd10000000_ha89.89_hb16.1.28.99_hc3.69.25.3.69.25_hd5.1.44.41_ia_if_ib_id_ic_jc_ie_ja_jb_jd_je_jf_jg_ka_kb_kc_kd_ke_kf_la_lb_oa_os_ob_oc_od_oe_of_lc_m0043.56.3.0.2.1.0.63.61.78.5.61_m0343.56.3.0.2.1.0.73.59.75.5.61_m0443.56.3.0.2.1.0.55.50.78.1.61_n00_s00_og_oh_oo_op_oq_or_om_on_ok_ol_oi_oj_ad0.0.0.0.0.0.0.0.0.0
    
    4-sarcastic=47**aa23.73.1.28.96.23.73.1.28.100_ab_ac_ba50_bb65.1_bc150.500.8.0.1_bd65_be180_ca61.0.0.77.20.0.26.0.10_cb0_daFCF0E3.0.0.100_db_dd10.1.17.0.6.50_dhFBD8C7.30.68.35.2_di5_qa_qb_dc0.0.FEE5E5.1.1_eh_ea2.50.BFD1F0.52.0.0_ec_ed37.75.1.1.DEEBFD.9F9CAD_ef_eg_r0417.D1DCF6.9F9CAD.56.2.2.90.100.152.620.545.0_r0617.D1DCF6.9F9CAD.56.1.2.100.100.135.590.565.0_r0717.D1DCF6.9F9CAD.56.1.2.63.100.133.549.602.0_r0858.EBEFFB.FFFFFF.4E4E4E.2.0.75.200.357.631.542.1_r0947.E9EEFB.F7F9FE.9F9CAD.1.1.58.60.218.415.566.0_r1117.D1DCF6.A4A1B1.56.1.2.5.42.144.544.584.0_r1317.D1DCF6.9F9CAD.56.1.2.46.89.144.594.570.0_fa1.70.72.65.34.60.56_fb6_fh1_fc2.8AD1F7.FFFFFF.2.8AD1F7.FFFFFF.45.61.61.45.49.49_fd16.0.40.50.56_fe64.72_ff0000000000_fg0.63_pa0.0.0.0.34.46.81.80.0.0_t0015.E0AAAD.61.0.25.25.92.643.494.1_pb_pc_pd_pe_ga0_gb1_gc28.0_ge0000000000_gh_gf_gg_gd10000000_ha89.89_hb53.1.59.99_hc0.18.16.0.18.16_hd61.1.31.4_ia_if_ib_id_ic_jc_ie_ja_jb_jd_je_jf_jg_ka_kb_kc_kd_ke_kf_la_lb_oa_os_ob_oc_od_oe_of_lc_m0043.56.3.0.2.1.0.63.61.78.5.61_m0343.56.3.0.2.1.0.73.59.75.5.61_m0443.56.3.0.2.1.0.55.50.78.1.61_n00_s00_og_oh_oo_op_oq_or_om_on_ok_ol_oi_oj_ad0.0.0.0.0.0.0.0.0.0
    
    4-interested=47**aa21.55.1.16.54.23.73.1.28.96_ab_ac_ba50_bb66.1_bc150.500.8.0.1_bd66_be180_ca61.0.0.77.20.0.26.0.10_cb0_daFCF0E3.0.0.100_db_dd10.1.17.0.6.50_dhFBD8C7.30.68.35.2_di5_qa_qb_dc0.0.FEE5E5.1.1_eh_ea2.50.BFD1F0.52.0.0_ec_ed37.75.1.1.DEEBFD.9F9CAD_ef_eg_r0417.D1DCF6.9F9CAD.56.2.2.90.100.152.620.545.0_r0617.D1DCF6.9F9CAD.56.1.2.100.100.135.590.565.0_r0717.D1DCF6.9F9CAD.56.1.2.63.100.133.549.602.0_r0858.EBEFFB.FFFFFF.4E4E4E.2.0.75.200.357.631.542.1_r0947.E9EEFB.F7F9FE.9F9CAD.1.1.58.60.218.415.566.0_r1117.D1DCF6.A4A1B1.56.1.2.5.42.144.544.584.0_r1317.D1DCF6.9F9CAD.56.1.2.46.89.144.594.570.0_fa1.70.72.65.34.60.56_fb6_fh1_fc2.8AD1F7.FFFFFF.2.8AD1F7.FFFFFF.45.61.61.45.49.49_fd16.0.40.50.56_fe64.72_ff0000000000_fg0.63_pa0.0.0.0.34.46.81.80.0.0_t0015.E0AAAD.61.0.25.25.92.643.494.1_pb_pc_pd_pe_ga0_gb1_gc28.0_ge0000000000_gh_gf_gg_gd10000000_ha95.95_hb54.1.61.99_hc0.56.35.0.56.35_hd43.1.18.18_ia_if_ib_id_ic_jc_ie_ja_jb_jd_je_jf_jg_ka_kb_kc_kd_ke_kf_la_lb_oa_os_ob_oc_od_oe_of_lc_m0043.56.3.0.2.1.0.63.61.78.5.61_m0343.56.3.0.2.1.0.73.59.75.5.61_m0443.56.3.0.2.1.0.55.50.78.1.61_n00_s00_og_oh_oo_op_oq_or_om_on_ok_ol_oi_oj_ad0.0.0.0.0.0.0.0.0.0
    
    4-shocked=47**aa6.68.1.49.64.18.77.1.23.53_ab_ac_ba50_bb62.1_bc150.500.8.0.1_bd66_be180_ca61.0.0.77.20.0.26.0.10_cb0_daFCF0E3.0.0.100_db_dd10.1.17.0.6.50_dhFBD8C7.30.68.35.2_di5_qa_qb_dc0.0.FEE5E5.1.1_eh_ea2.50.BFD1F0.52.0.0_ec_ed37.75.1.1.DEEBFD.9F9CAD_ef_eg_r0417.D1DCF6.9F9CAD.56.2.2.90.100.152.620.545.0_r0617.D1DCF6.9F9CAD.56.1.2.100.100.135.590.565.0_r0717.D1DCF6.9F9CAD.56.1.2.63.100.133.549.602.0_r0858.EBEFFB.FFFFFF.4E4E4E.2.0.75.200.357.631.542.1_r0947.E9EEFB.F7F9FE.9F9CAD.1.1.58.60.218.415.566.0_r1117.D1DCF6.A4A1B1.56.1.2.5.42.144.544.584.0_r1317.D1DCF6.9F9CAD.56.1.2.46.89.144.594.570.0_fa1.70.72.65.34.60.56_fb6_fh1_fc2.8AD1F7.FFFFFF.2.8AD1F7.FFFFFF.45.61.61.45.49.49_fd16.0.40.50.56_fe64.72_ff0000000000_fg0.63_pa0.0.0.0.34.46.81.80.0.0_t0015.E0AAAD.61.0.25.25.92.643.494.1_pb_pc_pd_pe_ga0_gb1_gc24.0_ge0000100000_gh_gf_gg_gd10000000_ha100.100_hb50.1.56.99_hc0.75.40.0.75.40_hd36.1.22.16_ia_if_ib_id_ic_jc_ie_ja_jb_jd_je_jf_jg_ka_kb_kc_kd_ke_kf_la_lb_oa_os_ob_oc_od_oe_of_lc_m0043.56.3.0.2.1.0.63.61.78.5.61_m0343.56.3.0.2.1.0.73.59.75.5.61_m0443.56.3.0.2.1.0.55.50.78.1.61_n00_s00_og_oh_oo_op_oq_or_om_on_ok_ol_oi_oj_ad0.0.0.0.0.0.0.0.0.0
    
    4-embarrassed=47**aa23.72.1.28.91.9.68.1.16.48_ab_ac_ba50_bb72.1_bc150.500.8.0.1_bd72_be180_ca61.0.0.77.20.0.26.0.10_cb0_daFCF0E3.0.0.100_db_dd13.1.17.0.6.50_dhFBD8C7.30.68.35.2_di5_qa_qb_dc0.0.FEE5E5.1.1_eh_ea2.50.BFD1F0.52.0.0_ec_ed37.75.1.1.DEEBFD.9F9CAD_ef_eg_r0417.D1DCF6.9F9CAD.56.2.2.90.100.152.620.545.0_r0617.D1DCF6.9F9CAD.56.1.2.100.100.135.590.565.0_r0717.D1DCF6.9F9CAD.56.1.2.63.100.133.549.602.0_r0858.EBEFFB.FFFFFF.4E4E4E.2.0.75.200.357.631.542.1_r0947.E9EEFB.F7F9FE.9F9CAD.1.1.58.60.218.415.566.0_r1117.D1DCF6.A4A1B1.56.1.2.5.42.144.544.584.0_r1317.D1DCF6.9F9CAD.56.1.2.46.89.144.594.570.0_fa1.70.72.65.34.60.56_fb6_fh1_fc2.8AD1F7.FFFFFF.2.8AD1F7.FFFFFF.45.61.61.45.49.49_fd16.0.40.50.56_fe64.72_ff0000000000_fg0.63_pa0.0.0.0.34.46.81.80.0.0_t0015.E0AAAD.61.0.25.25.92.643.494.1_pb_pc_pd_pe_ga0_gb1_gc25.0_ge0000000000_gh_gf_gg_gd10000000_ha89.89_hb54.1.61.99_hc3.77.25.3.77.25_hd9.1.31.4_ia_if_ib_id_ic_jc_ie_ja_jb_jd_je_jf_jg_ka_kb_kc_kd_ke_kf_la_lb_oa_os_ob_oc_od_oe_of_lc_m0043.56.3.0.2.1.0.63.61.78.5.61_m0343.56.3.0.2.1.0.73.59.75.5.61_m0443.56.3.0.2.1.0.55.50.78.1.61_n00_s00_og_oh_oo_op_oq_or_om_on_ok_ol_oi_oj_ad0.0.0.0.0.0.0.0.0.0
    
    4-horny=47**aa17.77.1.25.78.17.100.1.4.100_ab_ac_ba62_bb66.1_bc150.500.8.0.1_bd63_be180_ca61.0.0.77.20.0.26.0.10_cb0_daFCF0E3.0.0.100_db_dd10.1.17.0.6.50_dhFBD8C7.30.68.35.2_di5_qa_qb_dc0.0.FEE5E5.1.1_eh_ea2.50.BFD1F0.52.0.0_ec_ed37.75.1.1.DEEBFD.9F9CAD_ef_eg_r0417.D1DCF6.9F9CAD.56.2.2.90.100.152.620.545.0_r0617.D1DCF6.9F9CAD.56.1.2.100.100.135.590.565.0_r0717.D1DCF6.9F9CAD.56.1.2.63.100.133.549.602.0_r0858.EBEFFB.FFFFFF.4E4E4E.2.0.75.200.357.631.542.1_r0947.E9EEFB.F7F9FE.9F9CAD.1.1.58.60.218.415.566.0_r1117.D1DCF6.A4A1B1.56.1.2.5.42.144.544.584.0_r1317.D1DCF6.9F9CAD.56.1.2.46.89.144.594.570.0_fa1.70.72.65.34.60.56_fb6_fh1_fc2.8AD1F7.FFFFFF.2.8AD1F7.FFFFFF.45.61.61.45.49.49_fd16.0.40.50.56_fe64.72_ff0000000000_fg0.63_pa0.0.0.0.34.46.81.80.0.0_t0015.E0AAAD.61.0.25.25.92.643.494.1_pb_pc_pd_pe_ga0_gb1_gc28.0_ge0000000000_gh_gf_gg_gd11100010_ha91.91_hb54.1.71.99_hc0.61.7.0.61.7_hd43.1.20.9_ia_if_ib_id_ic_jc_ie_ja_jb_jd_je_jf_jg_ka_kb_kc_kd_ke_kf_la_lb_oa_os_ob_oc_od_oe_of_lc_m0043.56.3.0.2.1.0.63.61.78.5.61_m0343.56.3.0.2.1.0.73.59.75.5.61_m0443.56.3.0.2.1.0.55.50.78.1.61_n00_s00_og_oh_oo_op_oq_or_om_on_ok_ol_oi_oj_ad0.0.0.0.0.0.0.0.0.0
    
    4-heavy=47**aa21.73.1.28.100.71.43.1.28.45_ab_ac_ba50_bb67.1_bc150.500.8.0.1_bd67_be180_ca61.0.0.77.20.0.26.0.10_cb0_daFCF0E3.0.0.100_db_dd10.1.17.0.6.50_dhFBD8C7.30.68.35.2_di5_qa_qb_dc0.0.FF7985.1.1_eh_ea2.50.BFD1F0.52.0.0_ec_ed37.75.1.1.DEEBFD.9F9CAD_ef_eg_r0417.D1DCF6.9F9CAD.56.2.2.90.100.152.620.545.0_r0617.D1DCF6.9F9CAD.56.1.2.100.100.135.590.565.0_r0717.D1DCF6.9F9CAD.56.1.2.63.100.133.549.602.0_r0858.EBEFFB.FFFFFF.4E4E4E.2.0.75.200.357.631.542.1_r0947.E9EEFB.F7F9FE.9F9CAD.1.1.58.60.218.415.566.0_r1117.D1DCF6.A4A1B1.56.1.2.5.42.144.544.584.0_r1317.D1DCF6.9F9CAD.56.1.2.46.89.144.594.570.0_fa1.70.72.65.34.60.56_fb6_fh1_fc2.8AD1F7.FFFFFF.2.8AD1F7.FFFFFF.45.61.61.45.49.49_fd16.0.40.50.56_fe64.72_ff0000000000_fg0.63_pa0.0.0.0.34.46.81.80.0.0_t0015.E0AAAD.61.0.25.25.92.643.494.1_pb_pc_pd_pe_ga0_gb1_gc28.0_ge0000000000_gh_gf_gg_gd11100010_ha88.88_hb49.1.0.24_hc4.99.45.4.99.45_hd60.0.24.12_ia_if_ib_id_ic_jc_ie_ja_jb_jd_je_jf_jg_ka_kb_kc_kd_ke_kf_la_lb_oa_os_ob_oc_od_oe_of_lc_m0043.56.3.0.2.1.0.63.61.78.5.61_m0343.56.3.0.2.1.0.73.59.75.5.61_m0443.56.3.0.2.1.0.55.50.78.1.61_n00_s00_og_oh_oo_op_oq_or_om_on_ok_ol_oi_oj_ad0.0.0.0.0.0.0.0.0.0
    
    4-finishing=47**aa11.59.1.42.35.16.77.1.23.79_ab_ac_ba43_bb63.0_bc150.500.8.0.1_bd66_be180_ca61.0.0.77.20.0.26.0.10_cb0_daFCF0E3.0.0.100_db_dd10.1.17.0.6.50_dhFBD8C7.30.68.35.2_di5_qa_qb_dc56.0.FF7985.1.1_eh_ea2.50.BFD1F0.52.0.0_ec_ed37.75.1.1.DEEBFD.9F9CAD_ef_eg_r0417.D1DCF6.9F9CAD.56.2.2.90.100.152.620.545.0_r0617.D1DCF6.9F9CAD.56.1.2.100.100.135.590.565.0_r0717.D1DCF6.9F9CAD.56.1.2.63.100.133.549.602.0_r0858.EBEFFB.FFFFFF.4E4E4E.2.0.75.200.357.631.542.1_r0947.E9EEFB.F7F9FE.9F9CAD.1.1.58.60.218.415.566.0_r1117.D1DCF6.A4A1B1.56.1.2.5.42.144.544.584.0_r1317.D1DCF6.9F9CAD.56.1.2.46.89.144.594.570.0_fa1.70.72.65.34.60.56_fb6_fh1_fc2.8AD1F7.FFFFFF.2.8AD1F7.FFFFFF.45.61.61.45.49.49_fd16.0.40.50.56_fe64.72_ff0000000000_fg0.63_pa0.0.0.0.34.46.81.80.0.0_t0015.E0AAAD.61.0.25.25.92.643.494.1_pb_pc_pd_pe_ga0_gb1_gc28.0_ge0000000000_gh_gf_gg_gd11110000_ha11.11_hb49.1.100.24_hc4.66.0.4.66.0_hd33.1.36.86_ia_if_ib_id_ic_jc_ie_ja_jb_jd_je_jf_jg_ka_kb_kc_kd_ke_kf_la_lb_oa_os_ob_oc_od_oe_of_lc_m0043.56.3.0.2.1.0.63.61.78.5.61_m0343.56.3.0.2.1.0.73.59.75.5.61_m0443.56.3.0.2.1.0.55.50.78.1.61_n00_s00_og_oh_oo_op_oq_or_om_on_ok_ol_oi_oj_ad0.0.0.0.0.0.0.0.0.0
    

#finished

    5-finished=47**aa22.76.1.26.47.22.76.1.26.47_ab_ac_ba50_bb72.0_bc150.500.8.0.1_bd72_be180_ca61.0.0.77.20.0.26.0.10_cb0_daFCF0E3.0.0.100_db_dd10.1.17.0.6.50_dhFBD8C7.30.68.35.2_di5_qa_qb_dc56.0.FF7985.1.1_eh_ea2.50.BFD1F0.52.0.0_ec_ed37.75.1.1.DEEBFD.9F9CAD_ef_eg_r0417.D1DCF6.9F9CAD.56.2.2.90.100.152.620.545.0_r0617.D1DCF6.9F9CAD.56.1.2.100.100.135.590.565.0_r0717.D1DCF6.9F9CAD.56.1.2.63.100.133.549.602.0_r0858.EBEFFB.FFFFFF.4E4E4E.2.0.75.200.357.631.542.1_r0947.E9EEFB.F7F9FE.9F9CAD.1.1.58.60.218.415.566.0_r1117.D1DCF6.A4A1B1.56.1.2.5.42.144.544.584.0_r1317.D1DCF6.9F9CAD.56.1.2.46.89.144.594.570.0_fa1.70.72.65.34.60.56_fb6_fh1_fc2.8AD1F7.FFFFFF.2.8AD1F7.FFFFFF.45.61.61.45.49.49_fd16.0.40.50.56_fe64.72_ff0000000000_fg0.63_pa0.0.0.0.34.46.81.80.0.0_t0015.E0AAAD.61.0.25.25.92.643.494.1_pb_pc_pd_pe_ga0_gb1_gc28.0_ge0000000000_gh_gf_gg_gd11110000_ha74.74_hb54.1.61.99_hc0.47.0.0.47.0_hd22.1.42.34_ia_if_ib_id_ic_jc_ie_ja_jb_jd_je_jf_jg_ka_kb_kc_kd_ke_kf_la_lb_oa_os_ob_oc_od_oe_of_lc_m0043.56.3.0.2.1.0.63.61.78.5.61_m0343.56.3.0.2.1.0.73.59.75.5.61_m0443.56.3.0.2.1.0.55.50.78.1.61_n00_s00_og_oh_oo_op_oq_or_om_on_ok_ol_oi_oj_ad0.0.0.0.0.0.0.0.0.0
    
