
thinking=47**aa6.55.1.18.50.6.0.0.0.50_ab_ac_ba60_bb5.1_bc185.500.0.0.1_bd5_be180_ca77.0.25.77.30.0.34.0.30_cb0_da2.0.0.100_db_dd0.3.34.50.45.50_dh2.38.50.50.3_di7_qa_qb_dc0.0.2.2.2_eh4.f39938_ea35.f39938.F39938.56.1.0_ec5.29.f39938.f39938.56.40.64.1_ed32.19.1.0.f39938.56_ef_eg_r00_fa1.50.60.50.26.25.56_fb7_fh_fc0.61.55.0.61.55.18.61.61.50.50.50_fd1.0.19.E75B0C.56_fe50.64_ff0000000000_fg4.55_pa0.0.0.0.40.50.85.85.0.0_t00_pb_pc_pd_pe_ga0_gb1_gc0.0_ge0000000000_gh_gf_gg_gd10000000_ha89.89_hb8.1.79.99_hc0.59.39.0.59.39_hd4.1.49.49_ia_if_ib_id_ic_jc_ie_ja_jb_jd3.a593c5.A593C5.50_je3.a593c5.A593C5.50_jf_jg_ka10.a593c5.10.0.0_kb10.a593c5.0.0_kc_kd_ke_kf_la11.6b5ba4.55.0.1_lb_oa_os_ob_oc_od_oe_of_lc_m00_n00_s00_og_oh_oo_op_oq_or_om_on_ok_ol_oi_oj_ad0.0.0.0.0.0.0.0.0.0
start=40**aa10.44.0.39.50.10.44.0.39.50_ab_ac_ba50_bb5.1_bc150.500.8.0.1_bd5_be180_ca77.0.25.77.30.0.34.0.30_cb0_da2.0.0.100_db_dd0.3.34.50.45_dh2.38.50.50.3_di7_qa_qb_dc0.1.2.1.1_eh4.f39938_ea35.f39938.f39938.56.1.0_ec5.37.f39938.f39938.56.40.64.1_ed32.19.1.0.f39938.56_ef_eg_r0_fa1.50.60.50.26.65.56_fb7_fh_fc0.61.55.0.61.55.18.61.61.50.50.50_fd1.0.19.E75B0C.56_fe50.64_ff0000000000_fg4.55_pa0.0.0.0.40.50.85.85.0.0_t0_pb_pc_pd_pe_ga0_gb1_gc0.0_ge0000000000_gh_gf_gg_gd10000000_ha89.89_hb49.1.44.99_hc0.59.39.0.59.39_hd0.1.49.50_ia_if_ib_id_ic_jc_ie_ja_jb_jd3.a593c5.A593C5.57_je3.a593c5.A593C5.57_jf_jg_ka10.a593c5.6.55.0_kb10.a593c5.6.55_kc_kd_ke_kf_la11.6b5ba4.55.0.1_lb_oa_os_ob_oc_od_oe_of_lc_m0_n0_s0_og_oh_oo_op_oq_or_om_on_ok_ol_oi_oj_ad0.0.0.0.0.0.0.0.0.0
0-start=40**aa10.44.0.39.50.10.44.0.39.50_ab_ac_ba50_bb5.1_bc325.500.8.0.1_bd5_be180_ca77.0.25.77.30.0.34.0.30_cb0_da2.0.0.100_db_dd0.3.34.50.45_dh2.38.50.50.3_di7_qa_qb_dc0.0.2.2.2_eh4.f39938_ea35.f39938.F39938.56.1.0_ec5.29.f39938.f39938.56.40.64.1_ed32.19.1.0.f39938.56_ef_eg_r0_fa1.50.60.50.26.25.56_fb7_fh_fc0.61.55.0.61.55.18.61.61.50.50.50_fd1.0.19.E75B0C.56_fe50.64_ff0000000000_fg4.55_pa0.0.0.0.40.50.85.85.0.0_t0_pb_pc_pd_pe_ga0_gb1_gc0.0_ge0000000000_gh_gf_gg_gd10000000_ha89.89_hb49.1.44.99_hc0.59.39.0.59.39_hd0.1.49.50_ia_if_ib_id_ic_jc_ie_ja_jb_jd3.a593c5.A593C5.57_je3.a593c5.A593C5.57_jf_jg_ka10.a593c5.6.55.0_kb10.a593c5.6.55_kc_kd_ke_kf_la11.6b5ba4.55.0.1_lb_oa_os_ob_oc_od_oe_of_lc_m0_n0_s0_og_oh_oo_op_oq_or_om_on_ok_ol_oi_oj_ad0.0.0.0.0.0.0.0.0.0
0-awkward=40**aa1.74.0.16.50.9.0.0.3.50_ab_ac_ba50_bb5.1_bc412.500.8.0.1_bd5_be180_ca77.0.25.77.30.0.34.0.30_cb0_da2.0.0.100_db_dd0.3.34.50.45_dh2.38.50.50.3_di7_qa_qb_dc0.0.2.2.2_eh4.f39938_ea35.f39938.F39938.56.1.0_ec5.29.f39938.f39938.56.40.64.1_ed32.19.1.0.f39938.56_ef_eg_r0_fa1.50.60.50.26.25.56_fb7_fh_fc0.61.55.0.61.55.18.61.61.50.50.50_fd1.0.19.E75B0C.56_fe50.64_ff0000000000_fg4.55_pa0.0.0.0.40.50.85.85.0.0_t0_pb_pc_pd_pe_ga0_gb1_gc18.0_ge0000000000_gh_gf_gg_gd10000000_ha69.69_hb100.1.0.99_hc3.59.39.3.59.39_hd5.1.49.49_ia_if_ib_id_ic_jc_ie_ja_jb_jd3.a593c5.A593C5.57_je3.a593c5.A593C5.57_jf_jg_ka10.a593c5.6.55.0_kb10.a593c5.6.55_kc_kd_ke_kf_la11.6b5ba4.55.0.1_lb_oa_os_ob_oc_od_oe_of_lc_m0_n0_s0_og_oh_oo_op_oq_or_om_on_ok_ol_oi_oj_ad0.0.0.0.0.0.0.0.0.0
0-calm=40**aa6.0.0.0.50.6.0.0.0.50_ab_ac_ba50_bb5.1_bc500.500.8.0.1_bd5_be180_ca77.0.25.77.30.0.34.0.30_cb0_da2.0.0.100_db_dd0.3.34.50.45_dh2.38.50.50.3_di7_qa_qb_dc0.0.2.2.2_eh4.f39938_ea35.f39938.F39938.56.1.0_ec5.29.f39938.f39938.56.40.64.1_ed32.19.1.0.f39938.56_ef_eg_r0_fa1.50.60.50.26.25.56_fb7_fh_fc0.61.55.0.61.55.18.61.61.50.50.50_fd1.0.19.E75B0C.56_fe50.64_ff0000000000_fg4.55_pa0.0.0.0.40.50.85.85.0.0_t0_pb_pc_pd_pe_ga0_gb1_gc0.0_ge0000000000_gh_gf_gg_gd10000000_ha89.89_hb49.1.44.99_hc0.59.39.0.59.39_hd0.1.49.49_ia_if_ib_id_ic_jc_ie_ja_jb_jd3.a593c5.A593C5.57_je3.a593c5.A593C5.57_jf_jg_ka10.a593c5.6.55.0_kb10.a593c5.6.55_kc_kd_ke_kf_la11.6b5ba4.55.0.1_lb_oa_os_ob_oc_od_oe_of_lc_m0_n0_s0_og_oh_oo_op_oq_or_om_on_ok_ol_oi_oj_ad0.0.0.0.0.0.0.0.0.0
0-happy=40**aa14.44.0.16.50.10.0.0.0.50_ab_ac_ba50_bb5.1_bc587.500.8.0.1_bd5_be180_ca77.0.25.77.30.0.34.0.30_cb0_da2.0.0.100_db_dd0.3.34.50.45_dh2.38.50.50.3_di7_qa_qb_dc0.0.2.2.2_eh4.f39938_ea35.f39938.F39938.56.1.0_ec5.29.f39938.f39938.56.40.64.1_ed32.19.1.0.f39938.56_ef_eg_r0_fa1.50.60.50.26.25.56_fb7_fh_fc0.61.55.0.61.55.18.61.61.50.50.50_fd1.0.19.E75B0C.56_fe50.64_ff0000000000_fg4.55_pa0.0.0.0.40.50.85.85.0.0_t0_pb_pc_pd_pe_ga0_gb1_gc0.0_ge0000000000_gh_gf_gg_gd10000000_ha89.89_hb49.1.44.99_hc0.59.39.0.59.39_hd2.1.49.50_ia_if_ib_id_ic_jc_ie_ja_jb_jd3.a593c5.A593C5.57_je3.a593c5.A593C5.57_jf_jg_ka10.a593c5.6.55.0_kb10.a593c5.6.55_kc_kd_ke_kf_la11.6b5ba4.55.0.1_lb_oa_os_ob_oc_od_oe_of_lc_m0_n0_s0_og_oh_oo_op_oq_or_om_on_ok_ol_oi_oj_ad0.0.0.0.0.0.0.0.0.0
0-horny=40**aa16.82.1.28.50.13.85.1.49.50_ab_ac_ba50_bb5.1_bc675.500.8.0.1_bd5_be180_ca77.0.25.77.30.0.34.0.30_cb0_da2.0.0.100_db_dd0.3.34.50.45_dh2.38.50.50.3_di7_qa_qb_dc0.0.2.2.2_eh4.f39938_ea35.f39938.F39938.56.1.0_ec5.29.f39938.f39938.56.40.64.1_ed32.19.1.0.f39938.56_ef_eg_r0_fa1.50.60.50.26.25.56_fb7_fh_fc0.61.55.0.61.55.18.61.61.50.50.50_fd1.0.19.E75B0C.56_fe50.64_ff0000000000_fg4.55_pa0.0.0.0.40.50.85.85.0.0_t0_pb_pc_pd_pe_ga0_gb1_gc30.0_ge0000000000_gh_gf_gg_gd10000000_ha74.74_hb49.1.44.99_hc4.59.39.4.59.39_hd20.1.49.49_ia_if_ib_id_ic_jc_ie_ja_jb_jd3.a593c5.A593C5.57_je3.a593c5.A593C5.57_jf_jg_ka10.a593c5.6.55.0_kb10.a593c5.6.55_kc_kd_ke_kf_la11.6b5ba4.55.0.1_lb_oa_os_ob_oc_od_oe_of_lc_m0_n0_s0_og_oh_oo_op_oq_or_om_on_ok_ol_oi_oj_ad0.0.0.0.0.0.0.0.0.0
0-interested=40**aa10.58.1.16.50.10.58.1.16.50_ab_ac_ba50_bb5.1_bc762.500.8.0.1_bd5_be180_ca77.0.25.77.30.0.34.0.30_cb0_da2.0.0.100_db_dd0.3.34.50.45_dh2.38.50.50.3_di7_qa_qb_dc0.0.2.2.2_eh4.f39938_ea35.f39938.F39938.56.1.0_ec5.29.f39938.f39938.56.40.64.1_ed32.19.1.0.f39938.56_ef_eg_r0_fa1.50.60.50.26.25.56_fb7_fh_fc0.61.55.0.61.55.18.61.61.50.50.50_fd1.0.19.E75B0C.56_fe50.64_ff0000000000_fg4.55_pa0.0.0.0.40.50.85.85.0.0_t0_pb_pc_pd_pe_ga0_gb1_gc0.0_ge0000000000_gh_gf_gg_gd10000000_ha89.89_hb49.1.44.99_hc0.59.39.0.59.39_hd21.1.49.49_ia_if_ib_id_ic_jc_ie_ja_jb_jd3.a593c5.A593C5.57_je3.a593c5.A593C5.57_jf_jg_ka10.a593c5.6.55.0_kb10.a593c5.6.55_kc_kd_ke_kf_la11.6b5ba4.55.0.1_lb_oa_os_ob_oc_od_oe_of_lc_m0_n0_s0_og_oh_oo_op_oq_or_om_on_ok_ol_oi_oj_ad0.0.0.0.0.0.0.0.0.0
0-loss=40**aa6.0.0.0.50.6.0.0.0.50_ab_ac_ba50_bb5.1_bc850.500.8.0.1_bd5_be180_ca77.0.25.77.30.0.34.0.30_cb0_da2.0.0.100_db_dd0.3.34.50.45_dh2.38.50.50.3_di7_qa_qb_dc0.0.2.2.2_eh4.f39938_ea35.f39938.F39938.56.1.0_ec5.29.f39938.f39938.56.40.64.1_ed32.19.1.0.f39938.56_ef_eg_r0_fa1.50.60.50.26.25.56_fb7_fh_fc0.61.55.0.61.55.18.61.61.50.50.50_fd1.0.19.E75B0C.56_fe50.64_ff0000000000_fg4.55_pa0.0.0.0.40.50.85.85.0.0_t0_pb_pc_pd_pe_ga0_gb1_gc8.0_ge0000000000_gh_gf_gg_gd10000000_ha28.28_hb49.1.44.99_hc2.59.39.2.59.39_hd5.1.49.49_ia_if_ib_id_ic_jc_ie_ja_jb_jd3.a593c5.A593C5.57_je3.a593c5.A593C5.57_jf_jg_ka10.a593c5.6.55.0_kb10.a593c5.6.55_kc_kd_ke_kf_la11.6b5ba4.55.0.1_lb_oa_os_ob_oc_od_oe_of_lc_m0_n0_s0_og_oh_oo_op_oq_or_om_on_ok_ol_oi_oj_ad0.0.0.0.0.0.0.0.0.0
0-sad=40**aa6.0.0.0.50.6.0.0.0.50_ab_ac_ba50_bb5.1_bc150.500.8.0.1_bd5_be180_ca77.0.25.77.30.0.34.0.30_cb0_da2.0.0.100_db_dd0.3.34.50.45_dh2.38.50.50.3_di7_qa_qb_dc0.0.2.2.2_eh4.f39938_ea35.f39938.F39938.56.1.0_ec5.29.f39938.f39938.56.40.64.1_ed32.19.1.0.f39938.56_ef_eg_r0_fa1.50.60.50.26.25.56_fb7_fh_fc0.61.55.0.61.55.18.61.61.50.50.50_fd1.0.19.E75B0C.56_fe50.64_ff0000000000_fg4.55_pa0.0.0.0.40.50.85.85.0.0_t0_pb_pc_pd_pe_ga0_gb1_gc0.0_ge0000000000_gh_gf_gg_gd10000000_ha0.0_hb49.1.44.99_hc4.59.39.4.59.39_hd7.1.49.49_ia_if_ib_id_ic_jc_ie_ja_jb_jd3.a593c5.A593C5.57_je3.a593c5.A593C5.57_jf_jg_ka10.a593c5.6.55.0_kb10.a593c5.6.55_kc_kd_ke_kf_la11.6b5ba4.55.0.1_lb_oa_os_ob_oc_od_oe_of_lc_m0_n0_s0_og_oh_oo_op_oq_or_om_on_ok_ol_oi_oj_ad0.0.0.0.0.0.0.0.0.0
0-shocked=40**aa6.0.0.0.50.7.56.1.28.50_ab_ac_ba50_bb5.1_bc237.500.8.0.1_bd5_be180_ca77.0.25.77.30.0.34.0.30_cb0_da2.0.0.100_db_dd0.3.34.50.45_dh2.38.50.50.3_di7_qa_qb_dc0.0.2.2.2_eh4.f39938_ea35.f39938.F39938.56.1.0_ec5.29.f39938.f39938.56.40.64.1_ed32.19.1.0.f39938.56_ef_eg_r0_fa1.50.60.50.26.25.56_fb7_fh_fc0.61.55.0.61.55.18.61.61.50.50.50_fd1.0.19.E75B0C.56_fe50.64_ff0000000000_fg4.55_pa0.0.0.0.40.50.85.85.0.0_t0_pb_pc_pd_pe_ga0_gb1_gc11.0_ge0000000000_gh_gf_gg_gd10000000_ha100.100_hb49.1.44.99_hc0.59.39.0.59.39_hd21.1.49.49_ia_if_ib_id_ic_jc_ie_ja_jb_jd3.a593c5.A593C5.57_je3.a593c5.A593C5.57_jf_jg_ka10.a593c5.6.55.0_kb10.a593c5.6.55_kc_kd_ke_kf_la11.6b5ba4.55.0.1_lb_oa_os_ob_oc_od_oe_of_lc_m0_n0_s0_og_oh_oo_op_oq_or_om_on_ok_ol_oi_oj_ad0.0.0.0.0.0.0.0.0.0
0-strip=40**aa6.0.0.0.50.4.0.0.0.50_ab_ac_ba50_bb5.1_bc325.500.8.0.1_bd56_be180_ca77.0.25.77.30.0.34.0.30_cb0_da2.0.0.100_db_dd0.3.34.50.45_dh2.38.50.50.3_di7_qa_qb_dc0.0.2.2.2_eh4.f39938_ea35.f39938.F39938.56.1.0_ec5.29.f39938.f39938.56.40.64.1_ed32.19.1.0.f39938.56_ef_eg_r0_fa1.50.60.50.26.25.56_fb7_fh_fc0.61.55.0.61.55.18.61.61.50.50.50_fd1.0.19.E75B0C.56_fe50.64_ff0000000000_fg4.55_pa0.0.0.0.40.50.85.85.0.0_t0_pb_pc_pd_pe_ga0_gb1_gc13.0_ge0000000000_gh_gf_gg_gd10000000_ha36.36_hb49.1.44.99_hc2.59.39.2.59.39_hd5.1.49.49_ia_if_ib_id_ic_jc_ie_ja_jb_jd_je3.a593c5.A593C5.57_jf_jg_ka10.a593c5.6.55.0_kb10.a593c5.6.55_kc_kd_ke_kf_la11.6b5ba4.55.0.1_lb_oa_os_ob_oc_od_oe_of_lc_m0_n0_s0_og_oh_oo_op_oq_or_om_on_ok_ol_oi_oj_ad0.0.0.0.0.0.0.0.0.0

1-awkward=47**aa12.63.1.26.50.13.86.1.26.50_ab_ac_ba50_bb5.1_bc150.500.8.0.1_bd5_be180_ca77.0.25.77.30.0.34.0.30_cb0_da2.0.0.100_db_dd0.3.34.50.45.50_dh2.38.50.50.3_di7_qa_qb_dc0.0.2.2.2_eh4.f39938_ea35.f39938.F39938.56.1.0_ec5.29.f39938.f39938.56.40.64.1_ed32.19.1.0.f39938.56_ef_eg_r00_fa1.50.60.50.26.25.56_fb7_fh_fc0.61.55.0.61.55.18.61.61.50.50.50_fd1.0.19.E75B0C.56_fe50.64_ff0000000000_fg4.55_pa0.0.0.0.40.50.85.85.0.0_t00_pb_pc_pd_pe_ga0_gb1_gc55.0_ge0000000000_gh_gf_gg_gd10000000_ha89.89_hb49.1.44.99_hc0.59.39.0.59.39_hd4.1.49.49_ia_if_ib_id_ic_jc_ie_ja_jb_jd_je_jf_jg_ka10.a593c5.0.0.0_kb10.a593c5.0.0_kc_kd_ke_kf_la11.6b5ba4.55.0.1_lb_oa_os_ob_oc_od_oe_of_lc_m00_n00_s00_og_oh_oo_op_oq_or_om_on_ok_ol_oi_oj_ad0.0.0.0.0.0.0.0.0.0
1-calm=47**aa9.89.1.26.50.9.89.1.26.50_ab_ac_ba50_bb5.1_bc237.500.8.0.1_bd5_be180_ca77.0.25.77.30.0.34.0.30_cb0_da2.0.0.100_db_dd0.3.34.50.45.50_dh2.38.50.50.3_di7_qa_qb_dc0.0.2.2.2_eh4.f39938_ea35.f39938.F39938.56.1.0_ec5.29.f39938.f39938.56.40.64.1_ed32.19.1.0.f39938.56_ef_eg_r00_fa1.50.60.50.26.25.56_fb7_fh_fc0.61.55.0.61.55.18.61.61.50.50.50_fd1.0.19.E75B0C.56_fe50.64_ff0000000000_fg4.55_pa0.0.0.0.40.50.85.85.0.0_t00_pb_pc_pd_pe_ga0_gb1_gc55.0_ge0000000000_gh_gf_gg_gd10000000_ha89.89_hb49.1.44.99_hc0.59.39.0.59.39_hd4.1.49.49_ia_if_ib_id_ic_jc_ie_ja_jb_jd_je_jf_jg_ka10.a593c5.18.18.0_kb10.a593c5.18.18_kc_kd_ke_kf_la11.6b5ba4.55.0.1_lb_oa_os_ob_oc_od_oe_of_lc_m00_n00_s00_og_oh_oo_op_oq_or_om_on_ok_ol_oi_oj_ad0.0.0.0.0.0.0.0.0.0
1-happy=47**aa20.60.1.16.27.20.60.1.16.28_ab_ac_ba50_bb5.1_bc325.500.8.0.1_bd5_be180_ca77.0.25.77.30.0.34.0.30_cb0_da2.0.0.100_db_dd0.3.34.50.45.50_dh2.38.50.50.3_di7_qa_qb_dc0.0.2.2.2_eh4.f39938_ea35.f39938.F39938.56.1.0_ec5.29.f39938.f39938.56.40.64.1_ed32.19.1.0.f39938.56_ef_eg_r00_fa1.50.60.50.26.25.56_fb7_fh_fc0.61.55.0.61.55.18.61.61.50.50.50_fd1.0.19.E75B0C.56_fe50.64_ff0000000000_fg4.55_pa0.0.0.0.40.50.85.85.0.0_t00_pb_pc_pd_pe_ga0_gb1_gc55.0_ge0000000000_gh_gf_gg_gd10000000_ha89.89_hb49.1.44.99_hc0.59.39.0.59.39_hd34.1.49.50_ia_if_ib_id_ic_jc_ie_ja_jb_jd_je_jf_jg_ka10.a593c5.43.0.0_kb10.a593c5.43.0_kc_kd_ke_kf_la11.6b5ba4.55.0.1_lb_oa_os_ob_oc_od_oe_of_lc_m00_n00_s00_og_oh_oo_op_oq_or_om_on_ok_ol_oi_oj_ad0.0.0.0.0.0.0.0.0.0
1-horny=47**aa12.65.1.26.50.11.88.1.16.50_ab_ac_ba50_bb5.1_bc412.500.8.0.1_bd5_be180_ca77.0.25.77.30.0.34.0.30_cb0_da2.0.0.100_db_dd0.3.34.50.45.50_dh2.38.50.50.3_di7_qa_qb_dc0.0.2.2.2_eh4.f39938_ea35.f39938.F39938.56.1.0_ec5.29.f39938.f39938.56.40.64.1_ed32.19.1.0.f39938.56_ef_eg_r00_fa1.50.60.50.26.25.56_fb7_fh_fc0.61.55.0.61.55.18.61.61.50.50.50_fd1.0.19.E75B0C.56_fe50.64_ff0000000000_fg4.55_pa0.0.0.0.40.50.85.85.0.0_t00_pb_pc_pd_pe_ga0_gb1_gc60.0_ge0000000000_gh_gf_gg_gd10000000_ha74.74_hb49.1.44.99_hc0.59.39.0.59.39_hd17.1.49.49_ia_if_ib_id_ic_jc_ie_ja_jb_jd_je_jf_jg_ka10.a593c5.0.0.0_kb10.a593c5.0.0_kc_kd_ke_kf_la11.6b5ba4.55.0.1_lb_oa_os_ob_oc_od_oe_of_lc_m00_n00_s00_og_oh_oo_op_oq_or_om_on_ok_ol_oi_oj_ad0.0.0.0.0.0.0.0.0.0
1-interested=47**aa10.58.1.16.50.10.58.1.16.50_ab_ac_ba50_bb5.1_bc500.500.8.0.1_bd5_be180_ca77.0.25.77.30.0.34.0.30_cb0_da2.0.0.100_db_dd0.3.34.50.45.50_dh2.38.50.50.3_di7_qa_qb_dc0.0.2.2.2_eh4.f39938_ea35.f39938.F39938.56.1.0_ec5.29.f39938.f39938.56.40.64.1_ed32.19.1.0.f39938.56_ef_eg_r00_fa1.50.60.50.26.25.56_fb7_fh_fc0.61.55.0.61.55.18.61.61.50.50.50_fd1.0.19.E75B0C.56_fe50.64_ff0000000000_fg4.55_pa0.0.0.0.40.50.85.85.0.0_t00_pb_pc_pd_pe_ga0_gb1_gc45.0_ge0000000000_gh_gf_gg_gd10000000_ha89.89_hb49.1.44.99_hc0.59.39.0.59.39_hd39.1.49.49_ia_if_ib_id_ic_jc_ie_ja_jb_jd_je_jf_jg_ka10.a593c5.17.17.0_kb10.a593c5.17.17_kc_kd_ke_kf_la11.6b5ba4.55.0.1_lb_oa_os_ob_oc_od_oe_of_lc_m00_n00_s00_og_oh_oo_op_oq_or_om_on_ok_ol_oi_oj_ad0.0.0.0.0.0.0.0.0.0
1-loss=47**aa14.95.1.16.45.14.95.1.16.45_ab_ac_ba50_bb5.1_bc587.500.8.0.1_bd5_be180_ca77.0.25.77.30.0.34.0.30_cb0_da2.0.0.100_db_dd0.3.34.50.45.50_dh2.38.50.50.3_di7_qa_qb_dc0.0.2.2.2_eh4.f39938_ea35.f39938.F39938.56.1.0_ec5.29.f39938.f39938.56.40.64.1_ed32.19.1.0.f39938.56_ef_eg_r00_fa1.50.60.50.26.25.56_fb7_fh_fc0.61.55.0.61.55.18.61.61.50.50.50_fd1.0.19.E75B0C.56_fe50.64_ff0000000000_fg4.55_pa0.0.0.0.40.50.85.85.0.0_t00_pb_pc_pd_pe_ga0_gb1_gc35.0_ge0000000000_gh_gf_gg_gd10000000_ha79.79_hb49.1.44.99_hc2.50.21.2.50.21_hd51.1.49.49_ia_if_ib_id_ic_jc_ie_ja_jb_jd_je_jf_jg_ka10.a593c5.1.1.0_kb10.a593c5.1.1_kc_kd_ke_kf_la11.6b5ba4.55.0.1_lb_oa_os_ob_oc_od_oe_of_lc_m00_n00_s00_og_oh_oo_op_oq_or_om_on_ok_ol_oi_oj_ad0.0.0.0.0.0.0.0.0.0
1-sad=47**aa3.0.1.0.50.3.0.1.0.50_ab_ac_ba50_bb5.1_bc675.500.8.0.1_bd5_be180_ca77.0.25.77.30.0.34.0.30_cb0_da2.0.0.100_db_dd0.3.34.50.45.50_dh2.38.50.50.3_di7_qa_qb_dc0.0.2.2.2_eh4.f39938_ea35.f39938.F39938.56.1.0_ec5.29.f39938.f39938.56.40.64.1_ed32.19.1.0.f39938.56_ef_eg_r00_fa1.50.60.50.26.25.56_fb7_fh_fc0.61.55.0.61.55.18.61.61.50.50.50_fd1.0.19.E75B0C.56_fe50.64_ff0000000000_fg4.55_pa0.0.0.0.40.50.85.85.0.0_t00_pb_pc_pd_pe_ga0_gb1_gc50.0_ge0000000000_gh_gf_gg_gd10000000_ha69.69_hb49.1.0.100_hc4.59.39.4.59.39_hd5.1.49.49_ia_if_ib_id_ic_jc_ie_ja_jb_jd_je_jf_jg_ka10.a593c5.32.32.0_kb10.a593c5.32.32_kc_kd_ke_kf_la11.6b5ba4.55.0.1_lb_oa_os_ob_oc_od_oe_of_lc_m00_n00_s00_og_oh_oo_op_oq_or_om_on_ok_ol_oi_oj_ad0.0.0.0.0.0.0.0.0.0
1-shocked=47**aa6.0.0.0.50.7.56.1.28.50_ab_ac_ba50_bb5.1_bc762.500.8.0.1_bd5_be180_ca77.0.25.77.30.0.34.0.30_cb0_da2.0.0.100_db_dd0.3.34.50.45.50_dh2.38.50.50.3_di7_qa_qb_dc0.0.2.2.2_eh4.f39938_ea35.f39938.F39938.56.1.0_ec5.29.f39938.f39938.56.40.64.1_ed32.19.1.0.f39938.56_ef_eg_r00_fa1.50.60.50.26.25.56_fb7_fh_fc0.61.55.0.61.55.18.61.61.50.50.50_fd1.0.19.E75B0C.56_fe50.64_ff0000000000_fg4.55_pa0.0.0.0.40.50.85.85.0.0_t00_pb_pc_pd_pe_ga0_gb1_gc50.0_ge0000000000_gh_gf_gg_gd10000000_ha100.100_hb49.1.44.99_hc0.59.39.0.59.39_hd22.1.49.49_ia_if_ib_id_ic_jc_ie_ja_jb_jd_je_jf_jg_ka10.a593c5.59.59.0_kb10.a593c5.59.59_kc_kd_ke_kf_la11.6b5ba4.55.0.1_lb_oa_os_ob_oc_od_oe_of_lc_m00_n00_s00_og_oh_oo_op_oq_or_om_on_ok_ol_oi_oj_ad0.0.0.0.0.0.0.0.0.0
1-strip=47**aa77.29.1.49.50.10.96.1.3.50_ab_ac_ba50_bb5.1_bc850.500.8.0.1_bd5_be180_ca77.0.25.77.30.0.34.0.30_cb0_da2.0.0.100_db_dd0.3.34.50.45.50_dh2.38.50.50.3_di7_qa_qb_dc0.0.2.2.2_eh4.f39938_ea35.f39938.F39938.56.1.0_ec5.29.f39938.f39938.56.40.64.1_ed32.19.1.0.f39938.56_ef_eg_r00_fa1.50.60.50.26.25.56_fb7_fh_fc0.61.55.0.61.55.18.61.61.50.50.50_fd1.0.19.E75B0C.56_fe50.64_ff0000000000_fg4.55_pa0.0.0.0.40.50.85.85.0.0_t00_pb_pc_pd_pe_ga0_gb1_gc50.0_ge0000000000_gh_gf_gg_gd10000000_ha89.89_hb50.1.50.99_hc0.41.55.0.41.55_hd2.1.49.49_ia_if_ib_id_ic_jc_ie_ja_jb_jd_je_jf_jg_ka10.a593c5.59.0.0_kb10.a593c5.59.0_kc_kd_ke_kf_la11.6b5ba4.55.0.1_lb_oa_os_ob_oc_od_oe_of_lc_m00_n00_s00_og_oh_oo_op_oq_or_om_on_ok_ol_oi_oj_ad0.0.0.0.0.0.0.0.0.0

2-awkward=40**aa10.72.1.21.50.10.72.1.28.50_ab_ac_ba50_bb5.1_bc150.500.8.0.1_bd5_be180_ca77.0.25.77.30.0.34.0.30_cb0_da2.0.0.100_db_dd0.3.34.50.45_dh2.38.50.50.3_di7_qa_qb_dc0.0.2.2.2_eh4.f39938_ea35.f39938.F39938.56.1.0_ec5.70.f39938.f39938.56.40.64.1_ed32.100.1.0.f39938.56_ef_eg_r0_fa1.50.60.50.26.25.56_fb7_fh_fc0.61.55.0.61.55.18.61.61.50.50.50_fd1.0.19.E75B0C.56_fe50.64_ff0000000000_fg4.55_pa0.0.0.0.40.50.85.85.0.0_t0_pb_pc_pd_pe_ga0_gb1_gc55.0_ge0000000000_gh_gf_gg_gd10000000_ha89.89_hb49.1.44.99_hc0.59.39.0.59.39_hd4.1.49.49_ia_if_ib_id_ic_jc_ie_ja_jb_jd_je_jf_jg_ka10.a593c5.D0C4E2.55.0_kb10.a593c5.D0C4E2.55_kc_kd_ke_kf_la_lb_oa_os_ob_oc_od_oe_of_lc_m0_n0_s0_og_oh_oo_op_oq_or_om_on_ok_ol_oi_oj_ad0.0.0.0.0.0.0.0.0.0
2-calm=40**aa9.89.1.26.50.9.89.1.26.50_ab_ac_ba50_bb5.1_bc237.500.8.0.1_bd5_be180_ca77.0.25.77.30.0.34.0.30_cb0_da2.0.0.100_db_dd0.3.34.50.45_dh2.38.50.50.3_di7_qa_qb_dc0.0.2.2.2_eh4.f39938_ea35.f39938.F39938.56.1.0_ec5.70.f39938.f39938.56.40.64.1_ed32.100.1.0.f39938.56_ef_eg_r0_fa1.50.60.50.26.25.56_fb7_fh_fc0.61.55.0.61.55.18.61.61.50.50.50_fd1.0.19.E75B0C.56_fe50.64_ff0000000000_fg4.55_pa0.0.0.0.40.50.85.85.0.0_t0_pb_pc_pd_pe_ga0_gb1_gc55.0_ge0000000000_gh_gf_gg_gd10000000_ha89.89_hb49.1.44.99_hc0.59.39.0.59.39_hd4.1.49.49_ia_if_ib_id_ic_jc_ie_ja_jb_jd_je_jf_jg_ka10.a593c5.D0C4E2.55.0_kb10.a593c5.D0C4E2.55_kc_kd_ke_kf_la_lb_oa_os_ob_oc_od_oe_of_lc_m0_n0_s0_og_oh_oo_op_oq_or_om_on_ok_ol_oi_oj_ad0.0.0.0.0.0.0.0.0.0
2-happy=40**aa20.60.1.16.27.20.60.1.16.28_ab_ac_ba50_bb5.1_bc325.500.8.0.1_bd5_be180_ca77.0.25.77.30.0.34.0.30_cb0_da2.0.0.100_db_dd0.3.34.50.45_dh2.38.50.50.3_di7_qa_qb_dc0.0.2.2.2_eh4.f39938_ea35.f39938.F39938.56.1.0_ec5.70.f39938.f39938.56.40.64.1_ed32.100.1.0.f39938.56_ef_eg_r0_fa1.50.60.50.26.25.56_fb7_fh_fc0.61.55.0.61.55.18.61.61.50.50.50_fd1.0.19.E75B0C.56_fe50.64_ff0000000000_fg4.55_pa0.0.0.0.40.50.85.85.0.0_t0_pb_pc_pd_pe_ga0_gb1_gc55.0_ge0000000000_gh_gf_gg_gd10000000_ha89.89_hb49.1.44.99_hc0.59.39.0.59.39_hd34.1.49.50_ia_if_ib_id_ic_jc_ie_ja_jb_jd_je_jf_jg_ka10.a593c5.D0C4E2.55.0_kb10.a593c5.D0C4E2.55_kc_kd_ke_kf_la_lb_oa_os_ob_oc_od_oe_of_lc_m0_n0_s0_og_oh_oo_op_oq_or_om_on_ok_ol_oi_oj_ad0.0.0.0.0.0.0.0.0.0
2-horny=40**aa12.65.1.26.50.11.88.1.17.50_ab_ac_ba50_bb5.1_bc412.500.8.0.1_bd5_be180_ca77.0.25.77.30.0.34.0.30_cb0_da2.0.0.100_db_dd0.3.34.50.45_dh2.38.50.50.3_di7_qa_qb_dc0.0.2.2.2_eh4.f39938_ea35.f39938.F39938.56.1.0_ec5.70.f39938.f39938.56.40.64.1_ed32.100.1.0.f39938.56_ef_eg_r0_fa1.50.60.50.26.25.56_fb7_fh_fc0.61.55.0.61.55.18.61.61.50.50.50_fd1.0.19.E75B0C.56_fe50.64_ff0000000000_fg4.55_pa0.0.0.0.40.50.85.85.0.0_t0_pb_pc_pd_pe_ga0_gb1_gc60.0_ge0000000000_gh_gf_gg_gd10000000_ha74.74_hb49.1.44.99_hc0.59.39.0.59.39_hd17.1.49.49_ia_if_ib_id_ic_jc_ie_ja_jb_jd_je_jf_jg_ka10.a593c5.D0C4E2.55.0_kb10.a593c5.D0C4E2.55_kc_kd_ke_kf_la_lb_oa_os_ob_oc_od_oe_of_lc_m0_n0_s0_og_oh_oo_op_oq_or_om_on_ok_ol_oi_oj_ad0.0.0.0.0.0.0.0.0.0
2-interested=40**aa10.58.1.16.50.10.58.1.16.50_ab_ac_ba50_bb5.1_bc500.500.8.0.1_bd5_be180_ca77.0.25.77.30.0.34.0.30_cb0_da2.0.0.100_db_dd0.3.34.50.45_dh2.38.50.50.3_di7_qa_qb_dc0.0.2.2.2_eh4.f39938_ea35.f39938.F39938.56.1.0_ec5.70.f39938.f39938.56.40.64.1_ed32.100.1.0.f39938.56_ef_eg_r0_fa1.50.60.50.26.25.56_fb7_fh_fc0.61.55.0.61.55.18.61.61.50.50.50_fd1.0.19.E75B0C.56_fe50.64_ff0000000000_fg4.55_pa0.0.0.0.40.50.85.85.0.0_t0_pb_pc_pd_pe_ga0_gb1_gc50.0_ge0000000000_gh_gf_gg_gd10000000_ha89.89_hb49.1.44.99_hc0.59.39.0.59.39_hd39.1.49.49_ia_if_ib_id_ic_jc_ie_ja_jb_jd_je_jf_jg_ka10.a593c5.D0C4E2.55.0_kb10.a593c5.D0C4E2.55_kc_kd_ke_kf_la_lb_oa_os_ob_oc_od_oe_of_lc_m0_n0_s0_og_oh_oo_op_oq_or_om_on_ok_ol_oi_oj_ad0.0.0.0.0.0.0.0.0.0
2-loss=40**aa14.95.1.16.45.14.95.1.16.45_ab_ac_ba50_bb5.1_bc587.500.8.0.1_bd5_be180_ca77.0.25.77.30.0.34.0.30_cb0_da2.0.0.100_db_dd0.3.34.50.45_dh2.38.50.50.3_di7_qa_qb_dc0.0.2.2.2_eh4.f39938_ea35.f39938.F39938.56.1.0_ec5.70.f39938.f39938.56.40.64.1_ed32.100.1.0.f39938.56_ef_eg_r0_fa1.50.60.50.26.25.56_fb7_fh_fc0.61.55.0.61.55.18.61.61.50.50.50_fd1.0.19.E75B0C.56_fe50.64_ff0000000000_fg4.55_pa0.0.0.0.40.50.85.85.0.0_t0_pb_pc_pd_pe_ga0_gb1_gc60.0_ge0000000000_gh_gf_gg_gd10000000_ha79.79_hb49.1.2.99_hc2.50.21.2.50.21_hd5.1.49.49_ia_if_ib_id_ic_jc_ie_ja_jb_jd_je_jf_jg_ka10.a593c5.D0C4E2.55.0_kb10.a593c5.D0C4E2.55_kc_kd_ke_kf_la_lb_oa_os_ob_oc_od_oe_of_lc_m0_n0_s0_og_oh_oo_op_oq_or_om_on_ok_ol_oi_oj_ad0.0.0.0.0.0.0.0.0.0
2-sad=40**aa3.0.1.0.50.3.0.1.0.50_ab_ac_ba50_bb5.1_bc675.500.8.0.1_bd5_be180_ca77.0.25.77.30.0.34.0.30_cb0_da2.0.0.100_db_dd0.3.34.50.45_dh2.38.50.50.3_di7_qa_qb_dc0.0.2.2.2_eh4.f39938_ea35.f39938.F39938.56.1.0_ec5.70.f39938.f39938.56.40.64.1_ed32.100.1.0.f39938.56_ef_eg_r0_fa1.50.60.50.26.25.56_fb7_fh_fc0.61.55.0.61.55.18.61.61.50.50.50_fd1.0.19.E75B0C.56_fe50.64_ff0000000000_fg4.55_pa0.0.0.0.40.50.85.85.0.0_t0_pb_pc_pd_pe_ga0_gb1_gc55.0_ge0000000000_gh_gf_gg_gd10000000_ha69.69_hb49.1.0.100_hc4.59.39.4.59.39_hd5.1.49.49_ia_if_ib_id_ic_jc_ie_ja_jb_jd_je_jf_jg_ka10.a593c5.D0C4E2.55.0_kb10.a593c5.D0C4E2.55_kc_kd_ke_kf_la_lb_oa_os_ob_oc_od_oe_of_lc_m0_n0_s0_og_oh_oo_op_oq_or_om_on_ok_ol_oi_oj_ad0.0.0.0.0.0.0.0.0.0
2-shocked=40**aa6.0.0.0.50.7.56.1.28.50_ab_ac_ba50_bb5.1_bc762.500.8.0.1_bd5_be180_ca77.0.25.77.30.0.34.0.30_cb0_da2.0.0.100_db_dd0.3.34.50.45_dh2.38.50.50.3_di7_qa_qb_dc0.0.2.2.2_eh4.f39938_ea35.f39938.F39938.56.1.0_ec5.70.f39938.f39938.56.40.64.1_ed32.100.1.0.f39938.56_ef_eg_r0_fa1.50.60.50.26.25.56_fb7_fh_fc0.61.55.0.61.55.18.61.61.50.50.50_fd1.0.19.E75B0C.56_fe50.64_ff0000000000_fg4.55_pa0.0.0.0.40.50.85.85.0.0_t0_pb_pc_pd_pe_ga0_gb1_gc50.0_ge0000000000_gh_gf_gg_gd10000000_ha100.100_hb49.1.44.99_hc0.59.39.0.59.39_hd22.1.49.49_ia_if_ib_id_ic_jc_ie_ja_jb_jd_je_jf_jg_ka10.a593c5.D0C4E2.55.0_kb10.a593c5.D0C4E2.55_kc_kd_ke_kf_la_lb_oa_os_ob_oc_od_oe_of_lc_m0_n0_s0_og_oh_oo_op_oq_or_om_on_ok_ol_oi_oj_ad0.0.0.0.0.0.0.0.0.0
2-strip=40**aa33.63.0.6.50.52.51.1.45.50_ab_ac_ba50_bb5.1_bc850.500.8.0.1_bd5_be180_ca77.0.25.77.30.0.34.0.30_cb0_da2.0.0.100_db_dd0.3.34.50.45_dh2.38.50.50.3_di7_qa_qb_dc0.0.2.2.2_eh4.f39938_ea35.f39938.F39938.56.1.0_ec5.70.f39938.f39938.56.40.64.1_ed32.100.1.0.f39938.56_ef_eg_r0_fa1.50.60.50.26.25.56_fb7_fh_fc0.61.55.0.61.55.18.61.61.50.50.50_fd1.0.19.E75B0C.56_fe50.64_ff0000000000_fg4.55_pa0.0.0.0.40.50.85.85.0.0_t0_pb_pc_pd_pe_ga0_gb1_gc60.0_ge0000000000_gh_gf_gg_gd10000000_ha89.89_hb100.1.0.99_hc3.59.39.3.59.39_hd8.1.49.49_ia_if_ib_id_ic_jc_ie_ja_jb_jd_je_jf_jg_ka10.a593c5.D0C4E2.55.0_kb10.a593c5.D0C4E2.55_kc_kd_ke_kf_la_lb_oa_os_ob_oc_od_oe_of_lc_m0_n0_s0_og_oh_oo_op_oq_or_om_on_ok_ol_oi_oj_ad0.0.0.0.0.0.0.0.0.0

3-awkward=40**aa12.67.1.28.50.12.67.1.28.50_ab_ac_ba50_bb5.1_bc150.500.8.0.1_bd5_be180_ca77.0.25.77.30.0.34.0.30_cb0_da2.0.0.100_db_dd0.3.34.50.45_dh2.38.50.50.3_di7_qa_qb_dc0.0.2.2.2_eh4.f39938_ea35.f39938.F39938.56.1.0_ec5.70.f39938.f39938.56.40.64.1_ed32.100.1.0.f39938.56_ef_eg_r0_fa1.50.60.50.26.25.56_fb7_fh_fc0.61.55.0.61.55.18.61.61.50.50.50_fd1.0.19.E75B0C.56_fe50.64_ff0000000000_fg4.55_pa0.0.0.0.40.50.85.85.0.0_t0_pb_pc_pd_pe_ga0_gb1_gc60.0_ge0000000000_gh_gf_gg_gd10000000_ha89.89_hb49.1.44.99_hc0.59.39.0.59.39_hd4.1.49.49_ia_if_ib_id_ic_jc_ie_ja_jb_jd_je_jf_jg_ka_kb10.a593c5.D0C4E2.55_kc_kd_ke_kf_la_lb_oa_os_ob_oc_od_oe_of_lc_m0_n0_s0_og_oh_oo_op_oq_or_om_on_ok_ol_oi_oj_ad0.0.0.0.0.0.0.0.0.0
3-calm=40**aa13.63.1.26.50.13.63.1.26.50_ab_ac_ba50_bb5.1_bc237.500.8.0.1_bd5_be180_ca77.0.25.77.30.0.34.0.30_cb0_da2.0.0.100_db_dd0.3.34.50.45_dh2.38.50.50.3_di7_qa_qb_dc0.0.2.2.2_eh4.f39938_ea35.f39938.F39938.56.1.0_ec5.70.f39938.f39938.56.40.64.1_ed32.100.1.0.f39938.56_ef_eg_r0_fa1.50.60.50.26.25.56_fb7_fh_fc0.61.55.0.61.55.18.61.61.50.50.50_fd1.0.19.E75B0C.56_fe50.64_ff0000000000_fg4.55_pa0.0.0.0.40.50.85.85.0.0_t0_pb_pc_pd_pe_ga0_gb1_gc65.0_ge0000000000_gh_gf_gg_gd10000000_ha89.89_hb49.1.44.99_hc0.59.39.0.59.39_hd4.1.49.49_ia_if_ib_id_ic_jc_ie_ja_jb_jd_je_jf_jg_ka_kb10.a593c5.D0C4E2.55_kc_kd_ke_kf_la_lb_oa_os_ob_oc_od_oe_of_lc_m0_n0_s0_og_oh_oo_op_oq_or_om_on_ok_ol_oi_oj_ad0.0.0.0.0.0.0.0.0.0
3-happy=40**aa20.45.1.16.50.20.73.1.16.50_ab_ac_ba50_bb5.1_bc325.500.8.0.1_bd5_be180_ca77.0.25.77.30.0.34.0.30_cb0_da2.0.0.100_db_dd0.3.34.50.45_dh2.38.50.50.3_di7_qa_qb_dc0.0.2.2.2_eh4.f39938_ea35.f39938.F39938.56.1.0_ec5.70.f39938.f39938.56.40.64.1_ed32.100.1.0.f39938.56_ef_eg_r0_fa1.50.60.50.26.25.56_fb7_fh_fc0.61.55.0.61.55.18.61.61.50.50.50_fd1.0.19.E75B0C.56_fe50.64_ff0000000000_fg4.55_pa0.0.0.0.40.50.85.85.0.0_t0_pb_pc_pd_pe_ga0_gb1_gc65.0_ge0000000000_gh_gf_gg_gd10000000_ha89.89_hb49.1.44.99_hc0.59.39.0.59.39_hd25.1.49.50_ia_if_ib_id_ic_jc_ie_ja_jb_jd_je_jf_jg_ka_kb10.a593c5.D0C4E2.55_kc_kd_ke_kf_la_lb_oa_os_ob_oc_od_oe_of_lc_m0_n0_s0_og_oh_oo_op_oq_or_om_on_ok_ol_oi_oj_ad0.0.0.0.0.0.0.0.0.0
3-horny=40**aa12.66.1.16.50.7.91.1.17.50_ab_ac_ba50_bb5.1_bc412.500.8.0.1_bd5_be180_ca77.0.25.77.30.0.34.0.30_cb0_da2.0.0.100_db_dd0.3.34.50.45_dh2.38.50.50.3_di7_qa_qb_dc0.0.2.2.2_eh4.f39938_ea35.f39938.F39938.56.1.0_ec5.70.f39938.f39938.56.40.64.1_ed32.100.1.0.f39938.56_ef_eg_r0_fa1.50.60.50.26.25.56_fb7_fh_fc0.61.55.0.61.55.18.61.61.50.50.50_fd1.0.19.E75B0C.56_fe50.64_ff0000000000_fg4.55_pa0.0.0.0.40.50.85.85.0.0_t0_pb_pc_pd_pe_ga0_gb1_gc65.0_ge0000000000_gh_gf_gg_gd10000000_ha74.74_hb49.1.44.99_hc0.59.39.0.59.39_hd28.1.49.49_ia_if_ib_id_ic_jc_ie_ja_jb_jd_je_jf_jg_ka_kb10.a593c5.D0C4E2.55_kc_kd_ke_kf_la_lb_oa_os_ob_oc_od_oe_of_lc_m0_n0_s0_og_oh_oo_op_oq_or_om_on_ok_ol_oi_oj_ad0.0.0.0.0.0.0.0.0.0
3-interested=40**aa10.58.1.16.50.10.58.1.16.50_ab_ac_ba50_bb5.1_bc500.500.8.0.1_bd5_be180_ca77.0.25.77.30.0.34.0.30_cb0_da2.0.0.100_db_dd0.3.34.50.45_dh2.38.50.50.3_di7_qa_qb_dc0.0.2.2.2_eh4.f39938_ea35.f39938.F39938.56.1.0_ec5.70.f39938.f39938.56.40.64.1_ed32.100.1.0.f39938.56_ef_eg_r0_fa1.50.60.50.26.25.56_fb7_fh_fc0.61.55.0.61.55.18.61.61.50.50.50_fd1.0.19.E75B0C.56_fe50.64_ff0000000000_fg4.55_pa0.0.0.0.40.50.85.85.0.0_t0_pb_pc_pd_pe_ga0_gb1_gc51.0_ge0000000000_gh_gf_gg_gd10000000_ha89.89_hb49.1.44.99_hc0.59.39.0.59.39_hd39.1.49.49_ia_if_ib_id_ic_jc_ie_ja_jb_jd_je_jf_jg_ka_kb10.a593c5.D0C4E2.55_kc_kd_ke_kf_la_lb_oa_os_ob_oc_od_oe_of_lc_m0_n0_s0_og_oh_oo_op_oq_or_om_on_ok_ol_oi_oj_ad0.0.0.0.0.0.0.0.0.0
3-loss=40**aa9.2.1.11.49.9.2.1.11.49_ab_ac_ba50_bb5.1_bc587.500.8.0.1_bd5_be180_ca77.0.25.77.30.0.34.0.30_cb0_da2.0.0.100_db_dd0.3.34.50.45_dh2.38.50.50.3_di7_qa_qb_dc0.0.2.2.2_eh4.f39938_ea35.f39938.F39938.56.1.0_ec5.70.f39938.f39938.56.40.64.1_ed32.100.1.0.f39938.56_ef_eg_r0_fa1.50.60.50.26.25.56_fb7_fh_fc0.61.55.0.61.55.18.61.61.50.50.50_fd1.0.19.E75B0C.56_fe50.64_ff0000000000_fg4.55_pa0.0.0.0.40.50.85.85.0.0_t0_pb_pc_pd_pe_ga0_gb1_gc65.0_ge0000000000_gh_gf_gg_gd10000000_ha79.79_hb49.1.50.99_hc1.69.31.1.69.31_hd31.1.49.49_ia_if_ib_id_ic_jc_ie_ja_jb_jd_je_jf_jg_ka_kb10.a593c5.D0C4E2.55_kc_kd_ke_kf_la_lb_oa_os_ob_oc_od_oe_of_lc_m0_n0_s0_og_oh_oo_op_oq_or_om_on_ok_ol_oi_oj_ad0.0.0.0.0.0.0.0.0.0
3-sad=40**aa3.0.1.0.50.3.0.1.0.50_ab_ac_ba50_bb5.1_bc675.500.8.0.1_bd5_be180_ca77.0.25.77.30.0.34.0.30_cb0_da2.0.0.100_db_dd0.3.34.50.45_dh2.38.50.50.3_di7_qa_qb_dc0.0.2.2.2_eh4.f39938_ea35.f39938.F39938.56.1.0_ec5.70.f39938.f39938.56.40.64.1_ed32.100.1.0.f39938.56_ef_eg_r0_fa1.50.60.50.26.25.56_fb7_fh_fc0.61.55.0.61.55.18.61.61.50.50.50_fd1.0.19.E75B0C.56_fe50.64_ff0000000000_fg4.55_pa0.0.0.0.40.50.85.85.0.0_t0_pb_pc_pd_pe_ga0_gb1_gc65.0_ge0000000000_gh_gf_gg_gd10000000_ha69.69_hb49.1.0.100_hc4.59.39.4.59.39_hd5.1.49.49_ia_if_ib_id_ic_jc_ie_ja_jb_jd_je_jf_jg_ka_kb10.a593c5.D0C4E2.55_kc_kd_ke_kf_la_lb_oa_os_ob_oc_od_oe_of_lc_m0_n0_s0_og_oh_oo_op_oq_or_om_on_ok_ol_oi_oj_ad0.0.0.0.0.0.0.0.0.0
3-shocked=40**aa6.0.0.0.50.7.56.1.28.50_ab_ac_ba50_bb5.1_bc762.500.8.0.1_bd5_be180_ca77.0.25.77.30.0.34.0.30_cb0_da2.0.0.100_db_dd0.3.34.50.45_dh2.38.50.50.3_di7_qa_qb_dc0.0.2.2.2_eh4.f39938_ea35.f39938.F39938.56.1.0_ec5.70.f39938.f39938.56.40.64.1_ed32.100.1.0.f39938.56_ef_eg_r0_fa1.50.60.50.26.25.56_fb7_fh_fc0.61.55.0.61.55.18.61.61.50.50.50_fd1.0.19.E75B0C.56_fe50.64_ff0000000000_fg4.55_pa0.0.0.0.40.50.85.85.0.0_t0_pb_pc_pd_pe_ga0_gb1_gc51.0_ge0000000000_gh_gf_gg_gd10000000_ha100.100_hb49.1.44.99_hc0.59.39.0.59.39_hd22.1.49.49_ia_if_ib_id_ic_jc_ie_ja_jb_jd_je_jf_jg_ka_kb10.a593c5.D0C4E2.55_kc_kd_ke_kf_la_lb_oa_os_ob_oc_od_oe_of_lc_m0_n0_s0_og_oh_oo_op_oq_or_om_on_ok_ol_oi_oj_ad0.0.0.0.0.0.0.0.0.0
3-strip=40**aa28.81.1.4.49.28.80.1.4.49_ab_ac_ba50_bb5.1_bc850.500.8.0.1_bd5_be180_ca77.0.25.77.30.0.34.0.30_cb0_da2.0.0.100_db_dd0.3.34.50.45_dh2.38.50.50.3_di7_qa_qb_dc0.0.2.2.2_eh4.f39938_ea35.f39938.F39938.56.1.0_ec5.70.f39938.f39938.56.40.64.1_ed32.100.1.0.f39938.56_ef_eg_r0_fa1.50.60.50.26.25.56_fb7_fh_fc0.61.55.0.61.55.18.61.61.50.50.50_fd1.0.19.E75B0C.56_fe50.64_ff0000000000_fg4.55_pa0.0.0.0.40.50.85.85.0.0_t0_pb_pc_pd_pe_ga0_gb0_gc65.0_ge0000000000_gh_gf_gg_gd10000000_ha79.79_hb49.1.50.99_hc1.69.31.1.69.31_hd51.1.49.49_ia_if_ib_id_ic_jc_ie_ja_jb_jd_je_jf_jg_ka_kb10.a593c5.D0C4E2.55_kc_kd_ke_kf_la_lb_oa_os_ob_oc_od_oe_of_lc_m0_n0_s0_og_oh_oo_op_oq_or_om_on_ok_ol_oi_oj_ad0.0.0.0.0.0.0.0.0.0

4-awkward=33**aa12.86.1.28.50.12.86.1.28.50_ab_ac_ba50_bb5.1_bc412.500.8.0.1_bd5_be180_ca77.0.25.77.30.0.34.0.30_cb0_da2.0.0.100_db_dd0.3.34.50.45_dh2.38.50.50.3_di7_qa_qb_dc0.0.2.2.2_eh4.f39938_ea35.f39938.F39938.56.1.0_ec5.100.f39938.f39938.56_ed32.100.1.0.f39938.56_ef_eg_r0_fa1.50.60.50.26.25.56_fb10_fc0.61.55.0.61.55.18.61.61_fd1.0.19.E75B0C.56_fe50.64_ff0000000000_fg4.55_t0_pa0.0.0.0.40.50.85.85.0.0_pb_pc_pd_pe_ga0_gb1_gc70.0_ge0000000000_gh_gf_gg_gd10000000_ha89.89_hb49.1.44.99_hc0.59.39.0.59.39_hd6.1.49.49_ia_ib_id_if_ic_jc_ie_ja_jb_jd_je_jf_jg_ka_kb_kc_kd_ke_kf_la_lb_oa_os_ob_oc_od_oe_of_lc_m0_n0_s0_og_oh_oo_op_oq_or_om_on_ok_ol_oi_oj_ad0.0.0.0.0.0.0.0.0.0
4-calm=33**aa12.85.1.26.50.12.85.1.26.50_ab_ac_ba50_bb5.1_bc412.500.8.0.1_bd5_be180_ca77.0.25.77.30.0.34.0.30_cb0_da2.0.0.100_db_dd0.3.34.50.45_dh2.38.50.50.3_di7_qa_qb_dc0.0.2.2.2_eh4.f39938_ea35.f39938.F39938.56.1.0_ec5.100.f39938.f39938.56_ed32.100.1.0.f39938.56_ef_eg_r0_fa1.50.60.50.26.25.56_fb10_fc0.61.55.0.61.55.18.61.61_fd1.0.19.E75B0C.56_fe50.64_ff0000000000_fg4.55_t0_pa0.0.0.0.40.50.85.85.0.0_pb_pc_pd_pe_ga0_gb1_gc65.0_ge0000000000_gh_gf_gg_gd10000000_ha89.89_hb49.1.44.99_hc0.59.39.0.59.39_hd4.1.49.49_ia_ib_id_if_ic_jc_ie_ja_jb_jd_je_jf_jg_ka_kb_kc_kd_ke_kf_la_lb_oa_os_ob_oc_od_oe_of_lc_m0_n0_s0_og_oh_oo_op_oq_or_om_on_ok_ol_oi_oj_ad0.0.0.0.0.0.0.0.0.0
4-happy=33**aa20.45.1.16.50.11.94.1.0.50_ab_ac_ba50_bb5.1_bc412.500.8.0.1_bd5_be180_ca77.0.25.77.30.0.34.0.30_cb0_da2.0.0.100_db_dd0.3.34.50.45_dh2.38.50.50.3_di7_qa_qb_dc0.0.2.2.2_eh4.f39938_ea35.f39938.F39938.56.1.0_ec5.100.f39938.f39938.56_ed32.100.1.0.f39938.56_ef_eg_r0_fa1.50.60.50.26.25.56_fb10_fc0.61.55.0.61.55.18.61.61_fd1.0.19.E75B0C.56_fe50.64_ff0000000000_fg4.55_t0_pa0.0.0.0.40.50.85.85.0.0_pb_pc_pd_pe_ga0_gb1_gc75.0_ge0000000000_gh_gf_gg_gd10000000_ha89.89_hb49.1.44.99_hc0.59.39.0.59.39_hd25.1.49.50_ia_ib_id_if_ic_jc_ie_ja_jb_jd_je_jf_jg_ka_kb_kc_kd_ke_kf_la_lb_oa_os_ob_oc_od_oe_of_lc_m0_n0_s0_og_oh_oo_op_oq_or_om_on_ok_ol_oi_oj_ad0.0.0.0.0.0.0.0.0.0
4-horny=33**aa12.66.1.16.50.7.91.1.17.50_ab_ac_ba50_bb5.1_bc412.500.8.0.1_bd5_be180_ca77.0.25.77.30.0.34.0.30_cb0_da2.0.0.100_db_dd0.3.34.50.45_dh2.38.50.50.3_di7_qa_qb_dc0.0.2.2.2_eh4.f39938_ea35.f39938.F39938.56.1.0_ec5.100.f39938.f39938.56_ed32.100.1.0.f39938.56_ef_eg_r0_fa1.50.60.50.26.25.56_fb10_fc0.61.55.0.61.55.18.61.61_fd1.0.19.E75B0C.56_fe50.64_ff0000000000_fg4.55_t0_pa0.0.0.0.40.50.85.85.0.0_pb_pc_pd_pe_ga0_gb1_gc75.0_ge0000000000_gh_gf_gg_gd10000000_ha69.69_hb49.1.44.99_hc0.60.39.0.60.39_hd28.1.49.49_ia_ib_id_if_ic_jc_ie_ja_jb_jd_je_jf_jg_ka_kb_kc_kd_ke_kf_la_lb_oa_os_ob_oc_od_oe_of_lc_m0_n0_s0_og_oh_oo_op_oq_or_om_on_ok_ol_oi_oj_ad0.0.0.0.0.0.0.0.0.0
4-interested=33**aa10.58.1.16.50.10.58.1.16.50_ab_ac_ba50_bb5.1_bc412.500.8.0.1_bd5_be180_ca77.0.25.77.30.0.34.0.30_cb0_da2.0.0.100_db_dd0.3.34.50.45_dh2.38.50.50.3_di7_qa_qb_dc0.0.2.2.2_eh4.f39938_ea35.f39938.F39938.56.1.0_ec5.100.f39938.f39938.56_ed32.100.1.0.f39938.56_ef_eg_r0_fa1.50.60.50.26.25.56_fb10_fc0.61.55.0.61.55.18.61.61_fd1.0.19.E75B0C.56_fe50.64_ff0000000000_fg4.55_t0_pa0.0.0.0.40.50.85.85.0.0_pb_pc_pd_pe_ga0_gb1_gc74.0_ge0000000000_gh_gf_gg_gd10000000_ha89.89_hb49.1.44.99_hc0.59.39.0.59.39_hd39.1.49.49_ia_ib_id_if_ic_jc_ie_ja_jb_jd_je_jf_jg_ka_kb_kc_kd_ke_kf_la_lb_oa_os_ob_oc_od_oe_of_lc_m0_n0_s0_og_oh_oo_op_oq_or_om_on_ok_ol_oi_oj_ad0.0.0.0.0.0.0.0.0.0
4-loss=33**aa9.2.1.3.49.9.2.1.3.49_ab_ac_ba50_bb5.1_bc412.500.8.0.1_bd5_be180_ca77.0.25.77.30.0.34.0.30_cb0_da2.0.0.100_db_dd0.3.34.50.45_dh2.38.50.50.3_di7_qa_qb_dc0.0.2.2.2_eh4.f39938_ea35.f39938.F39938.56.1.0_ec5.100.f39938.f39938.56_ed32.100.1.0.f39938.56_ef_eg_r0_fa1.50.60.50.26.25.56_fb10_fc0.61.55.0.61.55.18.61.61_fd1.0.19.E75B0C.56_fe50.64_ff0000000000_fg4.55_t0_pa0.0.0.0.40.50.85.85.0.0_pb_pc_pd_pe_ga0_gb1_gc75.0_ge0000000000_gh_gf_gg_gd10000000_ha79.79_hb49.1.50.99_hc0.69.31.0.69.31_hd10.1.49.49_ia_ib_id_if_ic_jc_ie_ja_jb_jd_je_jf_jg_ka_kb_kc_kd_ke_kf_la_lb_oa_os_ob_oc_od_oe_of_lc_m0_n0_s0_og_oh_oo_op_oq_or_om_on_ok_ol_oi_oj_ad0.0.0.0.0.0.0.0.0.0
4-sad=33**aa12.83.1.16.50.12.83.1.16.50_ab_ac_ba50_bb5.1_bc412.500.8.0.1_bd5_be180_ca77.0.25.77.30.0.34.0.30_cb0_da2.0.0.100_db_dd0.3.34.50.45_dh2.38.50.50.3_di7_qa_qb_dc0.0.2.2.2_eh4.f39938_ea35.f39938.F39938.56.1.0_ec5.100.f39938.f39938.56_ed32.100.1.0.f39938.56_ef_eg_r0_fa1.50.60.50.26.25.56_fb10_fc0.61.55.0.61.55.18.61.61_fd1.0.19.E75B0C.56_fe50.64_ff0000000000_fg4.55_t0_pa0.0.0.0.40.50.85.85.0.0_pb_pc_pd_pe_ga0_gb1_gc65.0_ge0000000000_gh_gf_gg_gd10000000_ha69.69_hb49.1.0.100_hc4.59.39.4.59.39_hd5.1.49.49_ia_ib_id_if_ic_jc_ie_ja_jb_jd_je_jf_jg_ka_kb_kc_kd_ke_kf_la_lb_oa_os_ob_oc_od_oe_of_lc_m0_n0_s0_og_oh_oo_op_oq_or_om_on_ok_ol_oi_oj_ad0.0.0.0.0.0.0.0.0.0
4-shocked=33**aa6.0.0.0.50.7.56.1.28.50_ab_ac_ba50_bb5.1_bc412.500.8.0.1_bd5_be180_ca77.0.25.77.30.0.34.0.30_cb0_da2.0.0.100_db_dd0.3.34.50.45_dh2.38.50.50.3_di7_qa_qb_dc0.0.2.2.2_eh4.f39938_ea35.f39938.F39938.56.1.0_ec5.100.f39938.f39938.56_ed32.100.1.0.f39938.56_ef_eg_r0_fa1.50.60.50.26.25.56_fb10_fc0.61.55.0.61.55.18.61.61_fd1.0.19.E75B0C.56_fe50.64_ff0000000000_fg4.55_t0_pa0.0.0.0.40.50.85.85.0.0_pb_pc_pd_pe_ga0_gb1_gc51.0_ge0000000000_gh_gf_gg_gd10000000_ha100.100_hb49.1.44.99_hc0.59.39.0.59.39_hd22.1.49.49_ia_ib_id_if_ic_jc_ie_ja_jb_jd_je_jf_jg_ka_kb_kc_kd_ke_kf_la_lb_oa_os_ob_oc_od_oe_of_lc_m0_n0_s0_og_oh_oo_op_oq_or_om_on_ok_ol_oi_oj_ad0.0.0.0.0.0.0.0.0.0
4-starting=47**aa7.91.1.17.49.12.67.1.49.49_ab_ac_ba50_bb5.1_bc185.0.0.0.1_bd5_be180_ca77.0.25.77.30.0.34.0.30_cb0_da2.0.0.100_db_dd8.3.34.50.45.50_dh2.38.50.50.3_di7_qa_qb_dc0.0.2.2.2_eh4.f39938_ea35.f39938.F39938.56.1.0_ec5.70.f39938.f39938.56.40.64.1_ed32.100.1.0.f39938.56_ef_eg_r00_fa1.50.60.50.26.25.56_fb7_fh_fc0.61.55.0.61.55.18.61.61.50.50.50_fd1.0.19.E75B0C.56_fe50.64_ff0000000000_fg4.55_pa0.0.0.0.40.50.85.85.0.0_t00_pb_pc_pd_pe_ga0_gb1_gc90.0_ge0000000000_gh_gf_gg_gd10000000_ha79.79_hb49.1.50.99_hc0.69.31.0.69.31_hd8.1.49.49_ia_if_ib_id_ic_jc_ie_ja_jb_jd_je_jf_jg_ka_kb_kc_kd_ke_kf_la_lb_oa_os_ob_oc_od_oe_of_lc_m00_n00_s00_og_oh_oo_op_oq_or_om_on_ok_ol_oi_oj_ad0.0.0.0.0.0.0.0.0.0

5-awkward=33**aa7.91.1.17.49.7.91.1.49.49_ab_ac_ba50_bb5.1_bc412.500.8.0.1_bd5_be180_ca77.0.25.77.30.0.34.0.30_cb0_da2.0.0.100_db_dd8.3.34.50.45_dh2.38.50.50.3_di7_qa_qb_dc0.0.2.2.2_eh4.f39938_ea35.f39938.F39938.56.1.0_ec5.100.f39938.f39938.56_ed32.100.1.0.f39938.56_ef_eg_r0_fa1.50.60.50.26.25.56_fb10_fc0.61.55.0.61.55.18.61.61_fd1.0.19.E75B0C.56_fe50.64_ff0000000000_fg4.55_t0_pa0.0.0.0.40.50.85.85.0.0_pb_pc_pd_pe_ga0_gb1_gc90.0_ge0000000000_gh_gf_gg_gd10000000_ha79.79_hb95.1.86.99_hc0.69.31.0.69.31_hd20.1.49.49_ia_ib_id_if_ic_jc_ie_ja_jb_jd_je_jf_jg_ka_kb_kc_kd_ke_kf_la_lb_oa_os_ob_oc_od_oe_of_lc_m0_n0_s0_og_oh_oo_op_oq_or_om_on_ok_ol_oi_oj_ad0.0.0.0.0.0.0.0.0.0
5-calm=33**aa7.91.1.17.49.12.67.1.49.49_ab_ac_ba50_bb5.1_bc412.500.8.0.1_bd5_be180_ca77.0.25.77.30.0.34.0.30_cb0_da2.0.0.100_db_dd8.3.34.50.45_dh2.38.50.50.3_di7_qa_qb_dc25.0.2.2.2_eh4.f39938_ea35.f39938.F39938.56.1.0_ec5.100.f39938.f39938.56_ed32.100.1.0.f39938.56_ef_eg_r0_fa1.50.60.50.26.25.56_fb10_fc0.61.55.0.61.55.18.61.61_fd1.0.19.E75B0C.56_fe50.64_ff0000000000_fg4.55_t0_pa0.0.0.0.40.50.85.85.0.0_pb_pc_pd_pe_ga0_gb1_gc90.0_ge0000000000_gh_gf_gg_gd10000000_ha70.70_hb49.1.50.99_hc0.69.31.0.69.31_hd37.1.49.49_ia_ib_id_if_ic_jc_ie_ja_jb_jd_je_jf_jg_ka_kb_kc_kd_ke_kf_la_lb_oa_os_ob_oc_od_oe_of_lc_m0_n0_s0_og_oh_oo_op_oq_or_om_on_ok_ol_oi_oj_ad0.0.0.0.0.0.0.0.0.0
5-finishing=33**aa7.91.1.49.49.7.92.1.49.49_ab_ac_ba50_bb6.1_bc412.500.8.0.1_bd6_be180_ca77.0.25.77.30.0.34.0.30_cb0_da2.0.0.100_db_dd14.3.34.50.45_dh2.38.50.50.3_di7_qa_qb_dc100.0.2.2.2_eh4.f39938_ea35.f39938.F39938.56.1.0_ec5.100.f39938.f39938.56_ed32.100.1.0.f39938.56_ef_eg_r0_fa1.50.60.50.26.25.56_fb10_fc0.61.55.0.61.55.18.61.61_fd1.0.19.E75B0C.56_fe50.64_ff0000000000_fg4.55_t0_pa0.0.0.0.40.50.85.85.0.0_pb_pc_pd_pe_ga0_gb1_gc100.0_ge0000000000_gh_gf_gg_gd10000000_ha60.60_hb49.1.84.79_hc4.62.44.4.62.44_hd24.1.94.82_ia_ib_id_if_ic_jc_ie_ja_jb_jd_je_jf_jg_ka_kb_kc_kd_ke_kf_la_lb_oa_os_ob_oc_od_oe_of_lc_m0_n0_s0_og_oh_oo_op_oq_or_om_on_ok_ol_oi_oj_ad0.0.0.0.0.0.0.0.0.0
5-happy=33**aa7.91.1.49.49.7.92.1.49.49_ab_ac_ba50_bb6.1_bc412.500.8.0.1_bd6_be180_ca77.0.25.77.30.0.34.0.30_cb0_da2.0.0.100_db_dd13.3.34.50.45_dh2.38.50.50.3_di7_qa_qb_dc50.0.2.2.2_eh4.f39938_ea35.f39938.F39938.56.1.0_ec5.100.f39938.f39938.56_ed32.100.1.0.f39938.56_ef_eg_r0_fa1.50.60.50.26.25.56_fb10_fc0.61.55.0.61.55.18.61.61_fd1.0.19.E75B0C.56_fe50.64_ff0000000000_fg4.55_t0_pa0.0.0.0.40.50.85.85.0.0_pb_pc_pd_pe_ga0_gb1_gc100.0_ge0000000000_gh_gf_gg_gd10000000_ha62.62_hb49.1.90.100_hc0.62.44.0.62.44_hd25.1.50.50_ia_ib_id_if_ic_jc_ie_ja_jb_jd_je_jf_jg_ka_kb_kc_kd_ke_kf_la_lb_oa_os_ob_oc_od_oe_of_lc_m0_n0_s0_og_oh_oo_op_oq_or_om_on_ok_ol_oi_oj_ad0.0.0.0.0.0.0.0.0.0
5-heavy=33**aa7.91.1.49.49.12.67.1.49.49_ab_ac_ba50_bb6.1_bc412.500.8.0.1_bd6_be180_ca77.0.25.77.30.0.34.0.30_cb0_da2.0.0.100_db_dd8.3.34.50.45_dh2.38.50.50.3_di7_qa_qb_dc75.0.2.2.2_eh4.f39938_ea35.f39938.F39938.56.1.0_ec5.100.f39938.f39938.56_ed32.100.1.0.f39938.56_ef_eg_r0_fa1.50.60.50.26.25.56_fb10_fc0.61.55.0.61.55.18.61.61_fd1.0.19.E75B0C.56_fe50.64_ff0000000000_fg4.55_t0_pa0.0.0.0.40.50.85.85.0.0_pb_pc_pd_pe_ga0_gb1_gc93.0_ge0000000000_gh_gf_gg_gd10000000_ha73.73_hb49.1.94.79_hc3.62.44.3.62.44_hd42.1.49.49_ia_ib_id_if_ic_jc_ie_ja_jb_jd_je_jf_jg_ka_kb_kc_kd_ke_kf_la_lb_oa_os_ob_oc_od_oe_of_lc_m0_n0_s0_og_oh_oo_op_oq_or_om_on_ok_ol_oi_oj_ad0.0.0.0.0.0.0.0.0.0
5-horny=33**aa7.91.1.49.49.7.92.1.49.49_ab_ac_ba50_bb6.1_bc412.500.8.0.1_bd6_be180_ca77.0.25.77.30.0.34.0.30_cb0_da2.0.0.100_db_dd13.3.34.50.45_dh2.38.50.50.3_di7_qa_qb_dc50.0.2.2.2_eh4.f39938_ea35.f39938.F39938.56.1.0_ec5.100.f39938.f39938.56_ed32.100.1.0.f39938.56_ef_eg_r0_fa1.50.60.50.26.25.56_fb10_fc0.61.55.0.61.55.18.61.61_fd1.0.19.E75B0C.56_fe50.64_ff0000000000_fg4.55_t0_pa0.0.0.0.40.50.85.85.0.0_pb_pc_pd_pe_ga0_gb1_gc100.0_ge0000000000_gh_gf_gg_gd10000000_ha63.63_hb49.1.50.100_hc3.50.44.3.50.44_hd83.1.50.50_ia_ib_id_if_ic_jc_ie_ja_jb_jd_je_jf_jg_ka_kb_kc_kd_ke_kf_la_lb_oa_os_ob_oc_od_oe_of_lc_m0_n0_s0_og_oh_oo_op_oq_or_om_on_ok_ol_oi_oj_ad0.0.0.0.0.0.0.0.0.0
5-interested=33**aa7.91.1.49.49.7.92.1.49.49_ab_ac_ba50_bb6.1_bc412.500.8.0.1_bd6_be180_ca77.0.25.77.30.0.34.0.30_cb0_da2.0.0.100_db_dd14.3.34.50.45_dh2.38.50.50.3_di7_qa_qb_dc50.0.2.2.2_eh4.f39938_ea35.f39938.F39938.56.1.0_ec5.100.f39938.f39938.56_ed32.100.1.0.f39938.56_ef_eg_r0_fa1.50.60.50.26.25.56_fb10_fc0.61.55.0.61.55.18.61.61_fd1.0.19.E75B0C.56_fe50.64_ff0000000000_fg4.55_t0_pa0.0.0.0.40.50.85.85.0.0_pb_pc_pd_pe_ga0_gb1_gc100.0_ge0000000000_gh_gf_gg_gd10000000_ha80.80_hb49.1.50.100_hc1.50.44.1.50.44_hd37.1.50.50_ia_ib_id_if_ic_jc_ie_ja_jb_jd_je_jf_jg_ka_kb_kc_kd_ke_kf_la_lb_oa_os_ob_oc_od_oe_of_lc_m0_n0_s0_og_oh_oo_op_oq_or_om_on_ok_ol_oi_oj_ad0.0.0.0.0.0.0.0.0.0
5-sad=33**aa7.91.1.49.49.7.92.1.49.49_ab_ac_ba50_bb6.1_bc412.500.8.0.1_bd6_be180_ca77.0.25.77.30.0.34.0.30_cb0_da2.0.0.100_db_dd14.3.34.50.45_dh2.38.50.50.3_di7_qa_qb_dc50.0.2.2.2_eh4.f39938_ea35.f39938.F39938.56.1.0_ec5.100.f39938.f39938.56_ed32.100.1.0.f39938.56_ef_eg_r0_fa1.50.60.50.26.25.56_fb10_fc0.61.55.0.61.55.18.61.61_fd1.0.19.E75B0C.56_fe50.64_ff0000000000_fg4.55_t0_pa0.0.0.0.40.50.85.85.0.0_pb_pc_pd_pe_ga0_gb1_gc100.0_ge0000000000_gh_gf_gg_gd10000000_ha80.80_hb49.1.50.100_hc3.50.44.3.50.44_hd10.1.50.50_ia_ib_id_if_ic_jc_ie_ja_jb_jd_je_jf_jg_ka_kb_kc_kd_ke_kf_la_lb_oa_os_ob_oc_od_oe_of_lc_m0_n0_s0_og_oh_oo_op_oq_or_om_on_ok_ol_oi_oj_ad0.0.0.0.0.0.0.0.0.0
5-shocked=33**aa7.91.1.49.49.7.92.1.49.49_ab_ac_ba50_bb6.1_bc412.500.8.0.1_bd6_be180_ca77.0.25.77.30.0.34.0.30_cb0_da2.0.0.100_db_dd14.3.34.50.45_dh2.38.50.50.3_di7_qa_qb_dc50.0.2.2.2_eh4.f39938_ea35.f39938.F39938.56.1.0_ec5.100.f39938.f39938.56_ed32.100.1.0.f39938.56_ef_eg_r0_fa1.50.60.50.26.25.56_fb10_fc0.61.55.0.61.55.18.61.61_fd1.0.19.E75B0C.56_fe50.64_ff0000000000_fg4.55_t0_pa0.0.0.0.40.50.85.85.0.0_pb_pc_pd_pe_ga0_gb1_gc100.0_ge0000000000_gh_gf_gg_gd10000000_ha100.100_hb49.1.50.100_hc0.50.44.0.50.44_hd36.1.50.50_ia_ib_id_if_ic_jc_ie_ja_jb_jd_je_jf_jg_ka_kb_kc_kd_ke_kf_la_lb_oa_os_ob_oc_od_oe_of_lc_m0_n0_s0_og_oh_oo_op_oq_or_om_on_ok_ol_oi_oj_ad0.0.0.0.0.0.0.0.0.0

6-awkward=33**aa7.91.1.16.49.7.91.1.16.49_ab_ac_ba50_bb5.1_bc412.500.8.0.1_bd5_be180_ca77.0.25.77.30.0.34.0.30_cb0_da2.0.0.100_db_dd12.3.34.50.45_dh2.38.50.50.3_di7_qa_qb_dc100.0.2.2.2_eh4.f39938_ea35.f39938.F39938.56.1.0_ec5.100.f39938.f39938.56_ed32.100.1.0.f39938.56_ef_eg_r0_fa1.50.60.50.26.25.56_fb10_fc0.61.55.0.61.55.18.61.61_fd1.0.19.E75B0C.56_fe50.64_ff0000000000_fg4.55_t0_pa0.0.0.0.40.50.85.85.0.0_pb_pc_pd_pe_ga0_gb1_gc80.0_ge0000000000_gh_gf_gg_gd10000000_ha75.75_hb100.1.0.100_hc0.50.44.0.50.44_hd76.1.50.50_ia_ib_id_if_ic_jc_ie_ja_jb_jd_je_jf_jg_ka_kb_kc_kd_ke_kf_la_lb_oa_os_ob_oc_od_oe_of_lc_m0_n0_s0_og_oh_oo_op_oq_or_om_on_ok_ol_oi_oj_ad0.0.0.0.0.0.0.0.0.0
6-calm=33**aa8.95.0.16.49.8.95.0.16.49_ab_ac_ba50_bb5.1_bc412.500.8.0.1_bd5_be180_ca77.0.25.77.30.0.34.0.30_cb0_da2.0.0.100_db_dd12.3.34.50.45_dh2.38.50.50.3_di7_qa_qb_dc100.0.2.2.2_eh4.f39938_ea35.f39938.F39938.56.1.0_ec5.100.f39938.f39938.56_ed32.100.1.0.f39938.56_ef_eg_r0_fa1.50.60.50.26.25.56_fb10_fc0.61.55.0.61.55.18.61.61_fd1.0.19.E75B0C.56_fe50.64_ff0000000000_fg4.55_t0_pa0.0.0.0.40.50.85.85.0.0_pb_pc_pd_pe_ga0_gb1_gc80.0_ge0000000000_gh_gf_gg_gd10000000_ha82.82_hb50.1.50.100_hc0.50.44.0.50.44_hd1.1.50.50_ia_ib_id_if_ic_jc_ie_ja_jb_jd_je_jf_jg_ka_kb_kc_kd_ke_kf_la_lb_oa_os_ob_oc_od_oe_of_lc_m0_n0_s0_og_oh_oo_op_oq_or_om_on_ok_ol_oi_oj_ad0.0.0.0.0.0.0.0.0.0
6-finished=33**aa5.100.1.0.49.5.100.1.0.49_ab_ac_ba50_bb5.1_bc412.500.8.0.1_bd5_be180_ca77.0.25.77.30.0.34.0.30_cb0_da2.0.0.100_db_dd13.3.34.50.45_dh2.38.50.50.3_di7_qa_qb_dc100.0.2.2.2_eh4.f39938_ea35.f39938.F39938.56.1.0_ec5.100.f39938.f39938.56_ed32.100.1.0.f39938.56_ef_eg_r0_fa1.50.60.50.26.25.56_fb10_fc0.61.55.0.61.55.18.61.61_fd1.0.19.E75B0C.56_fe50.64_ff0000000000_fg4.55_t0_pa0.0.0.0.40.50.85.85.0.0_pb_pc_pd_pe_ga0_gb1_gc89.0_ge0000000000_gh_gf_gg_gd10000000_ha75.75_hb50.1.50.100_hc0.72.37.0.72.37_hd27.1.50.50_ia_ib_id_if_ic_jc_ie_ja_jb_jd_je_jf_jg_ka_kb_kc_kd_ke_kf_la_lb_oa_os_ob_oc_od_oe_of_lc_m0_n0_s0_og_oh_oo_op_oq_or_om_on_ok_ol_oi_oj_ad0.0.0.0.0.0.0.0.0.0
6-happy=33**aa8.95.1.16.49.8.95.1.16.49_ab_ac_ba50_bb5.1_bc412.500.8.0.1_bd5_be180_ca77.0.25.77.30.0.34.0.30_cb0_da2.0.0.100_db_dd12.3.34.50.45_dh2.38.50.50.3_di7_qa_qb_dc100.0.2.2.2_eh4.f39938_ea35.f39938.F39938.56.1.0_ec5.100.f39938.f39938.56_ed32.100.1.0.f39938.56_ef_eg_r0_fa1.50.60.50.26.25.56_fb10_fc0.61.55.0.61.55.18.61.61_fd1.0.19.E75B0C.56_fe50.64_ff0000000000_fg4.55_t0_pa0.0.0.0.40.50.85.85.0.0_pb_pc_pd_pe_ga0_gb1_gc80.0_ge0000000000_gh_gf_gg_gd10000000_ha82.82_hb50.1.50.100_hc0.50.44.0.50.44_hd25.1.50.50_ia_ib_id_if_ic_jc_ie_ja_jb_jd_je_jf_jg_ka_kb_kc_kd_ke_kf_la_lb_oa_os_ob_oc_od_oe_of_lc_m0_n0_s0_og_oh_oo_op_oq_or_om_on_ok_ol_oi_oj_ad0.0.0.0.0.0.0.0.0.0
6-horny=47**aa6.91.1.16.49.5.100.0.0.49_ab_ac_ba50_bb5.1_bc185.0.0.0.1_bd5_be180_ca77.0.25.77.30.0.34.0.30_cb0_da2.0.0.100_db_dd13.3.34.50.45.50_dh2.38.50.50.3_di7_qa_qb_dc100.0.2.2.2_eh4.f39938_ea35.f39938.F39938.56.1.0_ec5.70.f39938.f39938.56.40.64.1_ed32.100.1.0.f39938.56_ef_eg_r00_fa1.50.60.50.26.25.56_fb7_fh_fc0.61.55.0.61.55.18.61.61.50.50.50_fd1.0.19.E75B0C.56_fe50.64_ff0000000000_fg4.55_pa0.0.0.0.40.50.85.85.0.0_t00_pb_pc_pd_pe_ga0_gb1_gc89.0_ge0000000000_gh_gf_gg_gd10000000_ha62.62_hb50.1.50.100_hc3.72.37.3.72.37_hd38.1.50.50_ia_if_ib_id_ic_jc_ie_ja_jb_jd_je_jf_jg_ka_kb_kc_kd_ke_kf_la_lb_oa_os_ob_oc_od_oe_of_lc_m00_n00_s00_og_oh_oo_op_oq_or_om_on_ok_ol_oi_oj_ad0.0.0.0.0.0.0.0.0.0
6-interested=33**aa11.84.0.0.49.11.84.0.0.49_ab_ac_ba50_bb5.1_bc412.500.8.0.1_bd5_be180_ca77.0.25.77.30.0.34.0.30_cb0_da2.0.0.100_db_dd12.3.34.50.45_dh2.38.50.50.3_di7_qa_qb_dc100.0.2.2.2_eh4.f39938_ea35.f39938.F39938.56.1.0_ec5.100.f39938.f39938.56_ed32.100.1.0.f39938.56_ef_eg_r0_fa1.50.60.50.26.25.56_fb10_fc0.61.55.0.61.55.18.61.61_fd1.0.19.E75B0C.56_fe50.64_ff0000000000_fg4.55_t0_pa0.0.0.0.40.50.85.85.0.0_pb_pc_pd_pe_ga0_gb1_gc80.0_ge0000000000_gh_gf_gg_gd10000000_ha82.82_hb50.1.50.100_hc0.50.44.0.50.44_hd21.1.50.50_ia_ib_id_if_ic_jc_ie_ja_jb_jd_je_jf_jg_ka_kb_kc_kd_ke_kf_la_lb_oa_os_ob_oc_od_oe_of_lc_m0_n0_s0_og_oh_oo_op_oq_or_om_on_ok_ol_oi_oj_ad0.0.0.0.0.0.0.0.0.0
6-sad=33**aa11.95.1.28.49.11.95.1.28.49_ab_ac_ba50_bb5.1_bc412.500.8.0.1_bd5_be180_ca77.0.25.77.30.0.34.0.30_cb0_da2.0.0.100_db_dd12.3.34.50.45_dh2.38.50.50.3_di7_qa_qb_dc100.0.2.2.2_eh4.f39938_ea35.f39938.F39938.56.1.0_ec5.100.f39938.f39938.56_ed32.100.1.0.f39938.56_ef_eg_r0_fa1.50.60.50.26.25.56_fb10_fc0.61.55.0.61.55.18.61.61_fd1.0.19.E75B0C.56_fe50.64_ff0000000000_fg4.55_t0_pa0.0.0.0.40.50.85.85.0.0_pb_pc_pd_pe_ga0_gb1_gc80.0_ge0000000000_gh_gf_gg_gd10000000_ha82.82_hb50.1.50.100_hc0.50.44.0.50.44_hd4.1.50.50_ia_ib_id_if_ic_jc_ie_ja_jb_jd_je_jf_jg_ka_kb_kc_kd_ke_kf_la_lb_oa_os_ob_oc_od_oe_of_lc_m0_n0_s0_og_oh_oo_op_oq_or_om_on_ok_ol_oi_oj_ad0.0.0.0.0.0.0.0.0.0
6-shocked=33**aa10.98.1.3.49.29.51.1.28.49_ab_ac_ba50_bb5.1_bc412.500.8.0.1_bd5_be180_ca77.0.25.77.30.0.34.0.30_cb0_da2.0.0.100_db_dd12.3.34.50.45_dh2.38.50.50.3_di7_qa_qb_dc100.0.2.2.2_eh4.f39938_ea35.f39938.F39938.56.1.0_ec5.100.f39938.f39938.56_ed32.100.1.0.f39938.56_ef_eg_r0_fa1.50.60.50.26.25.56_fb10_fc0.61.55.0.61.55.18.61.61_fd1.0.19.E75B0C.56_fe50.64_ff0000000000_fg4.55_t0_pa0.0.0.0.40.50.85.85.0.0_pb_pc_pd_pe_ga0_gb1_gc80.0_ge0000000000_gh_gf_gg_gd10000000_ha90.90_hb50.1.50.100_hc0.50.77.0.50.77_hd22.1.50.50_ia_ib_id_if_ic_jc_ie_ja_jb_jd_je_jf_jg_ka_kb_kc_kd_ke_kf_la_lb_oa_os_ob_oc_od_oe_of_lc_m0_n0_s0_og_oh_oo_op_oq_or_om_on_ok_ol_oi_oj_ad0.0.0.0.0.0.0.0.0.0
6-showing=47***aa11.61.1.47.34.11.61.1.47.35_ab_ac_ba50_bb62.1_bc185.200.8.0.1_bd62_be180_ca56.0.36.75.15.34.34.0.10_cb0_da1.0.0.100_db_dd0.3.0.9.17.50_dh1.30.50.50.0_di7_qa_qb_dc2726.3.1.1.1_eh_ea27.55.55.55.1.0_ec7.11.55.55.55.47.64.0_ed0.37.1.1.55.56_ef_eg_r00_fa4.76.87.73.32.65.56_fb7_fh1_fc0.FFDA00.55.0.FFDA00.55.37.61.61.37.48.50_fd1.0.36.55.56_fe50.73_ff0000000000_fg0.52_pa0.F63BC5.24.0.40.50.85.85.0.0_t00_pb0.54.54.0_pc_pd_pe_ga0_gb1_gc68.0_ge0000000000_gh_gf_gg_gd11000000_ha72.72_hb50.1.50.99_hc1.43.3.1.43.3_hd38.1.60.38_ia_if_ib_id_ic_jc_ie_ja_jb_jd_je_jf_jg_ka_kb_kc_kd_ke_kf_la_lb_oa_os_ob_oc_od_oe_of_lc_m00_n00_s00_og_oh_oo_op_oq_or_om_on_ok_ol_oi_oj_ad1.1.1.1.1.1.1.1.1.1*0*0*0*0*0*0*0*0#/]a00_b00_c00_d00_w00_x00_e00_y00_z00_ua1.0.0.0.100_uf0.3.0.0_ue_ub_u0_v0_uc7.0.30_ud7.8
6-showing=33**aa16.0.0.0.100.18.74.1.22.100_ab_ac_ba50_bb65.1_bc412.500.8.0.1_bd65_be180_ca77.0.25.77.30.0.34.0.30_cb0_da2.0.0.100_db_dd13.3.34.50.45_dh2.38.50.50.3_di7_qa_qb_dc218.0.2.2.2_eh4.f39938_ea35.f39938.F39938.56.1.0_ec5.100.f39938.f39938.56_ed32.100.1.0.f39938.56_ef_eg_r0_fa1.50.60.50.26.25.56_fb10_fc0.61.55.0.61.55.18.61.61_fd1.0.19.E75B0C.56_fe50.64_ff0000000000_fg4.55_t0_pa0.0.0.0.40.50.85.85.0.0_pb_pc_pd_pe_ga0_gb1_gc100.0_ge0000000000_gh_gf_gg_gd10000000_ha65.65_hb100.1.0.100_hc3.75.29.3.75.29_hd31.1.42.34_ia_ib_id_if_ic_jc_ie_ja_jb_jd_je_jf_jg_ka_kb_kc_kd_ke_kf_la_lb_oa_os_ob_oc_od_oe_of_lc_m0_n0_s0_og_oh_oo_op_oq_or_om_on_ok_ol_oi_oj_ad0.0.0.0.0.0.0.0.0.0

