0-calm=47**aa9.91.0.29.32.9.91.0.16.32_ab_ac_ba50_bb6.1_bc237.500.8.0.1_bd6_be180_ca62.0.40.62.30.34.34.0.15_cb0_da1.0.0.100_db_dd9.3.41.50.45.50_dh1.35.50.50.2_di5_qa_qb_dc9.1.1.1.1_eh4.df6f1d_ea2.df6f1d.DF6F1D.ffac4f.1.0_ec6.43.df6f1d.df6f1d.ffac4f.40.64.1_ed28.100.1.1.df6f1d.ffac4f_ef_eg_r00_fa12.55.58.70.50.65.56_fb_fh_fc2.1d7b2d.55.2.1d7b2d.55.50.61.61.50.50.50_fd1.0.50.df6f1d.56_fe80.64_ff0000000000_fg1.50_pa0.0.0.0.40.50.85.85.0.0_t00_pb_pc_pd_pe_ga0_gb1_gc0.0_ge0000000000_gh_gf_gg_gd10100000_ha90.90_hb49.1.44.99_hc0.51.25.0.51.25_hd0.1.49.49_ia_if_ib_id_ic_jc_ie_ja_jb_jd3.60.60.50_je3.60.60.50_jf_jg_ka32.CE57A8.CE57A8.18.0_kb22.CE57A8.CE57A8.18_kc_kd_ke_kf_la_lb_oa_os_ob_oc_od_oe_of_lc_m00_n00_s00_og7.1.56.0_oh_oo_op_oq_or_om_on_ok_ol_oi_oj_ad0.0.0.0.0.0.0.0.0.0
0-interested=40**aa7.91.1.29.32.7.91.1.16.32_ab_ac_ba50_bb6.1_bc237.500.8.0.1_bd6_be180_ca62.0.40.62.30.34.34.0.15_cb0_da1.0.0.100_db_dd9.3.41.50.45_dh1.35.50.50.2_di5_qa_qb_dc9.1.1.1.1_eh4.df6f1d_ea2.df6f1d.DF6F1D.ffac4f.1.0_ec6.43.df6f1d.df6f1d.ffac4f.40.64.1_ed28.100.1.1.df6f1d.ffac4f_ef_eg_r0_fa12.55.58.70.50.65.56_fb_fh_fc2.1d7b2d.55.2.1d7b2d.55.50.61.61.50.50.50_fd1.0.50.df6f1d.56_fe80.64_ff0000000000_fg1.50_pa0.0.0.0.40.50.85.85.0.0_t0_pb_pc_pd_pe_ga0_gb1_gc10.0_ge0000000000_gh_gf_gg_gd10100000_ha80.80_hb49.1.44.99_hc0.50.25.0.50.25_hd16.1.50.48_ia_if_ib_id_ic_jc_ie_ja_jb_jd3.60.60.57_je3.60.60.57_jf_jg_ka32.CE57A8.CE57A8.3.0_kb22.CE57A8.CE57A8.3_kc_kd_ke_kf_la_lb_oa_os_ob_oc_od_oe_of_lc_m0_n0_s0_og7.1.26.43_oh_oo_op_oq_or_om_on_ok_ol_oi_oj_ad0.0.0.0.0.0.0.0.0.0
0-excited=40**aa13.43.0.16.55.13.43.0.16.55_ab_ac_ba50_bb6.1_bc325.500.8.0.1_bd6_be180_ca62.0.40.62.30.34.34.0.15_cb0_da1.0.0.100_db_dd9.3.41.50.45_dh1.35.50.50.2_di5_qa_qb_dc9.1.1.1.1_eh4.df6f1d_ea2.df6f1d.DF6F1D.ffac4f.1.0_ec6.43.df6f1d.df6f1d.ffac4f.40.64.1_ed28.100.1.1.df6f1d.ffac4f_ef_eg_r0_fa12.55.58.70.50.65.56_fb_fh_fc2.1d7b2d.55.2.1d7b2d.55.50.61.61.50.50.50_fd1.0.50.df6f1d.56_fe80.64_ff0000000000_fg1.50_pa0.0.0.0.40.50.85.85.0.0_t0_pb_pc_pd_pe_ga0_gb1_gc0.0_ge0000000000_gh_gf_gg_gd10100000_ha100.100_hb49.1.44.99_hc0.51.25.0.51.25_hd34.1.49.49_ia_if_ib_id_ic_jc_ie_ja_jb_jd3.60.60.57_je3.60.60.57_jf_jg_ka32.CE57A8.CE57A8.3.0_kb22.CE57A8.CE57A8.3_kc_kd_ke_kf_la_lb_oa_os_ob_oc_od_oe_of_lc_m0_n0_s0_og7.1.26.43_oh_oo_op_oq_or_om_on_ok_ol_oi_oj_ad0.0.0.0.0.0.0.0.0.0
0-happy=40**aa22.87.0.4.50.22.87.0.4.50_ab_ac_ba50_bb6.1_bc412.500.8.0.1_bd6_be180_ca62.0.40.62.30.34.34.0.15_cb0_da1.0.0.100_db_dd9.3.41.50.45_dh1.35.50.50.2_di5_qa_qb_dc9.1.1.1.1_eh4.df6f1d_ea2.df6f1d.DF6F1D.ffac4f.1.0_ec6.43.df6f1d.df6f1d.ffac4f.40.64.1_ed28.100.1.1.df6f1d.ffac4f_ef_eg_r0_fa12.55.58.70.50.65.56_fb_fh_fc2.1d7b2d.55.2.1d7b2d.55.50.61.61.50.50.50_fd1.0.50.df6f1d.56_fe80.64_ff0000000000_fg1.50_pa0.0.0.0.40.50.85.85.0.0_t0_pb_pc_pd_pe_ga0_gb1_gc0.0_ge0000000000_gh_gf_gg_gd10100000_ha95.95_hb49.1.44.99_hc0.51.25.0.51.25_hd34.1.49.49_ia_if_ib_id_ic_jc_ie_ja_jb_jd3.60.60.57_je3.60.60.57_jf_jg_ka32.CE57A8.CE57A8.3.0_kb22.CE57A8.CE57A8.3_kc_kd_ke_kf_la_lb_oa_os_ob_oc_od_oe_of_lc_m0_n0_s0_og7.1.26.43_oh_oo_op_oq_or_om_on_ok_ol_oi_oj_ad0.0.0.0.0.0.0.0.0.0
0-sad=40**aa7.91.1.29.32.7.91.1.16.32_ab_ac_ba50_bb5.1_bc500.500.8.0.1_bd5_be180_ca62.0.40.62.30.34.34.0.15_cb0_da1.0.0.100_db_dd9.3.41.50.45_dh1.35.50.50.2_di5_qa_qb_dc9.1.1.1.1_eh4.df6f1d_ea2.df6f1d.DF6F1D.ffac4f.1.0_ec6.43.df6f1d.df6f1d.ffac4f.40.64.1_ed28.100.1.1.df6f1d.ffac4f_ef_eg_r0_fa12.55.58.70.50.65.56_fb_fh_fc2.1d7b2d.55.2.1d7b2d.55.50.61.61.50.50.50_fd1.0.50.df6f1d.56_fe80.64_ff0000000000_fg1.50_pa0.0.0.0.40.50.85.85.0.0_t0_pb_pc_pd_pe_ga0_gb1_gc0.0_ge0000000000_gh_gf_gg_gd10100000_ha90.90_hb100.1.40.99_hc0.80.25.0.80.25_hd5.1.49.49_ia_if_ib_id_ic_jc_ie_ja_jb_jd3.60.60.57_je3.60.60.57_jf_jg_ka32.CE57A8.CE57A8.3.0_kb22.CE57A8.CE57A8.3_kc_kd_ke_kf_la_lb_oa_os_ob_oc_od_oe_of_lc_m0_n0_s0_og7.1.26.43_oh_oo_op_oq_or_om_on_ok_ol_oi_oj_ad0.0.0.0.0.0.0.0.0.0
0-angry=40**aa33.79.0.16.24.33.79.0.16.24_ab_ac_ba50_bb5.1_bc587.500.8.0.1_bd5_be180_ca62.0.40.62.30.34.34.0.15_cb0_da1.0.0.100_db_dd9.3.41.50.45_dh1.35.50.50.2_di5_qa_qb_dc9.1.1.1.1_eh4.df6f1d_ea2.df6f1d.DF6F1D.ffac4f.1.0_ec6.43.df6f1d.df6f1d.ffac4f.40.64.1_ed28.100.1.1.df6f1d.ffac4f_ef_eg_r0_fa12.55.58.70.50.65.56_fb_fh_fc2.1d7b2d.55.2.1d7b2d.55.50.61.61.50.50.50_fd1.0.50.df6f1d.56_fe80.64_ff0000000000_fg1.50_pa0.0.0.0.40.50.85.85.0.0_t0_pb_pc_pd_pe_ga0_gb1_gc0.0_ge0000000000_gh_gf_gg_gd10100000_ha90.90_hb49.1.44.99_hc1.35.0.1.35.0_hd4.1.49.49_ia_if_ib_id_ic_jc_ie_ja_jb_jd3.60.60.57_je3.60.60.57_jf_jg_ka32.CE57A8.CE57A8.3.0_kb22.CE57A8.CE57A8.3_kc_kd_ke_kf_la_lb_oa_os_ob_oc_od_oe_of_lc_m0_n0_s0_og7.1.26.43_oh_oo_op_oq_or_om_on_ok_ol_oi_oj_ad0.0.0.0.0.0.0.0.0.0
0-stunned=40**aa7.75.1.16.50.7.75.1.16.50_ab_ac_ba50_bb5.1_bc185.500.8.0.1_bd5_be180_ca62.0.40.62.30.34.34.0.15_cb0_da1.0.0.100_db_dd9.3.41.50.45_dh1.35.50.50.2_di5_qa_qb_dc9.2.1.1.1_eh4.df6f1d_ea2.df6f1d.DF6F1D.ffac4f.1.0_ec6.43.df6f1d.df6f1d.ffac4f.40.64.1_ed28.100.1.1.df6f1d.ffac4f_ef_eg_r0_fa12.55.58.70.50.65.56_fb_fh_fc2.1d7b2d.55.2.1d7b2d.55.50.61.61.50.50.50_fd1.0.50.df6f1d.56_fe80.64_ff0000000000_fg1.50_pa0.0.0.0.40.50.85.85.0.0_t0_pb_pc_pd_pe_ga0_gb1_gc10.0_ge0000000000_gh_gf_gg_gd10100000_ha97.97_hb49.1.44.99_hc0.51.48.0.51.48_hd38.1.40.40_ia_if_ib_id_ic_jc_ie_ja_jb_jd3.60.60.50_je3.60.60.50_jf_jg_ka32.CE57A8.CE57A8.0.0_kb22.CE57A8.CE57A8.0_kc_kd_ke_kf_la_lb_oa_os_ob_oc_od_oe_of_lc_m0_n0_s00.9e5717.9E5717.56.0.66.16.4890.7430.0.10.0.93.2.61_s10.9e5717.9E5717.56.1.0.164.4960.7410.1.11.0.100.2.61_s214.61.61.56.0.41.0.5010.7430.1.4.0.41.0.471b5a_og7.1.56.0_oh_oo_op_oq_or_om_on_ok_ol_oi_oj_ad0.0.0.0.0.0.0.0.0.0
0-shocked=40**aa6.79.1.16.50.6.66.1.26.34_ab_ac_ba50_bb5.1_bc237.500.8.0.1_bd5_be180_ca62.0.40.62.30.34.34.0.15_cb0_da1.0.0.100_db_dd9.3.41.50.45_dh1.35.50.50.2_di5_qa_qb_dc9.1.1.1.1_eh4.df6f1d_ea2.df6f1d.DF6F1D.ffac4f.1.0_ec6.43.df6f1d.df6f1d.ffac4f.40.64.1_ed28.100.1.1.df6f1d.ffac4f_ef_eg_r0_fa12.55.58.70.50.65.56_fb_fh_fc2.1d7b2d.55.2.1d7b2d.55.50.61.61.50.50.50_fd1.0.50.df6f1d.56_fe80.64_ff0000000000_fg1.50_pa0.0.0.0.40.50.85.85.0.0_t0_pb_pc_pd_pe_ga0_gb1_gc16.0_ge0000000000_gh_gf_gg_gd10100000_ha100.100_hb49.1.40.70_hc0.51.50.0.51.50_hd40.1.49.49_ia_if_ib_id_ic_jc_ie_ja_jb_jd3.60.60.57_je3.60.60.57_jf_jg_ka32.CE57A8.CE57A8.3.0_kb22.CE57A8.CE57A8.3_kc_kd_ke_kf_la_lb_oa_os_ob_oc_od_oe_of_lc_m0_n0_s0_og7.1.26.43_oh_oo_op_oq_or_om_on_ok_ol_oi_oj_ad0.0.0.0.0.0.0.0.0.0
0-horny=40**aa26.80.0.0.85.6.0.0.16.50_ab_ac_ba50_bb6.1_bc325.500.8.0.1_bd6_be180_ca62.0.40.62.30.34.34.0.15_cb0_da1.0.0.100_db_dd9.3.41.50.45_dh1.35.50.50.2_di5_qa_qb_dc9.1.1.1.1_eh4.df6f1d_ea2.df6f1d.DF6F1D.ffac4f.1.0_ec6.43.df6f1d.df6f1d.ffac4f.40.64.1_ed28.100.1.1.df6f1d.ffac4f_ef_eg_r0_fa12.55.58.70.50.65.56_fb_fh_fc2.1d7b2d.55.2.1d7b2d.55.50.61.61.50.50.50_fd1.0.50.df6f1d.56_fe80.64_ff0000000000_fg1.50_pa0.0.0.0.40.50.85.85.0.0_t0_pb_pc_pd_pe_ga0_gb1_gc15.0_ge0000000000_gh_gf_gg_gd10100000_ha75.75_hb49.1.50.99_hc0.51.25.0.51.25_hd17.1.49.49_ia_if_ib_id_ic_jc_ie_ja_jb_jd3.60.60.57_je3.60.60.57_jf_jg_ka32.CE57A8.CE57A8.3.0_kb22.CE57A8.CE57A8.3_kc_kd_ke_kf_la_lb_oa_os_ob_oc_od_oe_of_lc_m0_n0_s0_og7.1.26.43_oh_oo_op_oq_or_om_on_ok_ol_oi_oj_ad0.0.0.0.0.0.0.0.0.0
0-awkward=40**aa7.100.0.16.50.82.35.0.16.50_ab_ac_ba50_bb5.1_bc412.500.8.0.1_bd5_be180_ca62.0.40.62.30.34.34.0.15_cb0_da1.0.0.100_db_dd9.3.41.50.45_dh1.35.50.50.2_di5_qa_qb_dc9.1.1.1.1_eh4.df6f1d_ea2.df6f1d.DF6F1D.ffac4f.1.0_ec6.43.df6f1d.df6f1d.ffac4f.40.64.1_ed28.100.1.1.df6f1d.ffac4f_ef_eg_r0_fa12.55.58.70.50.65.56_fb_fh_fc2.1d7b2d.55.2.1d7b2d.55.50.61.61.50.50.50_fd1.0.50.df6f1d.56_fe80.64_ff0000000000_fg1.50_pa0.0.0.0.40.50.85.85.0.0_t0_pb_pc_pd_pe_ga0_gb1_gc10.0_ge0000000000_gh_gf_gg_gd10100000_ha83.83_hb100.1.44.99_hc0.51.48.0.51.48_hd4.1.40.40_ia_if_ib_id_ic_jc_ie_ja_jb_jd3.60.60.57_je3.60.60.57_jf_jg_ka32.CE57A8.CE57A8.3.0_kb22.CE57A8.CE57A8.3_kc_kd_ke_kf_la_lb_oa_os_ob_oc_od_oe_of_lc_m0_n0_s0_og7.1.26.43_oh_oo_op_oq_or_om_on_ok_ol_oi_oj_ad0.0.0.0.0.0.0.0.0.0
0-strip=40**aa7.91.1.3.44.15.95.1.4.37_ab_ac_ba50_bb3.1_bc500.500.8.0.1_bd74_be180_ca62.0.40.62.30.34.34.0.15_cb0_da1.0.0.100_db_dd9.3.41.50.45_dh1.35.50.50.2_di5_qa_qb_dc9.1.1.1.1_eh4.df6f1d_ea2.df6f1d.DF6F1D.ffac4f.1.0_ec6.43.df6f1d.df6f1d.ffac4f.40.64.1_ed28.100.1.1.df6f1d.ffac4f_ef_eg_r0_fa12.55.58.70.50.65.56_fb_fh_fc2.1d7b2d.55.2.1d7b2d.55.50.61.61.50.50.50_fd1.0.50.df6f1d.56_fe80.64_ff0000000000_fg1.50_pa0.0.0.0.40.50.85.85.0.0_t0_pb_pc_pd_pe_ga0_gb1_gc10.0_ge0000000000_gh_gf_gg_gd10100000_ha84.84_hb63.1.0.93_hc0.65.25.0.65.25_hd0.1.35.35_ia_if_ib_id_ic_jc_ie_ja_jb_jd3.60.60.57_je3.60.60.57_jf_jg_ka32.CE57A8.CE57A8.3.0_kb22.CE57A8.CE57A8.3_kc_kd_ke_kf_la_lb_oa_os_ob_oc_od_oe_of_lc_m0_n0_s0_og7.1.26.43_oh_oo_op_oq_or_om_on_ok_ol_oi_oj_ad0.0.0.0.0.0.0.0.0.0
1-stripped=40**aa14.95.1.4.36.6.92.1.3.46_ab_ac_ba50_bb74.0_bc587.500.8.0.1_bd3_be180_ca62.0.40.62.30.34.34.0.15_cb0_da1.0.0.100_db_dd9.3.41.50.45_dh1.35.50.50.2_di5_qa_qb_dc9.1.1.1.1_eh4.df6f1d_ea2.df6f1d.DF6F1D.ffac4f.1.0_ec6.43.df6f1d.df6f1d.ffac4f.40.64.1_ed28.100.1.1.df6f1d.ffac4f_ef_eg_r0_fa12.55.58.70.50.65.56_fb_fh_fc2.1d7b2d.55.2.1d7b2d.55.50.61.61.50.50.50_fd1.0.50.df6f1d.56_fe80.64_ff0000000000_fg1.50_pa0.0.0.0.40.50.85.85.0.0_t0_pb_pc_pd_pe_ga0_gb1_gc10.0_ge0000000000_gh_gf_gg_gd10100000_ha90.90_hb27.1.0.93_hc0.65.25.0.65.25_hd16.1.35.35_ia_if_ib_id_ic_jc_ie_ja_jb_jd3.60.60.57_je_jf_jg_ka32.CE57A8.CE57A8.3.0_kb22.CE57A8.CE57A8.3_kc_kd_ke_kf_la_lb_oa_os_ob_oc_od_oe_of_lc_m0_n0_s0_og7.1.26.43_oh_oo_op_oq_or_om_on_ok_ol_oi_oj_ad0.0.0.0.0.0.0.0.0.0


1-calm=40**aa8.91.0.29.32.8.91.0.16.32_ab_ac_ba50_bb6.1_bc150.500.8.0.1_bd6_be180_ca62.0.40.62.30.34.34.0.15_cb0_da1.0.0.100_db_dd9.3.41.50.45_dh1.35.50.50.2_di5_qa_qb_dc9.1.1.1.1_eh4.df6f1d_ea2.df6f1d.DF6F1D.ffac4f.1.0_ec6.43.df6f1d.df6f1d.ffac4f.40.64.1_ed28.100.1.1.df6f1d.ffac4f_ef_eg_r0_fa12.55.58.70.50.65.56_fb_fh_fc2.1d7b2d.55.2.1d7b2d.55.50.61.61.50.50.50_fd1.0.50.df6f1d.56_fe80.64_ff0000000000_fg1.50_pa0.0.0.0.40.50.85.85.0.0_t0_pb_pc_pd_pe_ga0_gb1_gc0.0_ge0000000000_gh_gf_gg_gd10100000_ha90.90_hb49.1.44.99_hc0.51.25.0.51.25_hd0.1.49.49_ia_if_ib_id_ic_jc_ie_ja_jb_jd_je_jf_jg_ka32.CE57A8.CE57A8.3.0_kb22.CE57A8.CE57A8.3_kc_kd_ke_kf_la_lb_oa_os_ob_oc_od_oe_of_lc_m0_n0_s00.9e5717.9E5717.56.0.66.16.4890.7430.0.10.0.93.2.61_s10.9e5717.9E5717.56.1.0.164.4960.7410.1.11.0.100.2.61_s214.61.61.56.0.41.0.5010.7430.1.4.0.41.0.471b5a_og7.1.26.43_oh_oo_op_oq_or_om_on_ok_ol_oi_oj_ad0.0.0.0.0.0.0.0.0.0
1-interested=40**aa7.91.1.29.32.7.91.1.16.32_ab_ac_ba50_bb6.1_bc237.500.8.0.1_bd6_be180_ca62.0.40.62.30.34.34.0.15_cb0_da1.0.0.100_db_dd9.3.41.50.45_dh1.35.50.50.2_di5_qa_qb_dc9.1.1.1.1_eh4.df6f1d_ea2.df6f1d.DF6F1D.ffac4f.1.0_ec6.43.df6f1d.df6f1d.ffac4f.40.64.1_ed28.100.1.1.df6f1d.ffac4f_ef_eg_r0_fa12.55.58.70.50.65.56_fb_fh_fc2.1d7b2d.55.2.1d7b2d.55.50.61.61.50.50.50_fd1.0.50.df6f1d.56_fe80.64_ff0000000000_fg1.50_pa0.0.0.0.40.50.85.85.0.0_t0_pb_pc_pd_pe_ga0_gb1_gc10.0_ge0000000000_gh_gf_gg_gd10100000_ha80.80_hb49.1.44.99_hc0.50.25.0.50.25_hd16.1.50.48_ia_if_ib_id_ic_jc_ie_ja_jb_jd_je_jf_jg_ka32.CE57A8.CE57A8.3.0_kb22.CE57A8.CE57A8.3_kc_kd_ke_kf_la_lb_oa_os_ob_oc_od_oe_of_lc_m0_n0_s0_og7.1.26.43_oh_oo_op_oq_or_om_on_ok_ol_oi_oj_ad0.0.0.0.0.0.0.0.0.0
1-excited=40**aa13.43.0.16.55.13.43.0.16.55_ab_ac_ba50_bb6.1_bc325.500.8.0.1_bd6_be180_ca62.0.40.62.30.34.34.0.15_cb0_da1.0.0.100_db_dd9.3.41.50.45_dh1.35.50.50.2_di5_qa_qb_dc9.1.1.1.1_eh4.df6f1d_ea2.df6f1d.DF6F1D.ffac4f.1.0_ec6.43.df6f1d.df6f1d.ffac4f.40.64.1_ed28.100.1.1.df6f1d.ffac4f_ef_eg_r0_fa12.55.58.70.50.65.56_fb_fh_fc2.1d7b2d.55.2.1d7b2d.55.50.61.61.50.50.50_fd1.0.50.df6f1d.56_fe80.64_ff0000000000_fg1.50_pa0.0.0.0.40.50.85.85.0.0_t0_pb_pc_pd_pe_ga0_gb1_gc0.0_ge0000000000_gh_gf_gg_gd10100000_ha100.100_hb49.1.44.99_hc0.51.25.0.51.25_hd34.1.49.49_ia_if_ib_id_ic_jc_ie_ja_jb_jd_je_jf_jg_ka32.CE57A8.CE57A8.3.0_kb22.CE57A8.CE57A8.3_kc_kd_ke_kf_la_lb_oa_os_ob_oc_od_oe_of_lc_m0_n0_s0_og7.1.26.43_oh_oo_op_oq_or_om_on_ok_ol_oi_oj_ad0.0.0.0.0.0.0.0.0.0
1-happy=40**aa22.87.0.4.50.22.87.0.4.50_ab_ac_ba50_bb6.1_bc412.500.8.0.1_bd6_be180_ca62.0.40.62.30.34.34.0.15_cb0_da1.0.0.100_db_dd9.3.41.50.45_dh1.35.50.50.2_di5_qa_qb_dc9.1.1.1.1_eh4.df6f1d_ea2.df6f1d.DF6F1D.ffac4f.1.0_ec6.43.df6f1d.df6f1d.ffac4f.40.64.1_ed28.100.1.1.df6f1d.ffac4f_ef_eg_r0_fa12.55.58.70.50.65.56_fb_fh_fc2.1d7b2d.55.2.1d7b2d.55.50.61.61.50.50.50_fd1.0.50.df6f1d.56_fe80.64_ff0000000000_fg1.50_pa0.0.0.0.40.50.85.85.0.0_t0_pb_pc_pd_pe_ga0_gb1_gc0.0_ge0000000000_gh_gf_gg_gd10100000_ha95.95_hb49.1.44.99_hc0.51.25.0.51.25_hd34.1.49.49_ia_if_ib_id_ic_jc_ie_ja_jb_jd_je_jf_jg_ka32.CE57A8.CE57A8.3.0_kb22.CE57A8.CE57A8.3_kc_kd_ke_kf_la_lb_oa_os_ob_oc_od_oe_of_lc_m0_n0_s0_og7.1.26.43_oh_oo_op_oq_or_om_on_ok_ol_oi_oj_ad0.0.0.0.0.0.0.0.0.0
1-sad=40**aa7.91.1.29.32.7.91.1.16.32_ab_ac_ba50_bb5.1_bc500.500.8.0.1_bd5_be180_ca62.0.40.62.30.34.34.0.15_cb0_da1.0.0.100_db_dd9.3.41.50.45_dh1.35.50.50.2_di5_qa_qb_dc9.1.1.1.1_eh4.df6f1d_ea2.df6f1d.DF6F1D.ffac4f.1.0_ec6.43.df6f1d.df6f1d.ffac4f.40.64.1_ed28.100.1.1.df6f1d.ffac4f_ef_eg_r0_fa12.55.58.70.50.65.56_fb_fh_fc2.1d7b2d.55.2.1d7b2d.55.50.61.61.50.50.50_fd1.0.50.df6f1d.56_fe80.64_ff0000000000_fg1.50_pa0.0.0.0.40.50.85.85.0.0_t0_pb_pc_pd_pe_ga0_gb1_gc0.0_ge0000000000_gh_gf_gg_gd10100000_ha90.90_hb100.1.40.99_hc0.80.25.0.80.25_hd5.1.49.49_ia_if_ib_id_ic_jc_ie_ja_jb_jd_je_jf_jg_ka32.CE57A8.CE57A8.3.0_kb22.CE57A8.CE57A8.3_kc_kd_ke_kf_la_lb_oa_os_ob_oc_od_oe_of_lc_m0_n0_s0_og7.1.26.43_oh_oo_op_oq_or_om_on_ok_ol_oi_oj_ad0.0.0.0.0.0.0.0.0.0
1-angry=40**aa33.79.0.16.24.33.79.0.16.24_ab_ac_ba50_bb5.1_bc587.500.8.0.1_bd5_be180_ca62.0.40.62.30.34.34.0.15_cb0_da1.0.0.100_db_dd9.3.41.50.45_dh1.35.50.50.2_di5_qa_qb_dc9.1.1.1.1_eh4.df6f1d_ea2.df6f1d.DF6F1D.ffac4f.1.0_ec6.43.df6f1d.df6f1d.ffac4f.40.64.1_ed28.100.1.1.df6f1d.ffac4f_ef_eg_r0_fa12.55.58.70.50.65.56_fb_fh_fc2.1d7b2d.55.2.1d7b2d.55.50.61.61.50.50.50_fd1.0.50.df6f1d.56_fe80.64_ff0000000000_fg1.50_pa0.0.0.0.40.50.85.85.0.0_t0_pb_pc_pd_pe_ga0_gb1_gc0.0_ge0000000000_gh_gf_gg_gd10100000_ha90.90_hb49.1.44.99_hc1.35.0.1.35.0_hd4.1.49.49_ia_if_ib_id_ic_jc_ie_ja_jb_jd_je_jf_jg_ka32.CE57A8.CE57A8.3.0_kb22.CE57A8.CE57A8.3_kc_kd_ke_kf_la_lb_oa_os_ob_oc_od_oe_of_lc_m0_n0_s0_og7.1.26.43_oh_oo_op_oq_or_om_on_ok_ol_oi_oj_ad0.0.0.0.0.0.0.0.0.0
1-stunned=40**aa7.75.1.16.50.7.75.1.16.50_ab_ac_ba50_bb5.1_bc150.500.8.0.1_bd5_be180_ca62.0.40.62.30.34.34.0.15_cb0_da1.0.0.100_db_dd9.3.41.50.45_dh1.35.50.50.2_di5_qa_qb_dc9.1.1.1.1_eh4.df6f1d_ea2.df6f1d.DF6F1D.ffac4f.1.0_ec6.43.df6f1d.df6f1d.ffac4f.40.64.1_ed28.100.1.1.df6f1d.ffac4f_ef_eg_r0_fa12.55.58.70.50.65.56_fb_fh_fc2.1d7b2d.55.2.1d7b2d.55.50.61.61.50.50.50_fd1.0.50.df6f1d.56_fe80.64_ff0000000000_fg1.50_pa0.0.0.0.40.50.85.85.0.0_t0_pb_pc_pd_pe_ga0_gb1_gc10.0_ge0000000000_gh_gf_gg_gd10100000_ha97.97_hb49.1.44.99_hc0.51.48.0.51.48_hd38.1.40.40_ia_if_ib_id_ic_jc_ie_ja_jb_jd_je_jf_jg_ka32.CE57A8.CE57A8.3.0_kb22.CE57A8.CE57A8.3_kc_kd_ke_kf_la_lb_oa_os_ob_oc_od_oe_of_lc_m0_n0_s00.9e5717.9E5717.56.0.66.16.4890.7430.0.10.0.93.2.61_s10.9e5717.9E5717.56.1.0.164.4960.7410.1.11.0.100.2.61_s214.61.61.56.0.41.0.5010.7430.1.4.0.41.0.471b5a_og7.1.26.43_oh_oo_op_oq_or_om_on_ok_ol_oi_oj_ad0.0.0.0.0.0.0.0.0.0
1-shocked=40**aa6.79.1.16.50.6.66.1.26.34_ab_ac_ba50_bb5.1_bc237.500.8.0.1_bd5_be180_ca62.0.40.62.30.34.34.0.15_cb0_da1.0.0.100_db_dd9.3.41.50.45_dh1.35.50.50.2_di5_qa_qb_dc9.1.1.1.1_eh4.df6f1d_ea2.df6f1d.DF6F1D.ffac4f.1.0_ec6.43.df6f1d.df6f1d.ffac4f.40.64.1_ed28.100.1.1.df6f1d.ffac4f_ef_eg_r0_fa12.55.58.70.50.65.56_fb_fh_fc2.1d7b2d.55.2.1d7b2d.55.50.61.61.50.50.50_fd1.0.50.df6f1d.56_fe80.64_ff0000000000_fg1.50_pa0.0.0.0.40.50.85.85.0.0_t0_pb_pc_pd_pe_ga0_gb1_gc16.0_ge0000000000_gh_gf_gg_gd10100000_ha100.100_hb49.1.40.70_hc0.51.50.0.51.50_hd40.1.49.49_ia_if_ib_id_ic_jc_ie_ja_jb_jd_je_jf_jg_ka32.CE57A8.CE57A8.3.0_kb22.CE57A8.CE57A8.3_kc_kd_ke_kf_la_lb_oa_os_ob_oc_od_oe_of_lc_m0_n0_s0_og7.1.26.43_oh_oo_op_oq_or_om_on_ok_ol_oi_oj_ad0.0.0.0.0.0.0.0.0.0
1-horny=40**aa26.80.0.0.85.6.0.0.16.50_ab_ac_ba50_bb6.1_bc325.500.8.0.1_bd6_be180_ca62.0.40.62.30.34.34.0.15_cb0_da1.0.0.100_db_dd9.3.41.50.45_dh1.35.50.50.2_di5_qa_qb_dc9.1.1.1.1_eh4.df6f1d_ea2.df6f1d.DF6F1D.ffac4f.1.0_ec6.43.df6f1d.df6f1d.ffac4f.40.64.1_ed28.100.1.1.df6f1d.ffac4f_ef_eg_r0_fa12.55.58.70.50.65.56_fb_fh_fc2.1d7b2d.55.2.1d7b2d.55.50.61.61.50.50.50_fd1.0.50.df6f1d.56_fe80.64_ff0000000000_fg1.50_pa0.0.0.0.40.50.85.85.0.0_t0_pb_pc_pd_pe_ga0_gb1_gc15.0_ge0000000000_gh_gf_gg_gd10100000_ha75.75_hb49.1.50.99_hc0.51.25.0.51.25_hd17.1.49.49_ia_if_ib_id_ic_jc_ie_ja_jb_jd_je_jf_jg_ka32.CE57A8.CE57A8.3.0_kb22.CE57A8.CE57A8.3_kc_kd_ke_kf_la_lb_oa_os_ob_oc_od_oe_of_lc_m0_n0_s0_og7.1.26.43_oh_oo_op_oq_or_om_on_ok_ol_oi_oj_ad0.0.0.0.0.0.0.0.0.0
1-awkward=40**aa7.100.0.16.50.82.35.0.16.50_ab_ac_ba50_bb5.1_bc412.500.8.0.1_bd5_be180_ca62.0.40.62.30.34.34.0.15_cb0_da1.0.0.100_db_dd9.3.41.50.45_dh1.35.50.50.2_di5_qa_qb_dc9.1.1.1.1_eh4.df6f1d_ea2.df6f1d.DF6F1D.ffac4f.1.0_ec6.43.df6f1d.df6f1d.ffac4f.40.64.1_ed28.100.1.1.df6f1d.ffac4f_ef_eg_r0_fa12.55.58.70.50.65.56_fb_fh_fc2.1d7b2d.55.2.1d7b2d.55.50.61.61.50.50.50_fd1.0.50.df6f1d.56_fe80.64_ff0000000000_fg1.50_pa0.0.0.0.40.50.85.85.0.0_t0_pb_pc_pd_pe_ga0_gb1_gc10.0_ge0000000000_gh_gf_gg_gd10100000_ha83.83_hb100.1.44.99_hc0.51.48.0.51.48_hd4.1.40.40_ia_if_ib_id_ic_jc_ie_ja_jb_jd_je_jf_jg_ka32.CE57A8.CE57A8.3.0_kb22.CE57A8.CE57A8.3_kc_kd_ke_kf_la_lb_oa_os_ob_oc_od_oe_of_lc_m0_n0_s0_og7.1.26.43_oh_oo_op_oq_or_om_on_ok_ol_oi_oj_ad0.0.0.0.0.0.0.0.0.0
1-strip=40**aa27.71.1.3.30.29.71.1.6.50_ab_ac_ba50_bb6.1_bc500.500.8.0.1_bd6_be180_ca62.0.40.62.30.34.34.0.15_cb0_da1.0.0.100_db_dd9.3.41.50.45_dh1.35.50.50.2_di5_qa_qb_dc9.1.1.1.1_eh4.df6f1d_ea2.df6f1d.DF6F1D.ffac4f.1.0_ec6.43.df6f1d.df6f1d.ffac4f.40.64.1_ed28.100.1.1.df6f1d.ffac4f_ef_eg_r0_fa12.55.58.70.50.65.56_fb_fh_fc2.1d7b2d.55.2.1d7b2d.55.50.61.61.50.50.50_fd1.0.50.df6f1d.56_fe80.64_ff0000000000_fg1.50_pa0.0.0.0.40.50.85.85.0.0_t0_pb_pc_pd_pe_ga0_gb1_gc10.0_ge0000000000_gh_gf_gg_gd10100000_ha95.95_hb50.1.10.93_hc0.24.22.0.24.22_hd4.1.35.35_ia_if_ib_id_ic_jc_ie_ja_jb_jd_je_jf_jg_ka32.CE57A8.CE57A8.3.0_kb22.CE57A8.CE57A8.3_kc_kd_ke_kf_la_lb_oa_os_ob_oc_od_oe_of_lc_m0_n0_s0_og7.1.26.43_oh_oo_op_oq_or_om_on_ok_ol_oi_oj_ad0.0.0.0.0.0.0.0.0.0
2-stripped=40**aa26.80.0.0.85.6.0.0.16.50_ab_ac_ba50_bb6.0_bc587.500.8.0.1_bd6_be180_ca62.0.40.62.30.34.34.0.15_cb0_da1.0.0.100_db_dd9.3.41.50.45_dh1.35.50.50.2_di5_qa_qb_dc9.1.1.1.1_eh4.df6f1d_ea2.df6f1d.DF6F1D.ffac4f.1.0_ec6.43.df6f1d.df6f1d.ffac4f.40.64.1_ed28.100.1.1.df6f1d.ffac4f_ef_eg_r0_fa12.55.58.70.50.65.56_fb_fh_fc2.1d7b2d.55.2.1d7b2d.55.50.61.61.50.50.50_fd1.0.50.df6f1d.56_fe80.64_ff0000000000_fg1.50_pa0.0.0.0.40.50.85.85.0.0_t0_pb_pc_pd_pe_ga0_gb1_gc10.0_ge0000000000_gh_gf_gg_gd10100000_ha80.80_hb50.1.45.93_hc0.18.12.0.18.12_hd4.1.35.35_ia_if_ib_id_ic_jc_ie_ja_jb_jd_je_jf_jg_ka32.CE57A8.CE57A8.3.0_kb22.CE57A8.CE57A8.3_kc_kd_ke_kf_la_lb_oa_os_ob_oc_od_oe_of_lc_m0_n0_s0_og_oh_oo_op_oq_or_om_on_ok_ol_oi_oj_ad0.0.0.0.0.0.0.0.0.0


2-calm=40**aa7.95.1.16.50.7.95.1.16.50_ab_ac_ba50_bb5.1_bc150.500.8.0.1_bd5_be180_ca62.0.40.62.30.34.34.0.15_cb0_da1.0.0.100_db_dd9.3.41.50.45_dh1.35.50.50.2_di5_qa_qb_dc9.1.1.1.1_eh4.df6f1d_ea2.df6f1d.DF6F1D.ffac4f.1.0_ec6.43.df6f1d.df6f1d.ffac4f.40.64.1_ed28.100.1.1.df6f1d.ffac4f_ef_eg_r0_fa12.55.58.70.50.65.56_fb_fh_fc2.1d7b2d.55.2.1d7b2d.55.50.61.61.50.50.50_fd1.0.50.df6f1d.56_fe80.64_ff0000000000_fg1.50_pa0.0.0.0.40.50.85.85.0.0_t0_pb_pc_pd_pe_ga0_gb1_gc15.0_ge0000000000_gh_gf_gg_gd10100000_ha90.90_hb49.1.44.99_hc0.51.25.0.51.25_hd0.1.49.49_ia_if_ib_id_ic_jc_ie_ja_jb_jd_je_jf_jg_ka32.CE57A8.CE57A8.3.0_kb22.CE57A8.CE57A8.3_kc_kd_ke_kf_la_lb_oa_os_ob_oc_od_oe_of_lc_m0_n0_s00.9e5717.9E5717.56.0.66.16.4890.7430.0.10.0.93.2.61_s10.9e5717.9E5717.56.1.0.164.4960.7410.1.11.0.100.2.61_s214.61.61.56.0.41.0.5010.7430.1.4.0.41.0.471b5a_og_oh_oo_op_oq_or_om_on_ok_ol_oi_oj_ad0.0.0.0.0.0.0.0.0.0
2-interested=40**aa7.91.1.29.32.7.91.1.16.32_ab_ac_ba50_bb6.1_bc237.500.8.0.1_bd6_be180_ca62.0.40.62.30.34.34.0.15_cb0_da1.0.0.100_db_dd9.3.41.50.45_dh1.35.50.50.2_di5_qa_qb_dc9.1.1.1.1_eh4.df6f1d_ea2.df6f1d.DF6F1D.ffac4f.1.0_ec6.43.df6f1d.df6f1d.ffac4f.40.64.1_ed28.100.1.1.df6f1d.ffac4f_ef_eg_r0_fa12.55.58.70.50.65.56_fb_fh_fc2.1d7b2d.55.2.1d7b2d.55.50.61.61.50.50.50_fd1.0.50.df6f1d.56_fe80.64_ff0000000000_fg1.50_pa0.0.0.0.40.50.85.85.0.0_t0_pb_pc_pd_pe_ga0_gb1_gc25.0_ge0000000000_gh_gf_gg_gd10100000_ha80.80_hb49.1.44.99_hc0.50.25.0.50.25_hd16.1.50.48_ia_if_ib_id_ic_jc_ie_ja_jb_jd_je_jf_jg_ka32.CE57A8.CE57A8.3.0_kb22.CE57A8.CE57A8.3_kc_kd_ke_kf_la_lb_oa_os_ob_oc_od_oe_of_lc_m0_n0_s0_og_oh_oo_op_oq_or_om_on_ok_ol_oi_oj_ad0.0.0.0.0.0.0.0.0.0
2-excited=40**aa13.43.0.16.55.13.43.0.16.55_ab_ac_ba50_bb6.1_bc325.500.8.0.1_bd6_be180_ca62.0.40.62.30.34.34.0.15_cb0_da1.0.0.100_db_dd9.3.41.50.45_dh1.35.50.50.2_di5_qa_qb_dc9.1.1.1.1_eh4.df6f1d_ea2.df6f1d.DF6F1D.ffac4f.1.0_ec6.43.df6f1d.df6f1d.ffac4f.40.64.1_ed28.100.1.1.df6f1d.ffac4f_ef_eg_r0_fa12.55.58.70.50.65.56_fb_fh_fc2.1d7b2d.55.2.1d7b2d.55.50.61.61.50.50.50_fd1.0.50.df6f1d.56_fe80.64_ff0000000000_fg1.50_pa0.0.0.0.40.50.85.85.0.0_t0_pb_pc_pd_pe_ga0_gb1_gc15.0_ge0000000000_gh_gf_gg_gd10100000_ha100.100_hb49.1.44.99_hc0.51.25.0.51.25_hd34.1.49.49_ia_if_ib_id_ic_jc_ie_ja_jb_jd_je_jf_jg_ka32.CE57A8.CE57A8.3.0_kb22.CE57A8.CE57A8.3_kc_kd_ke_kf_la_lb_oa_os_ob_oc_od_oe_of_lc_m0_n0_s0_og_oh_oo_op_oq_or_om_on_ok_ol_oi_oj_ad0.0.0.0.0.0.0.0.0.0
2-happy=40**aa7.91.1.29.32.7.91.1.16.32_ab_ac_ba50_bb6.1_bc412.500.8.0.1_bd6_be180_ca62.0.40.62.30.34.34.0.15_cb0_da1.0.0.100_db_dd9.3.41.50.45_dh1.35.50.50.2_di5_qa_qb_dc9.1.1.1.1_eh4.df6f1d_ea2.df6f1d.DF6F1D.ffac4f.1.0_ec6.43.df6f1d.df6f1d.ffac4f.40.64.1_ed28.100.1.1.df6f1d.ffac4f_ef_eg_r0_fa12.55.58.70.50.65.56_fb_fh_fc2.1d7b2d.55.2.1d7b2d.55.50.61.61.50.50.50_fd1.0.50.df6f1d.56_fe80.64_ff0000000000_fg1.50_pa0.0.0.0.40.50.85.85.0.0_t0_pb_pc_pd_pe_ga0_gb1_gc15.0_ge0000000000_gh_gf_gg_gd10100000_ha95.95_hb49.1.44.99_hc0.51.25.0.51.25_hd34.1.49.49_ia_if_ib_id_ic_jc_ie_ja_jb_jd_je_jf_jg_ka32.CE57A8.CE57A8.3.0_kb22.CE57A8.CE57A8.3_kc_kd_ke_kf_la_lb_oa_os_ob_oc_od_oe_of_lc_m0_n0_s0_og_oh_oo_op_oq_or_om_on_ok_ol_oi_oj_ad0.0.0.0.0.0.0.0.0.0
2-sad=40**aa7.91.1.29.32.7.91.1.16.32_ab_ac_ba50_bb5.1_bc500.500.8.0.1_bd5_be180_ca62.0.40.62.30.34.34.0.15_cb0_da1.0.0.100_db_dd9.3.41.50.45_dh1.35.50.50.2_di5_qa_qb_dc9.1.1.1.1_eh4.df6f1d_ea2.df6f1d.DF6F1D.ffac4f.1.0_ec6.43.df6f1d.df6f1d.ffac4f.40.64.1_ed28.100.1.1.df6f1d.ffac4f_ef_eg_r0_fa12.55.58.70.50.65.56_fb_fh_fc2.1d7b2d.55.2.1d7b2d.55.50.61.61.50.50.50_fd1.0.50.df6f1d.56_fe80.64_ff0000000000_fg1.50_pa0.0.0.0.40.50.85.85.0.0_t0_pb_pc_pd_pe_ga0_gb1_gc15.0_ge0000000000_gh_gf_gg_gd10100000_ha90.90_hb100.1.40.99_hc0.80.25.0.80.25_hd5.1.49.49_ia_if_ib_id_ic_jc_ie_ja_jb_jd_je_jf_jg_ka32.CE57A8.CE57A8.3.0_kb22.CE57A8.CE57A8.3_kc_kd_ke_kf_la_lb_oa_os_ob_oc_od_oe_of_lc_m0_n0_s0_og_oh_oo_op_oq_or_om_on_ok_ol_oi_oj_ad0.0.0.0.0.0.0.0.0.0
2-angry=40**aa33.79.0.16.24.33.79.0.16.24_ab_ac_ba50_bb5.1_bc587.500.8.0.1_bd5_be180_ca62.0.40.62.30.34.34.0.15_cb0_da1.0.0.100_db_dd9.3.41.50.45_dh1.35.50.50.2_di5_qa_qb_dc9.1.1.1.1_eh4.df6f1d_ea2.df6f1d.DF6F1D.ffac4f.1.0_ec6.43.df6f1d.df6f1d.ffac4f.40.64.1_ed28.100.1.1.df6f1d.ffac4f_ef_eg_r0_fa12.55.58.70.50.65.56_fb_fh_fc2.1d7b2d.55.2.1d7b2d.55.50.61.61.50.50.50_fd1.0.50.df6f1d.56_fe80.64_ff0000000000_fg1.50_pa0.0.0.0.40.50.85.85.0.0_t0_pb_pc_pd_pe_ga0_gb1_gc15.0_ge0000000000_gh_gf_gg_gd10100000_ha90.90_hb49.1.44.99_hc1.35.0.1.35.0_hd4.1.49.49_ia_if_ib_id_ic_jc_ie_ja_jb_jd_je_jf_jg_ka32.CE57A8.CE57A8.3.0_kb22.CE57A8.CE57A8.3_kc_kd_ke_kf_la_lb_oa_os_ob_oc_od_oe_of_lc_m0_n0_s0_og_oh_oo_op_oq_or_om_on_ok_ol_oi_oj_ad0.0.0.0.0.0.0.0.0.0
2-stunned=47**aa7.75.1.16.50.7.75.1.16.50_ab_ac_ba50_bb5.1_bc185.500.0.0.1_bd5_be180_ca62.0.40.62.30.34.34.0.15_cb0_da1.0.0.100_db_dd9.3.41.50.45.50_dh1.35.50.50.2_di5_qa_qb_dc9.1.1.1.1_eh4.df6f1d_ea2.df6f1d.DF6F1D.ffac4f.1.0_ec6.43.df6f1d.df6f1d.ffac4f.40.64.1_ed28.100.1.1.df6f1d.ffac4f_ef_eg_r00_fa12.55.58.70.50.65.56_fb_fh_fc2.1d7b2d.55.2.1d7b2d.55.50.61.61.50.50.50_fd1.0.50.df6f1d.56_fe80.64_ff0000000000_fg1.50_pa0.0.0.0.40.50.85.85.0.0_t00_pb_pc_pd_pe_ga0_gb1_gc15.0_ge0000000000_gh_gf_gg_gd10100000_ha97.97_hb49.1.44.99_hc0.51.48.0.51.48_hd38.1.40.40_ia_if_ib_id_ic_jc_ie_ja_jb_jd_je_jf_jg_ka32.CE57A8.CE57A8.0.0_kb22.CE57A8.CE57A8.0_kc_kd_ke_kf_la_lb_oa_os_ob_oc_od_oe_of_lc_m00_n00_s00_og_oh_oo_op_oq_or_om_on_ok_ol_oi_oj_ad0.0.0.0.0.0.0.0.0.0
2-shocked=40**aa6.95.1.26.50.6.68.1.26.50_ab_ac_ba50_bb5.1_bc237.500.8.0.1_bd5_be180_ca62.0.40.62.30.34.34.0.15_cb0_da1.0.0.100_db_dd9.3.41.50.45_dh1.35.50.50.2_di5_qa_qb_dc9.1.1.1.1_eh4.df6f1d_ea2.df6f1d.DF6F1D.ffac4f.1.0_ec6.43.df6f1d.df6f1d.ffac4f.40.64.1_ed28.100.1.1.df6f1d.ffac4f_ef_eg_r0_fa12.55.58.70.50.65.56_fb_fh_fc2.1d7b2d.55.2.1d7b2d.55.50.61.61.50.50.50_fd1.0.50.df6f1d.56_fe80.64_ff0000000000_fg1.50_pa0.0.0.0.40.50.85.85.0.0_t0_pb_pc_pd_pe_ga0_gb1_gc25.0_ge0000000000_gh_gf_gg_gd10100000_ha100.100_hb49.1.40.70_hc0.51.50.0.51.50_hd40.1.49.49_ia_if_ib_id_ic_jc_ie_ja_jb_jd_je_jf_jg_ka32.CE57A8.CE57A8.0.0_kb22.CE57A8.CE57A8.0_kc_kd_ke_kf_la_lb_oa_os_ob_oc_od_oe_of_lc_m0_n0_s0_og_oh_oo_op_oq_or_om_on_ok_ol_oi_oj_ad0.0.0.0.0.0.0.0.0.0
2-horny=40**aa26.80.0.0.85.6.0.0.16.50_ab_ac_ba50_bb6.1_bc325.500.8.0.1_bd6_be180_ca62.0.40.62.30.34.34.0.15_cb0_da1.0.0.100_db_dd9.3.41.50.45_dh1.35.50.50.2_di5_qa_qb_dc9.1.1.1.1_eh4.df6f1d_ea2.df6f1d.DF6F1D.ffac4f.1.0_ec6.43.df6f1d.df6f1d.ffac4f.40.64.1_ed28.100.1.1.df6f1d.ffac4f_ef_eg_r0_fa12.55.58.70.50.65.56_fb_fh_fc2.1d7b2d.55.2.1d7b2d.55.50.61.61.50.50.50_fd1.0.50.df6f1d.56_fe80.64_ff0000000000_fg1.50_pa0.0.0.0.40.50.85.85.0.0_t0_pb_pc_pd_pe_ga0_gb1_gc25.0_ge0000000000_gh_gf_gg_gd10100000_ha75.75_hb49.1.50.99_hc0.51.25.0.51.25_hd17.1.49.49_ia_if_ib_id_ic_jc_ie_ja_jb_jd_je_jf_jg_ka32.CE57A8.CE57A8.1.0_kb22.CE57A8.CE57A8.1_kc_kd_ke_kf_la_lb_oa_os_ob_oc_od_oe_of_lc_m0_n0_s00.9e5717.9E5717.56.0.66.16.4890.7430.0.10.0.93.2.61_s10.9e5717.9E5717.56.1.0.164.4960.7410.1.11.0.100.2.61_s214.61.61.56.0.41.0.5010.7430.1.4.0.41.0.471b5a_og_oh_oo_op_oq_or_om_on_ok_ol_oi_oj_ad0.0.0.0.0.0.0.0.0.0
2-awkward=40**aa7.95.1.16.50.82.35.0.16.50_ab_ac_ba50_bb5.1_bc412.500.8.0.1_bd5_be180_ca62.0.40.62.30.34.34.0.15_cb0_da1.0.0.100_db_dd9.3.41.50.45_dh1.35.50.50.2_di5_qa_qb_dc9.1.1.1.1_eh4.df6f1d_ea2.df6f1d.DF6F1D.ffac4f.1.0_ec6.43.df6f1d.df6f1d.ffac4f.40.64.1_ed28.100.1.1.df6f1d.ffac4f_ef_eg_r0_fa12.55.58.70.50.65.56_fb_fh_fc2.1d7b2d.55.2.1d7b2d.55.50.61.61.50.50.50_fd1.0.50.df6f1d.56_fe80.64_ff0000000000_fg1.50_pa0.0.0.0.40.50.85.85.0.0_t0_pb_pc_pd_pe_ga0_gb1_gc15.0_ge0000000000_gh_gf_gg_gd10100000_ha83.83_hb100.1.44.99_hc0.51.48.0.51.48_hd4.1.40.40_ia_if_ib_id_ic_jc_ie_ja_jb_jd_je_jf_jg_ka32.CE57A8.CE57A8.0.0_kb22.CE57A8.CE57A8.0_kc_kd_ke_kf_la_lb_oa_os_ob_oc_od_oe_of_lc_m0_n0_s0_og_oh_oo_op_oq_or_om_on_ok_ol_oi_oj_ad0.0.0.0.0.0.0.0.0.0
2-strip=40**aa34.64.0.4.40.34.64.0.45.56_ab_ac_ba50_bb5.1_bc500.500.8.0.1_bd5_be180_ca62.0.40.62.30.34.34.0.15_cb0_da1.0.0.100_db_dd10.3.41.50.45_dh1.35.50.50.2_di5_qa_qb_dc9.1.1.1.1_eh4.df6f1d_ea2.df6f1d.DF6F1D.ffac4f.1.0_ec6.43.df6f1d.df6f1d.ffac4f.40.64.1_ed28.100.1.1.df6f1d.ffac4f_ef_eg_r0_fa12.55.58.70.50.65.56_fb_fh_fc2.1d7b2d.55.2.1d7b2d.55.50.61.61.50.50.50_fd1.0.50.df6f1d.56_fe80.64_ff0000000000_fg1.50_pa0.0.0.0.40.50.85.85.0.0_t0_pb_pc_pd_pe_ga0_gb1_gc35.0_ge0000000000_gh_gf_gg_gd10100000_ha95.95_hb50.1.0.93_hc0.40.22.0.40.22_hd4.1.35.35_ia_if_ib_id_ic_jc_ie_ja_jb_jd_je_jf_jg_ka32.CE57A8.CE57A8.0.0_kb22.CE57A8.CE57A8.0_kc_kd_ke_kf_la_lb_oa_os_ob_oc_od_oe_of_lc_m0_n0_s0_og_oh_oo_op_oq_or_om_on_ok_ol_oi_oj_ad0.0.0.0.0.0.0.0.0.0
3-stripped=40**aa26.80.0.0.85.14.72.1.3.35_ab_ac_ba50_bb6.0_bc587.500.8.0.1_bd6_be180_ca62.0.40.62.30.34.34.0.15_cb0_da1.0.0.100_db_dd10.3.41.50.45_dh1.35.50.50.2_di5_qa_qb_dc9.1.1.1.1_eh4.df6f1d_ea2.df6f1d.DF6F1D.ffac4f.1.0_ec6.43.df6f1d.df6f1d.ffac4f.40.64.1_ed28.100.1.1.df6f1d.ffac4f_ef_eg_r0_fa12.55.58.70.50.65.56_fb_fh_fc2.1d7b2d.55.2.1d7b2d.55.50.61.61.50.50.50_fd1.0.50.df6f1d.56_fe80.64_ff0000000000_fg1.50_pa0.0.0.0.40.50.85.85.0.0_t0_pb_pc_pd_pe_ga0_gb1_gc50.0_ge0000000000_gh_gf_gg_gd10100000_ha78.78_hb50.1.45.93_hc0.49.12.0.49.12_hd16.1.35.35_ia_if_ib_id_ic_jc_ie_ja_jb_jd_je_jf_jg_ka_kb22.CE57A8.CE57A8.0_kc_kd_ke_kf_la_lb_oa_os_ob_oc_od_oe_of_lc_m0_n0_s0_og_oh_oo_op_oq_or_om_on_ok_ol_oi_oj_ad0.0.0.0.0.0.0.0.0.0


3-calm=40**aa7.68.1.16.50.7.68.1.16.50_ab_ac_ba50_bb5.1_bc150.500.8.0.1_bd5_be180_ca62.0.40.62.30.34.34.0.15_cb0_da1.0.0.100_db_dd10.3.41.50.45_dh1.35.50.50.2_di5_qa_qb_dc9.1.1.1.1_eh4.df6f1d_ea2.df6f1d.DF6F1D.ffac4f.1.0_ec6.43.df6f1d.df6f1d.ffac4f.40.64.1_ed28.100.1.1.df6f1d.ffac4f_ef_eg_r0_fa12.55.58.70.50.65.56_fb_fh_fc2.1d7b2d.55.2.1d7b2d.55.50.61.61.50.50.50_fd1.0.50.df6f1d.56_fe80.64_ff0000000000_fg1.50_pa0.0.0.0.40.50.85.85.0.0_t0_pb_pc_pd_pe_ga0_gb1_gc40.0_ge0000000000_gh_gf_gg_gd10100000_ha90.90_hb49.1.44.99_hc0.51.25.0.51.25_hd0.1.49.49_ia_if_ib_id_ic_jc_ie_ja_jb_jd_je_jf_jg_ka_kb22.CE57A8.CE57A8.0_kc_kd_ke_kf_la_lb_oa_os_ob_oc_od_oe_of_lc_m0_n0_s0_og_oh_oo_op_oq_or_om_on_ok_ol_oi_oj_ad0.0.0.0.0.0.0.0.0.0
3-interested=40**aa7.69.1.16.54.7.69.1.16.54_ab_ac_ba50_bb5.1_bc237.500.8.0.1_bd5_be180_ca62.0.40.62.30.34.34.0.15_cb0_da1.0.0.100_db_dd12.3.41.50.45_dh1.35.50.50.2_di5_qa_qb_dc9.1.1.1.1_eh4.df6f1d_ea2.df6f1d.DF6F1D.ffac4f.1.0_ec6.43.df6f1d.df6f1d.ffac4f.40.64.1_ed28.100.1.1.df6f1d.ffac4f_ef_eg_r0_fa12.55.58.70.50.65.56_fb_fh_fc2.1d7b2d.55.2.1d7b2d.55.50.61.61.50.50.50_fd1.0.50.df6f1d.56_fe80.64_ff0000000000_fg1.50_pa0.0.0.0.40.50.85.85.0.0_t0_pb_pc_pd_pe_ga0_gb1_gc55.0_ge0000000000_gh_gf_gg_gd10100000_ha80.80_hb49.1.44.99_hc0.50.25.0.50.25_hd16.1.50.48_ia_if_ib_id_ic_jc_ie_ja_jb_jd_je_jf_jg_ka_kb22.CE57A8.CE57A8.0_kc_kd_ke_kf_la_lb_oa_os_ob_oc_od_oe_of_lc_m0_n0_s0_og_oh_oo_op_oq_or_om_on_ok_ol_oi_oj_ad0.0.0.0.0.0.0.0.0.0
3-excited=40**aa13.43.0.16.55.13.43.0.16.55_ab_ac_ba50_bb6.1_bc325.500.8.0.1_bd6_be180_ca62.0.40.62.30.34.34.0.15_cb0_da1.0.0.100_db_dd10.3.41.50.45_dh1.35.50.50.2_di5_qa_qb_dc9.1.1.1.1_eh4.df6f1d_ea2.df6f1d.DF6F1D.ffac4f.1.0_ec6.43.df6f1d.df6f1d.ffac4f.40.64.1_ed28.100.1.1.df6f1d.ffac4f_ef_eg_r0_fa12.55.58.70.50.65.56_fb_fh_fc2.1d7b2d.55.2.1d7b2d.55.50.61.61.50.50.50_fd1.0.50.df6f1d.56_fe80.64_ff0000000000_fg1.50_pa0.0.0.0.40.50.85.85.0.0_t0_pb_pc_pd_pe_ga0_gb1_gc40.0_ge0000000000_gh_gf_gg_gd10100000_ha100.100_hb49.1.44.99_hc0.51.25.0.51.25_hd34.1.49.49_ia_if_ib_id_ic_jc_ie_ja_jb_jd_je_jf_jg_ka_kb22.CE57A8.CE57A8.0_kc_kd_ke_kf_la_lb_oa_os_ob_oc_od_oe_of_lc_m0_n0_s0_og_oh_oo_op_oq_or_om_on_ok_ol_oi_oj_ad0.0.0.0.0.0.0.0.0.0
3-happy=40**aa7.68.1.16.50.7.68.1.16.50_ab_ac_ba50_bb6.1_bc412.500.8.0.1_bd6_be180_ca62.0.40.62.30.34.34.0.15_cb0_da1.0.0.100_db_dd10.3.41.50.45_dh1.35.50.50.2_di5_qa_qb_dc9.1.1.1.1_eh4.df6f1d_ea2.df6f1d.DF6F1D.ffac4f.1.0_ec6.43.df6f1d.df6f1d.ffac4f.40.64.1_ed28.100.1.1.df6f1d.ffac4f_ef_eg_r0_fa12.55.58.70.50.65.56_fb_fh_fc2.1d7b2d.55.2.1d7b2d.55.50.61.61.50.50.50_fd1.0.50.df6f1d.56_fe80.64_ff0000000000_fg1.50_pa0.0.0.0.40.50.85.85.0.0_t0_pb_pc_pd_pe_ga0_gb1_gc40.0_ge0000000000_gh_gf_gg_gd10100000_ha95.95_hb49.1.44.99_hc0.51.25.0.51.25_hd34.1.49.49_ia_if_ib_id_ic_jc_ie_ja_jb_jd_je_jf_jg_ka_kb22.CE57A8.CE57A8.0_kc_kd_ke_kf_la_lb_oa_os_ob_oc_od_oe_of_lc_m0_n0_s0_og_oh_oo_op_oq_or_om_on_ok_ol_oi_oj_ad0.0.0.0.0.0.0.0.0.0
3-sad=40**aa7.68.1.16.50.7.68.1.16.50_ab_ac_ba50_bb5.1_bc500.500.8.0.1_bd5_be180_ca62.0.40.62.30.34.34.0.15_cb0_da1.0.0.100_db_dd10.3.41.50.45_dh1.35.50.50.2_di5_qa_qb_dc9.1.1.1.1_eh4.df6f1d_ea2.df6f1d.DF6F1D.ffac4f.1.0_ec6.43.df6f1d.df6f1d.ffac4f.40.64.1_ed28.100.1.1.df6f1d.ffac4f_ef_eg_r0_fa12.55.58.70.50.65.56_fb_fh_fc2.1d7b2d.55.2.1d7b2d.55.50.61.61.50.50.50_fd1.0.50.df6f1d.56_fe80.64_ff0000000000_fg1.50_pa0.0.0.0.40.50.85.85.0.0_t0_pb_pc_pd_pe_ga0_gb1_gc40.0_ge0000000000_gh_gf_gg_gd10100000_ha90.90_hb100.1.40.99_hc0.80.25.0.80.25_hd5.1.49.49_ia_if_ib_id_ic_jc_ie_ja_jb_jd_je_jf_jg_ka_kb22.CE57A8.CE57A8.0_kc_kd_ke_kf_la_lb_oa_os_ob_oc_od_oe_of_lc_m0_n0_s0_og_oh_oo_op_oq_or_om_on_ok_ol_oi_oj_ad0.0.0.0.0.0.0.0.0.0
3-angry=40**aa33.79.0.16.24.9.67.1.16.44_ab_ac_ba50_bb5.1_bc587.500.8.0.1_bd5_be180_ca62.0.40.62.30.34.34.0.15_cb0_da1.0.0.100_db_dd10.3.41.50.45_dh1.35.50.50.2_di5_qa_qb_dc9.1.1.1.1_eh4.df6f1d_ea2.df6f1d.DF6F1D.ffac4f.1.0_ec6.43.df6f1d.df6f1d.ffac4f.40.64.1_ed28.100.1.1.df6f1d.ffac4f_ef_eg_r0_fa12.55.58.70.50.65.56_fb_fh_fc2.1d7b2d.55.2.1d7b2d.55.50.61.61.50.50.50_fd1.0.50.df6f1d.56_fe80.64_ff0000000000_fg1.50_pa0.0.0.0.40.50.85.85.0.0_t0_pb_pc_pd_pe_ga0_gb1_gc40.0_ge0000000000_gh_gf_gg_gd10100000_ha90.90_hb49.1.44.99_hc1.35.0.1.35.0_hd4.1.49.49_ia_if_ib_id_ic_jc_ie_ja_jb_jd_je_jf_jg_ka_kb22.CE57A8.CE57A8.0_kc_kd_ke_kf_la_lb_oa_os_ob_oc_od_oe_of_lc_m0_n0_s0_og_oh_oo_op_oq_or_om_on_ok_ol_oi_oj_ad0.0.0.0.0.0.0.0.0.0
3-stunned=40**aa7.75.1.16.50.7.75.1.16.50_ab_ac_ba50_bb5.1_bc150.500.8.0.1_bd5_be180_ca62.0.40.62.30.34.34.0.15_cb0_da1.0.0.100_db_dd10.3.41.50.45_dh1.35.50.50.2_di5_qa_qb_dc9.1.1.1.1_eh4.df6f1d_ea2.df6f1d.DF6F1D.ffac4f.1.0_ec6.43.df6f1d.df6f1d.ffac4f.40.64.1_ed28.100.1.1.df6f1d.ffac4f_ef_eg_r0_fa12.55.58.70.50.65.56_fb_fh_fc2.1d7b2d.55.2.1d7b2d.55.50.61.61.50.50.50_fd1.0.50.df6f1d.56_fe80.64_ff0000000000_fg1.50_pa0.0.0.0.40.50.85.85.0.0_t0_pb_pc_pd_pe_ga0_gb1_gc40.0_ge0000000000_gh_gf_gg_gd10100000_ha100.100_hb49.1.44.99_hc0.51.48.0.51.48_hd38.1.40.40_ia_if_ib_id_ic_jc_ie_ja_jb_jd_je_jf_jg_ka_kb22.CE57A8.CE57A8.0_kc_kd_ke_kf_la_lb_oa_os_ob_oc_od_oe_of_lc_m0_n0_s0_og_oh_oo_op_oq_or_om_on_ok_ol_oi_oj_ad0.0.0.0.0.0.0.0.0.0
3-shocked=40**aa7.70.1.26.50.7.70.1.26.50_ab_ac_ba50_bb5.1_bc237.500.8.0.1_bd5_be180_ca62.0.40.62.30.34.34.0.15_cb0_da1.0.0.100_db_dd10.3.41.50.45_dh1.35.50.50.2_di5_qa_qb_dc9.1.1.1.1_eh4.df6f1d_ea2.df6f1d.DF6F1D.ffac4f.1.0_ec6.43.df6f1d.df6f1d.ffac4f.40.64.1_ed28.100.1.1.df6f1d.ffac4f_ef_eg_r0_fa12.55.58.70.50.65.56_fb_fh_fc2.1d7b2d.55.2.1d7b2d.55.50.61.61.50.50.50_fd1.0.50.df6f1d.56_fe80.64_ff0000000000_fg1.50_pa0.0.0.0.40.50.85.85.0.0_t0_pb_pc_pd_pe_ga0_gb1_gc40.0_ge0000000000_gh_gf_gg_gd10100000_ha100.100_hb49.1.40.70_hc0.51.50.0.51.50_hd40.1.49.49_ia_if_ib_id_ic_jc_ie_ja_jb_jd_je_jf_jg_ka_kb22.CE57A8.CE57A8.0_kc_kd_ke_kf_la_lb_oa_os_ob_oc_od_oe_of_lc_m0_n0_s0_og_oh_oo_op_oq_or_om_on_ok_ol_oi_oj_ad0.0.0.0.0.0.0.0.0.0
3-horny=40**aa26.80.0.0.85.6.0.0.16.50_ab_ac_ba50_bb6.1_bc325.500.8.0.1_bd6_be180_ca62.0.40.62.30.34.34.0.15_cb0_da1.0.0.100_db_dd12.3.41.50.45_dh1.35.50.50.2_di5_qa_qb_dc9.1.1.1.1_eh4.df6f1d_ea2.df6f1d.DF6F1D.ffac4f.1.0_ec6.43.df6f1d.df6f1d.ffac4f.40.64.1_ed28.100.1.1.df6f1d.ffac4f_ef_eg_r0_fa12.55.58.70.50.65.56_fb_fh_fc2.1d7b2d.55.2.1d7b2d.55.50.61.61.50.50.50_fd1.0.50.df6f1d.56_fe80.64_ff0000000000_fg1.50_pa0.0.0.0.40.50.85.85.0.0_t0_pb_pc_pd_pe_ga0_gb1_gc50.0_ge0000000000_gh_gf_gg_gd10100000_ha75.75_hb49.1.50.99_hc0.51.25.0.51.25_hd17.1.49.49_ia_if_ib_id_ic_jc_ie_ja_jb_jd_je_jf_jg_ka_kb22.CE57A8.CE57A8.0_kc_kd_ke_kf_la_lb_oa_os_ob_oc_od_oe_of_lc_m0_n0_s0_og_oh_oo_op_oq_or_om_on_ok_ol_oi_oj_ad0.0.0.0.0.0.0.0.0.0
3-awkward=40**aa7.95.1.16.50.6.66.0.16.50_ab_ac_ba50_bb5.1_bc412.500.8.0.1_bd5_be180_ca62.0.40.62.30.34.34.0.15_cb0_da1.0.0.100_db_dd10.3.41.50.45_dh1.35.50.50.2_di5_qa_qb_dc9.1.1.1.1_eh4.df6f1d_ea2.df6f1d.DF6F1D.ffac4f.1.0_ec6.43.df6f1d.df6f1d.ffac4f.40.64.1_ed28.100.1.1.df6f1d.ffac4f_ef_eg_r0_fa12.55.58.70.50.65.56_fb_fh_fc2.1d7b2d.55.2.1d7b2d.55.50.61.61.50.50.50_fd1.0.50.df6f1d.56_fe80.64_ff0000000000_fg1.50_pa0.0.0.0.40.50.85.85.0.0_t0_pb_pc_pd_pe_ga0_gb1_gc40.0_ge0000000000_gh_gf_gg_gd10100000_ha83.83_hb100.1.44.99_hc0.51.48.0.51.48_hd4.1.40.40_ia_if_ib_id_ic_jc_ie_ja_jb_jd_je_jf_jg_ka_kb22.CE57A8.CE57A8.0_kc_kd_ke_kf_la_lb_oa_os_ob_oc_od_oe_of_lc_m0_n0_s0_og_oh_oo_op_oq_or_om_on_ok_ol_oi_oj_ad0.0.0.0.0.0.0.0.0.0
3-strip=40**aa26.84.1.6.48.26.84.1.6.48_ab_ac_ba50_bb4.1_bc500.500.8.0.1_bd4_be180_ca62.0.40.62.30.34.34.0.15_cb0_da1.0.0.100_db_dd13.3.41.50.45_dh1.35.50.50.2_di5_qa_qb_dc9.1.1.1.1_eh4.df6f1d_ea2.df6f1d.DF6F1D.ffac4f.1.0_ec6.43.df6f1d.df6f1d.ffac4f.40.64.1_ed28.100.1.1.df6f1d.ffac4f_ef_eg_r0_fa12.55.58.70.50.65.56_fb_fh_fc2.1d7b2d.55.2.1d7b2d.55.50.61.61.50.50.50_fd1.0.50.df6f1d.56_fe80.64_ff0000000000_fg1.50_pa0.0.0.0.40.50.85.85.0.0_t0_pb_pc_pd_pe_ga0_gb1_gc65.0_ge0000000000_gh_gf_gg_gd10100000_ha34.34_hb50.1.0.72_hc0.40.22.0.40.22_hd9.1.35.35_ia_if_ib_id_ic_jc_ie_ja_jb_jd_je_jf_jg_ka_kb22.CE57A8.CE57A8.0_kc_kd_ke_kf_la_lb_oa_os_ob_oc_od_oe_of_lc_m0_n0_s0_og_oh_oo_op_oq_or_om_on_ok_ol_oi_oj_ad0.0.0.0.0.0.0.0.0.0
4-stripped=40**aa6.92.1.16.36.6.92.1.16.36_ab_ac_ba50_bb5.0_bc800.500.8.0.1_bd5_be180_ca62.0.40.62.30.34.34.0.15_cb0_da1.0.0.100_db_dd13.3.41.50.45_dh1.35.50.50.2_di5_qa_qb_dc9.1.1.1.1_eh4.df6f1d_ea2.df6f1d.DF6F1D.ffac4f.1.0_ec6.43.df6f1d.df6f1d.ffac4f.40.64.1_ed28.100.1.1.df6f1d.ffac4f_ef_eg_r0_fa12.55.58.70.50.65.56_fb_fh_fc2.1d7b2d.55.2.1d7b2d.55.50.61.61.50.50.50_fd1.0.50.df6f1d.56_fe80.64_ff0000000000_fg1.50_pa0.0.0.0.40.50.85.85.0.0_t0_pb_pc_pd_pe_ga0_gb1_gc65.0_ge0000000000_gh_gf_gg_gd10100000_ha78.78_hb50.1.45.90_hc0.49.12.0.49.12_hd5.1.35.35_ia_if_ib_id_ic_jc_ie_ja_jb_jd_je_jf_jg_ka_kb_kc_kd_ke_kf_la_lb_oa_os_ob_oc_od_oe_of_lc_m0_n0_s0_og_oh_oo_op_oq_or_om_on_ok_ol_oi_oj_ad0.0.0.0.0.0.0.0.0.0


4-calm=40**aa6.93.1.28.40.7.67.1.16.50_ab_ac_ba50_bb5.1_bc200.500.8.0.1_bd5_be180_ca62.0.40.62.30.34.34.0.15_cb0_da1.0.0.100_db_dd13.3.41.50.45_dh1.35.50.50.2_di5_qa_qb_dc9.1.1.1.1_eh4.df6f1d_ea2.df6f1d.DF6F1D.ffac4f.1.0_ec6.43.df6f1d.df6f1d.ffac4f.40.64.1_ed28.100.1.1.df6f1d.ffac4f_ef_eg_r0_fa12.55.58.70.50.65.56_fb_fh_fc2.1d7b2d.55.2.1d7b2d.55.50.61.61.50.50.50_fd1.0.50.df6f1d.56_fe80.64_ff0000000000_fg1.50_pa0.0.0.0.40.50.85.85.0.0_t0_pb_pc_pd_pe_ga0_gb1_gc65.0_ge0000000000_gh_gf_gg_gd10100000_ha90.90_hb49.1.44.99_hc0.51.25.0.51.25_hd0.1.49.49_ia_if_ib_id_ic_jc_ie_ja_jb_jd_je_jf_jg_ka_kb_kc_kd_ke_kf_la_lb_oa_os_ob_oc_od_oe_of_lc_m0_n0_s0_og_oh_oo_op_oq_or_om_on_ok_ol_oi_oj_ad0.0.0.0.0.0.0.0.0.0
4-interested=40**aa6.93.1.28.60.7.70.1.16.44_ab_ac_ba50_bb5.1_bc320.500.8.0.1_bd5_be180_ca62.0.40.62.30.34.34.0.15_cb0_da1.0.0.100_db_dd13.3.41.50.45_dh1.35.50.50.2_di5_qa_qb_dc9.1.1.1.1_eh4.df6f1d_ea2.df6f1d.DF6F1D.ffac4f.1.0_ec6.43.df6f1d.df6f1d.ffac4f.40.64.1_ed28.100.1.1.df6f1d.ffac4f_ef_eg_r0_fa12.55.58.70.50.65.56_fb_fh_fc2.1d7b2d.55.2.1d7b2d.55.50.61.61.50.50.50_fd1.0.50.df6f1d.56_fe80.64_ff0000000000_fg1.50_pa0.0.0.0.40.50.85.85.0.0_t0_pb_pc_pd_pe_ga0_gb1_gc65.0_ge0000000000_gh_gf_gg_gd10100000_ha80.80_hb49.1.44.99_hc0.50.25.0.50.25_hd16.1.50.48_ia_if_ib_id_ic_jc_ie_ja_jb_jd_je_jf_jg_ka_kb_kc_kd_ke_kf_la_lb_oa_os_ob_oc_od_oe_of_lc_m0_n0_s0_og_oh_oo_op_oq_or_om_on_ok_ol_oi_oj_ad0.0.0.0.0.0.0.0.0.0
4-excited=40**aa13.43.0.16.55.13.43.0.16.55_ab_ac_ba50_bb6.1_bc440.500.8.0.1_bd6_be180_ca62.0.40.62.30.34.34.0.15_cb0_da1.0.0.100_db_dd10.3.41.50.45_dh1.35.50.50.2_di5_qa_qb_dc9.1.1.1.1_eh4.df6f1d_ea2.df6f1d.DF6F1D.ffac4f.1.0_ec6.43.df6f1d.df6f1d.ffac4f.40.64.1_ed28.100.1.1.df6f1d.ffac4f_ef_eg_r0_fa12.55.58.70.50.65.56_fb_fh_fc2.1d7b2d.55.2.1d7b2d.55.50.61.61.50.50.50_fd1.0.50.df6f1d.56_fe80.64_ff0000000000_fg1.50_pa0.0.0.0.40.50.85.85.0.0_t0_pb_pc_pd_pe_ga0_gb1_gc40.0_ge0000000000_gh_gf_gg_gd10100000_ha100.100_hb49.1.44.99_hc0.51.25.0.51.25_hd34.1.49.49_ia_if_ib_id_ic_jc_ie_ja_jb_jd_je_jf_jg_ka_kb_kc_kd_ke_kf_la_lb_oa_os_ob_oc_od_oe_of_lc_m0_n0_s0_og_oh_oo_op_oq_or_om_on_ok_ol_oi_oj_ad0.0.0.0.0.0.0.0.0.0
4-happy=40**aa7.92.1.16.33.7.92.1.16.33_ab_ac_ba50_bb6.1_bc560.500.8.0.1_bd6_be180_ca62.0.40.62.30.34.34.0.15_cb0_da1.0.0.100_db_dd13.3.41.50.45_dh1.35.50.50.2_di5_qa_qb_dc9.1.1.1.1_eh4.df6f1d_ea2.df6f1d.DF6F1D.ffac4f.1.0_ec6.43.df6f1d.df6f1d.ffac4f.40.64.1_ed28.100.1.1.df6f1d.ffac4f_ef_eg_r0_fa12.55.58.70.50.65.56_fb_fh_fc2.1d7b2d.55.2.1d7b2d.55.50.61.61.50.50.50_fd1.0.50.df6f1d.56_fe80.64_ff0000000000_fg1.50_pa0.0.0.0.40.50.85.85.0.0_t0_pb_pc_pd_pe_ga0_gb1_gc65.0_ge0000000000_gh_gf_gg_gd10100000_ha95.95_hb49.1.44.99_hc0.51.25.0.51.25_hd34.1.49.49_ia_if_ib_id_ic_jc_ie_ja_jb_jd_je_jf_jg_ka_kb_kc_kd_ke_kf_la_lb_oa_os_ob_oc_od_oe_of_lc_m0_n0_s0_og_oh_oo_op_oq_or_om_on_ok_ol_oi_oj_ad0.0.0.0.0.0.0.0.0.0
4-sad=40**aa6.93.1.28.40.7.67.1.16.50_ab_ac_ba50_bb5.1_bc680.500.8.0.1_bd5_be180_ca62.0.40.62.30.34.34.0.15_cb0_da1.0.0.100_db_dd13.3.41.50.45_dh1.35.50.50.2_di5_qa_qb_dc9.1.1.1.1_eh4.df6f1d_ea2.df6f1d.DF6F1D.ffac4f.1.0_ec6.43.df6f1d.df6f1d.ffac4f.40.64.1_ed28.100.1.1.df6f1d.ffac4f_ef_eg_r0_fa12.55.58.70.50.65.56_fb_fh_fc2.1d7b2d.55.2.1d7b2d.55.50.61.61.50.50.50_fd1.0.50.df6f1d.56_fe80.64_ff0000000000_fg1.50_pa0.0.0.0.40.50.85.85.0.0_t0_pb_pc_pd_pe_ga0_gb1_gc65.0_ge0000000000_gh_gf_gg_gd10100000_ha90.90_hb100.1.40.99_hc0.80.25.0.80.25_hd5.1.49.49_ia_if_ib_id_ic_jc_ie_ja_jb_jd_je_jf_jg_ka_kb_kc_kd_ke_kf_la_lb_oa_os_ob_oc_od_oe_of_lc_m0_n0_s0_og_oh_oo_op_oq_or_om_on_ok_ol_oi_oj_ad0.0.0.0.0.0.0.0.0.0
4-angry=40**aa33.79.0.16.24.9.90.1.28.60_ab_ac_ba50_bb5.1_bc800.500.8.0.1_bd5_be180_ca62.0.40.62.30.34.34.0.15_cb0_da1.0.0.100_db_dd13.3.41.50.45_dh1.35.50.50.2_di5_qa_qb_dc9.1.1.1.1_eh4.df6f1d_ea2.df6f1d.DF6F1D.ffac4f.1.0_ec6.43.df6f1d.df6f1d.ffac4f.40.64.1_ed28.100.1.1.df6f1d.ffac4f_ef_eg_r0_fa12.55.58.70.50.65.56_fb_fh_fc2.1d7b2d.55.2.1d7b2d.55.50.61.61.50.50.50_fd1.0.50.df6f1d.56_fe80.64_ff0000000000_fg1.50_pa0.0.0.0.40.50.85.85.0.0_t0_pb_pc_pd_pe_ga0_gb1_gc65.0_ge0000000000_gh_gf_gg_gd10100000_ha90.90_hb49.1.44.99_hc1.35.0.1.35.0_hd4.1.49.49_ia_if_ib_id_ic_jc_ie_ja_jb_jd_je_jf_jg_ka_kb_kc_kd_ke_kf_la_lb_oa_os_ob_oc_od_oe_of_lc_m0_n0_s0_og_oh_oo_op_oq_or_om_on_ok_ol_oi_oj_ad0.0.0.0.0.0.0.0.0.0
4-stunned=40**aa7.94.1.16.50.7.94.1.16.50_ab_ac_ba50_bb5.1_bc200.500.8.0.1_bd5_be180_ca62.0.40.62.30.34.34.0.15_cb0_da1.0.0.100_db_dd13.3.41.50.45_dh1.35.50.50.2_di5_qa_qb_dc9.1.1.1.1_eh4.df6f1d_ea2.df6f1d.DF6F1D.ffac4f.1.0_ec6.43.df6f1d.df6f1d.ffac4f.40.64.1_ed28.100.1.1.df6f1d.ffac4f_ef_eg_r0_fa12.55.58.70.50.65.56_fb_fh_fc2.1d7b2d.55.2.1d7b2d.55.50.61.61.50.50.50_fd1.0.50.df6f1d.56_fe80.64_ff0000000000_fg1.50_pa0.0.0.0.40.50.85.85.0.0_t0_pb_pc_pd_pe_ga0_gb1_gc60.0_ge0000000000_gh_gf_gg_gd10100000_ha100.100_hb49.1.44.99_hc0.51.48.0.51.48_hd38.1.40.40_ia_if_ib_id_ic_jc_ie_ja_jb_jd_je_jf_jg_ka_kb_kc_kd_ke_kf_la_lb_oa_os_ob_oc_od_oe_of_lc_m0_n0_s0_og_oh_oo_op_oq_or_om_on_ok_ol_oi_oj_ad0.0.0.0.0.0.0.0.0.0
4-shocked=40**aa7.70.1.26.50.7.92.1.26.50_ab_ac_ba50_bb5.1_bc320.500.8.0.1_bd5_be180_ca62.0.40.62.30.34.34.0.15_cb0_da1.0.0.100_db_dd13.3.41.50.45_dh1.35.50.50.2_di5_qa_qb_dc9.1.1.1.1_eh4.df6f1d_ea2.df6f1d.DF6F1D.ffac4f.1.0_ec6.43.df6f1d.df6f1d.ffac4f.40.64.1_ed28.100.1.1.df6f1d.ffac4f_ef_eg_r0_fa12.55.58.70.50.65.56_fb_fh_fc2.1d7b2d.55.2.1d7b2d.55.50.61.61.50.50.50_fd1.0.50.df6f1d.56_fe80.64_ff0000000000_fg1.50_pa0.0.0.0.40.50.85.85.0.0_t0_pb_pc_pd_pe_ga0_gb1_gc60.0_ge0000000000_gh_gf_gg_gd10100000_ha100.100_hb49.1.40.70_hc0.51.50.0.51.50_hd40.1.49.49_ia_if_ib_id_ic_jc_ie_ja_jb_jd_je_jf_jg_ka_kb_kc_kd_ke_kf_la_lb_oa_os_ob_oc_od_oe_of_lc_m0_n0_s0_og_oh_oo_op_oq_or_om_on_ok_ol_oi_oj_ad0.0.0.0.0.0.0.0.0.0
4-horny=40**aa26.80.0.0.85.6.0.0.16.50_ab_ac_ba50_bb6.1_bc440.500.8.0.1_bd6_be180_ca62.0.40.62.30.34.34.0.15_cb0_da1.0.0.100_db_dd13.3.41.50.45_dh1.35.50.50.2_di5_qa_qb_dc9.1.1.1.1_eh4.df6f1d_ea2.df6f1d.DF6F1D.ffac4f.1.0_ec6.43.df6f1d.df6f1d.ffac4f.40.64.1_ed28.100.1.1.df6f1d.ffac4f_ef_eg_r0_fa12.55.58.70.50.65.56_fb_fh_fc2.1d7b2d.55.2.1d7b2d.55.50.61.61.50.50.50_fd1.0.50.df6f1d.56_fe80.64_ff0000000000_fg1.50_pa0.0.0.0.40.50.85.85.0.0_t0_pb_pc_pd_pe_ga0_gb1_gc60.0_ge0000000000_gh_gf_gg_gd10100000_ha75.75_hb49.1.50.99_hc0.51.25.0.51.25_hd17.1.49.49_ia_if_ib_id_ic_jc_ie_ja_jb_jd_je_jf_jg_ka_kb_kc_kd_ke_kf_la_lb_oa_os_ob_oc_od_oe_of_lc_m0_n0_s0_og_oh_oo_op_oq_or_om_on_ok_ol_oi_oj_ad0.0.0.0.0.0.0.0.0.0
4-awkward=40**aa7.92.1.16.50.6.66.0.16.50_ab_ac_ba50_bb5.1_bc560.500.8.0.1_bd5_be180_ca62.0.40.62.30.34.34.0.15_cb0_da1.0.0.100_db_dd13.3.41.50.45_dh1.35.50.50.2_di5_qa_qb_dc9.1.1.1.1_eh4.df6f1d_ea2.df6f1d.DF6F1D.ffac4f.1.0_ec6.43.df6f1d.df6f1d.ffac4f.40.64.1_ed28.100.1.1.df6f1d.ffac4f_ef_eg_r0_fa12.55.58.70.50.65.56_fb_fh_fc2.1d7b2d.55.2.1d7b2d.55.50.61.61.50.50.50_fd1.0.50.df6f1d.56_fe80.64_ff0000000000_fg1.50_pa0.0.0.0.40.50.85.85.0.0_t0_pb_pc_pd_pe_ga0_gb1_gc60.0_ge0000000000_gh_gf_gg_gd10100000_ha83.83_hb100.1.44.99_hc0.51.48.0.51.48_hd4.1.40.40_ia_if_ib_id_ic_jc_ie_ja_jb_jd_je_jf_jg_ka_kb_kc_kd_ke_kf_la_lb_oa_os_ob_oc_od_oe_of_lc_m0_n0_s0_og_oh_oo_op_oq_or_om_on_ok_ol_oi_oj_ad0.0.0.0.0.0.0.0.0.0
4-loss=40**aa7.93.1.16.35.7.92.1.16.36_ab_ac_ba50_bb5.1_bc680.500.8.0.1_bd5_be180_ca62.0.40.62.30.34.34.0.15_cb0_da1.0.0.100_db_dd13.3.41.50.45_dh1.35.50.50.2_di5_qa_qb_dc9.1.1.1.1_eh4.df6f1d_ea2.df6f1d.DF6F1D.ffac4f.1.0_ec6.43.df6f1d.df6f1d.ffac4f.40.64.1_ed28.100.1.1.df6f1d.ffac4f_ef_eg_r0_fa12.55.58.70.50.65.56_fb_fh_fc2.1d7b2d.55.2.1d7b2d.55.50.61.61.50.50.50_fd1.0.50.df6f1d.56_fe80.64_ff0000000000_fg1.50_pa0.0.0.0.40.50.85.85.0.0_t0_pb_pc_pd_pe_ga0_gb1_gc65.0_ge0000000000_gh_gf_gg_gd10100000_ha84.84_hb50.1.40.88_hc0.40.22.0.40.22_hd10.1.35.35_ia_if_ib_id_ic_jc_ie_ja_jb_jd_je_jf_jg_ka_kb_kc_kd_ke_kf_la_lb_oa_os_ob_oc_od_oe_of_lc_m0_n0_s0_og_oh_oo_op_oq_or_om_on_ok_ol_oi_oj_ad0.0.0.0.0.0.0.0.0.0
5-starting=40**aa6.92.1.45.60.6.95.1.26.63_ab_ac_ba50_bb5.0_bc800.500.8.0.1_bd5_be180_ca62.0.40.62.30.34.34.0.15_cb0_da1.0.0.100_db_dd13.3.41.50.45_dh1.35.50.50.2_di5_qa_qb_dc35.1.1.1.1_eh4.df6f1d_ea2.df6f1d.DF6F1D.ffac4f.1.0_ec6.43.df6f1d.df6f1d.ffac4f.40.64.1_ed28.100.1.1.df6f1d.ffac4f_ef_eg_r0_fa12.55.58.70.50.65.56_fb_fh_fc2.1d7b2d.55.2.1d7b2d.55.50.61.61.50.50.50_fd1.0.50.df6f1d.56_fe80.64_ff0000000000_fg1.50_pa0.0.0.0.40.50.85.85.0.0_t0_pb_pc_pd_pe_ga0_gb1_gc65.0_ge0000000000_gh_gf_gg_gd10100000_ha30.30_hb50.1.45.90_hc0.49.12.0.49.12_hd21.1.35.35_ia_if_ib_id_ic_jc_ie_ja_jb_jd_je_jf_jg_ka_kb_kc_kd_ke_kf_la_lb_oa_os_ob_oc_od_oe_of_lc_m0_n0_s0_og_oh_oo_op_oq_or_om_on_ok_ol_oi_oj_ad0.0.0.0.0.0.0.0.0.0


5-calm=40**aa6.93.1.45.60.7.95.1.16.50_ab_ac_ba50_bb5.1_bc200.500.8.0.1_bd5_be180_ca62.0.40.62.30.34.34.0.15_cb0_da1.0.0.100_db_dd13.3.41.50.45_dh1.35.50.50.2_di5_qa_qb_dc65.1.1.1.1_eh4.df6f1d_ea2.df6f1d.DF6F1D.ffac4f.1.0_ec6.43.df6f1d.df6f1d.ffac4f.40.64.1_ed28.100.1.1.df6f1d.ffac4f_ef_eg_r0_fa12.55.58.70.50.65.56_fb_fh_fc2.1d7b2d.55.2.1d7b2d.55.50.61.61.50.50.50_fd1.0.50.df6f1d.56_fe80.64_ff0000000000_fg1.50_pa0.0.0.0.40.50.85.85.0.0_t0_pb_pc_pd_pe_ga0_gb1_gc65.0_ge0000000000_gh_gf_gg_gd10100000_ha90.90_hb49.1.44.99_hc0.51.25.0.51.25_hd4.1.49.49_ia_if_ib_id_ic_jc_ie_ja_jb_jd_je_jf_jg_ka_kb_kc_kd_ke_kf_la_lb_oa_os_ob_oc_od_oe_of_lc_m0_n0_s0_og_oh_oo_op_oq_or_om_on_ok_ol_oi_oj_ad0.0.0.0.0.0.0.0.0.0
5-interested=40**aa6.93.1.45.60.7.93.1.47.29_ab_ac_ba50_bb5.1_bc320.500.8.0.1_bd5_be180_ca62.0.40.62.30.34.34.0.15_cb0_da1.0.0.100_db_dd13.3.41.50.45_dh1.35.50.50.2_di5_qa_qb_dc53.1.1.1.1_eh4.df6f1d_ea2.df6f1d.DF6F1D.ffac4f.1.0_ec6.43.df6f1d.df6f1d.ffac4f.40.64.1_ed28.100.1.1.df6f1d.ffac4f_ef_eg_r0_fa12.55.58.70.50.65.56_fb_fh_fc2.1d7b2d.55.2.1d7b2d.55.50.61.61.50.50.50_fd1.0.50.df6f1d.56_fe80.64_ff0000000000_fg1.50_pa0.0.0.0.40.50.85.85.0.0_t0_pb_pc_pd_pe_ga0_gb1_gc65.0_ge0000000000_gh_gf_gg_gd10100000_ha80.80_hb49.1.44.99_hc0.50.25.0.50.25_hd16.1.50.48_ia_if_ib_id_ic_jc_ie_ja_jb_jd_je_jf_jg_ka_kb_kc_kd_ke_kf_la_lb_oa_os_ob_oc_od_oe_of_lc_m0_n0_s0_og_oh_oo_op_oq_or_om_on_ok_ol_oi_oj_ad0.0.0.0.0.0.0.0.0.0
5-excited=40**aa6.91.1.45.60.13.43.0.16.55_ab_ac_ba50_bb6.1_bc440.500.8.0.1_bd6_be180_ca62.0.40.62.30.34.34.0.15_cb0_da1.0.0.100_db_dd10.3.41.50.45_dh1.35.50.50.2_di5_qa_qb_dc53.1.1.1.1_eh4.df6f1d_ea2.df6f1d.DF6F1D.ffac4f.1.0_ec6.43.df6f1d.df6f1d.ffac4f.40.64.1_ed28.100.1.1.df6f1d.ffac4f_ef_eg_r0_fa12.55.58.70.50.65.56_fb_fh_fc2.1d7b2d.55.2.1d7b2d.55.50.61.61.50.50.50_fd1.0.50.df6f1d.56_fe80.64_ff0000000000_fg1.50_pa0.0.0.0.40.50.85.85.0.0_t0_pb_pc_pd_pe_ga0_gb1_gc40.0_ge0000000000_gh_gf_gg_gd10100000_ha100.100_hb49.1.44.99_hc0.51.25.0.51.25_hd34.1.49.49_ia_if_ib_id_ic_jc_ie_ja_jb_jd_je_jf_jg_ka_kb_kc_kd_ke_kf_la_lb_oa_os_ob_oc_od_oe_of_lc_m0_n0_s0_og_oh_oo_op_oq_or_om_on_ok_ol_oi_oj_ad0.0.0.0.0.0.0.0.0.0
5-happy=40**aa7.92.1.45.61.7.92.1.16.33_ab_ac_ba50_bb6.1_bc560.500.8.0.1_bd6_be180_ca62.0.40.62.30.34.34.0.15_cb0_da1.0.0.100_db_dd13.3.41.50.45_dh1.35.50.50.2_di5_qa_qb_dc53.1.1.1.1_eh4.df6f1d_ea2.df6f1d.DF6F1D.ffac4f.1.0_ec6.43.df6f1d.df6f1d.ffac4f.40.64.1_ed28.100.1.1.df6f1d.ffac4f_ef_eg_r0_fa12.55.58.70.50.65.56_fb_fh_fc2.1d7b2d.55.2.1d7b2d.55.50.61.61.50.50.50_fd1.0.50.df6f1d.56_fe80.64_ff0000000000_fg1.50_pa0.0.0.0.40.50.85.85.0.0_t0_pb_pc_pd_pe_ga0_gb1_gc65.0_ge0000000000_gh_gf_gg_gd10100000_ha95.95_hb49.1.44.99_hc0.51.25.0.51.25_hd34.1.49.49_ia_if_ib_id_ic_jc_ie_ja_jb_jd_je_jf_jg_ka_kb_kc_kd_ke_kf_la_lb_oa_os_ob_oc_od_oe_of_lc_m0_n0_s0_og_oh_oo_op_oq_or_om_on_ok_ol_oi_oj_ad0.0.0.0.0.0.0.0.0.0
5-sad=40**aa6.92.1.45.60.7.86.1.16.50_ab_ac_ba50_bb5.1_bc680.500.8.0.1_bd5_be180_ca62.0.40.62.30.34.34.0.15_cb0_da1.0.0.100_db_dd13.3.41.50.45_dh1.35.50.50.2_di5_qa_qb_dc53.1.1.1.1_eh4.df6f1d_ea2.df6f1d.DF6F1D.ffac4f.1.0_ec6.43.df6f1d.df6f1d.ffac4f.40.64.1_ed28.100.1.1.df6f1d.ffac4f_ef_eg_r0_fa12.55.58.70.50.65.56_fb_fh_fc2.1d7b2d.55.2.1d7b2d.55.50.61.61.50.50.50_fd1.0.50.df6f1d.56_fe80.64_ff0000000000_fg1.50_pa0.0.0.0.40.50.85.85.0.0_t0_pb_pc_pd_pe_ga0_gb1_gc65.0_ge0000000000_gh_gf_gg_gd10100000_ha90.90_hb100.1.40.99_hc0.80.25.0.80.25_hd5.1.49.49_ia_if_ib_id_ic_jc_ie_ja_jb_jd_je_jf_jg_ka_kb_kc_kd_ke_kf_la_lb_oa_os_ob_oc_od_oe_of_lc_m0_n0_s0_og_oh_oo_op_oq_or_om_on_ok_ol_oi_oj_ad0.0.0.0.0.0.0.0.0.0
5-angry=40**aa33.79.0.16.24.7.91.1.45.60_ab_ac_ba50_bb5.1_bc800.500.8.0.1_bd5_be180_ca62.0.40.62.30.34.34.0.15_cb0_da1.0.0.100_db_dd13.3.41.50.45_dh1.35.50.50.2_di5_qa_qb_dc75.1.1.1.1_eh4.df6f1d_ea2.df6f1d.DF6F1D.ffac4f.1.0_ec6.43.df6f1d.df6f1d.ffac4f.40.64.1_ed28.100.1.1.df6f1d.ffac4f_ef_eg_r0_fa12.55.58.70.50.65.56_fb_fh_fc2.1d7b2d.55.2.1d7b2d.55.50.61.61.50.50.50_fd1.0.50.df6f1d.56_fe80.64_ff0000000000_fg1.50_pa0.0.0.0.40.50.85.85.0.0_t0_pb_pc_pd_pe_ga0_gb1_gc65.0_ge0000000000_gh_gf_gg_gd10100000_ha90.90_hb49.1.44.99_hc1.35.0.1.35.0_hd4.1.49.49_ia_if_ib_id_ic_jc_ie_ja_jb_jd_je_jf_jg_ka_kb_kc_kd_ke_kf_la_lb_oa_os_ob_oc_od_oe_of_lc_m0_n0_s0_og_oh_oo_op_oq_or_om_on_ok_ol_oi_oj_ad0.0.0.0.0.0.0.0.0.0
5-stunned=40**aa7.92.1.45.61.7.94.1.16.50_ab_ac_ba50_bb5.1_bc200.500.8.0.1_bd5_be180_ca62.0.40.62.30.34.34.0.15_cb0_da1.0.0.100_db_dd13.3.41.50.45_dh1.35.50.50.2_di5_qa_qb_dc122.1.1.1.1_eh4.df6f1d_ea2.df6f1d.DF6F1D.ffac4f.1.0_ec6.43.df6f1d.df6f1d.ffac4f.40.64.1_ed28.100.1.1.df6f1d.ffac4f_ef_eg_r0_fa12.55.58.70.50.65.56_fb_fh_fc2.1d7b2d.55.2.1d7b2d.55.50.61.61.50.50.50_fd1.0.50.df6f1d.56_fe80.64_ff0000000000_fg1.50_pa0.0.0.0.40.50.85.85.0.0_t0_pb_pc_pd_pe_ga0_gb1_gc60.0_ge0000000000_gh_gf_gg_gd10100000_ha100.100_hb49.1.44.99_hc0.51.48.0.51.48_hd38.1.40.40_ia_if_ib_id_ic_jc_ie_ja_jb_jd_je_jf_jg_ka_kb_kc_kd_ke_kf_la_lb_oa_os_ob_oc_od_oe_of_lc_m0_n0_s0_og_oh_oo_op_oq_or_om_on_ok_ol_oi_oj_ad0.0.0.0.0.0.0.0.0.0
5-shocked=40**aa7.91.1.26.40.7.92.1.26.50_ab_ac_ba50_bb5.1_bc320.500.8.0.1_bd5_be180_ca62.0.40.62.30.34.34.0.15_cb0_da1.0.0.100_db_dd13.3.41.50.45_dh1.35.50.50.2_di5_qa_qb_dc114.1.1.1.1_eh4.df6f1d_ea2.df6f1d.DF6F1D.ffac4f.1.0_ec6.43.df6f1d.df6f1d.ffac4f.40.64.1_ed28.100.1.1.df6f1d.ffac4f_ef_eg_r0_fa12.55.58.70.50.65.56_fb_fh_fc2.1d7b2d.55.2.1d7b2d.55.50.61.61.50.50.50_fd1.0.50.df6f1d.56_fe80.64_ff0000000000_fg1.50_pa0.0.0.0.40.50.85.85.0.0_t0_pb_pc_pd_pe_ga0_gb1_gc60.0_ge0000000000_gh_gf_gg_gd10100000_ha100.100_hb49.1.40.70_hc0.51.50.0.51.50_hd40.1.49.49_ia_if_ib_id_ic_jc_ie_ja_jb_jd_je_jf_jg_ka_kb_kc_kd_ke_kf_la_lb_oa_os_ob_oc_od_oe_of_lc_m0_n0_s0_og_oh_oo_op_oq_or_om_on_ok_ol_oi_oj_ad0.0.0.0.0.0.0.0.0.0
5-horny=40**aa26.80.0.0.85.6.92.1.45.63_ab_ac_ba50_bb6.1_bc440.500.8.0.1_bd6_be180_ca62.0.40.62.30.34.34.0.15_cb0_da1.0.0.100_db_dd13.3.41.50.45_dh1.35.50.50.2_di5_qa_qb_dc108.1.1.1.1_eh4.df6f1d_ea2.df6f1d.DF6F1D.ffac4f.1.0_ec6.43.df6f1d.df6f1d.ffac4f.40.64.1_ed28.100.1.1.df6f1d.ffac4f_ef_eg_r0_fa12.55.58.70.50.65.56_fb_fh_fc2.1d7b2d.55.2.1d7b2d.55.50.61.61.50.50.50_fd1.0.50.df6f1d.56_fe80.64_ff0000000000_fg1.50_pa0.0.0.0.40.50.85.85.0.0_t0_pb_pc_pd_pe_ga0_gb1_gc60.0_ge0000000000_gh_gf_gg_gd10100000_ha75.75_hb49.1.50.99_hc0.51.25.0.51.25_hd17.1.49.49_ia_if_ib_id_ic_jc_ie_ja_jb_jd_je_jf_jg_ka_kb_kc_kd_ke_kf_la_lb_oa_os_ob_oc_od_oe_of_lc_m0_n0_s0_og_oh_oo_op_oq_or_om_on_ok_ol_oi_oj_ad0.0.0.0.0.0.0.0.0.0
5-awkward=40**aa7.92.1.45.61.83.35.0.16.50_ab_ac_ba50_bb5.1_bc560.500.8.0.1_bd5_be180_ca62.0.40.62.30.34.34.0.15_cb0_da1.0.0.100_db_dd13.3.41.50.45_dh1.35.50.50.2_di5_qa_qb_dc107.1.1.1.1_eh4.df6f1d_ea2.df6f1d.DF6F1D.ffac4f.1.0_ec6.43.df6f1d.df6f1d.ffac4f.40.64.1_ed28.100.1.1.df6f1d.ffac4f_ef_eg_r0_fa12.55.58.70.50.65.56_fb_fh_fc2.1d7b2d.55.2.1d7b2d.55.50.61.61.50.50.50_fd1.0.50.df6f1d.56_fe80.64_ff0000000000_fg1.50_pa0.0.0.0.40.50.85.85.0.0_t0_pb_pc_pd_pe_ga0_gb1_gc60.0_ge0000000000_gh_gf_gg_gd10100000_ha83.83_hb100.1.44.99_hc0.51.48.0.51.48_hd4.1.40.40_ia_if_ib_id_ic_jc_ie_ja_jb_jd_je_jf_jg_ka_kb_kc_kd_ke_kf_la_lb_oa_os_ob_oc_od_oe_of_lc_m0_n0_s0_og_oh_oo_op_oq_or_om_on_ok_ol_oi_oj_ad0.0.0.0.0.0.0.0.0.0
5-heavy=40**aa7.91.1.47.58.7.92.1.4.44_ab_ac_ba50_bb7.1_bc680.500.8.0.1_bd7_be180_ca62.0.40.62.30.34.34.0.15_cb0_da1.0.0.100_db_dd13.3.41.50.45_dh1.35.50.50.2_di5_qa_qb_dc102.1.1.1.1_eh4.df6f1d_ea2.df6f1d.DF6F1D.ffac4f.1.0_ec6.43.df6f1d.df6f1d.ffac4f.40.64.1_ed28.100.1.1.df6f1d.ffac4f_ef_eg_r0_fa12.55.58.70.50.65.56_fb_fh_fc2.1d7b2d.55.2.1d7b2d.55.50.61.61.50.50.50_fd1.0.50.df6f1d.56_fe80.64_ff0000000000_fg1.50_pa0.0.0.0.40.50.85.85.0.0_t0_pb_pc_pd_pe_ga0_gb1_gc65.0_ge0000000000_gh_gf_gg_gd10100010_ha50.50_hb50.1.100.88_hc0.40.22.0.40.22_hd38.1.35.35_ia_if_ib_id_ic_jc_ie_ja_jb_jd_je_jf_jg_ka_kb_kc_kd_ke_kf_la_lb_oa_os_ob_oc_od_oe_of_lc_m0_n0_s0_og_oh_oo_op_oq_or_om_on_ok_ol_oi_oj_ad0.0.0.0.0.0.0.0.0.0
5-finishing=40**aa7.91.1.45.58.7.95.1.26.44_ab_ac_ba50_bb7.1_bc800.500.8.0.1_bd7_be180_ca62.0.40.62.30.34.34.0.15_cb0_da1.0.0.100_db_dd13.3.41.50.45_dh1.35.50.50.2_di5_qa_qb_dc161.1.1.1.1_eh4.df6f1d_ea2.df6f1d.DF6F1D.ffac4f.1.0_ec6.43.df6f1d.df6f1d.ffac4f.40.64.1_ed28.100.1.1.df6f1d.ffac4f_ef_eg_r0_fa12.55.58.70.50.65.56_fb_fh_fc2.1d7b2d.55.2.1d7b2d.55.50.61.61.50.50.50_fd1.0.50.df6f1d.56_fe80.64_ff0000000000_fg1.50_pa0.0.0.0.40.50.85.85.0.0_t0_pb_pc_pd_pe_ga0_gb1_gc65.0_ge0000000000_gh_gf_gg_gd10100010_ha0.0_hb50.1.0.68_hc0.40.6.0.40.6_hd25.1.50.50_ia_if_ib_id_ic_jc_ie_ja_jb_jd_je_jf_jg_ka_kb_kc_kd_ke_kf_la_lb_oa_os_ob_oc_od_oe_of_lc_m0_n0_s0_og_oh_oo_op_oq_or_om_on_ok_ol_oi_oj_ad0.0.0.0.0.0.0.0.0.0


6-calm=40**aa7.95.1.16.50.7.95.1.16.50_ab_ac_ba50_bb5.1_bc200.500.8.0.1_bd5_be180_ca62.0.40.62.30.34.34.0.15_cb0_da1.0.0.100_db_dd13.3.41.50.45_dh1.35.50.50.2_di5_qa_qb_dc207.1.1.1.1_eh4.df6f1d_ea2.df6f1d.DF6F1D.ffac4f.1.0_ec6.43.df6f1d.df6f1d.ffac4f.40.64.1_ed28.100.1.1.df6f1d.ffac4f_ef_eg_r0_fa12.55.58.70.50.65.56_fb_fh_fc2.1d7b2d.55.2.1d7b2d.55.50.61.61.50.50.50_fd1.0.50.df6f1d.56_fe80.64_ff0000000000_fg1.50_pa0.0.0.0.40.50.85.85.0.0_t0_pb_pc_pd_pe_ga0_gb1_gc60.0_ge0000000000_gh_gf_gg_gd10100000_ha90.90_hb49.1.44.99_hc0.51.25.0.51.25_hd0.1.49.49_ia_if_ib_id_ic_jc_ie_ja_jb_jd_je_jf_jg_ka_kb_kc_kd_ke_kf_la_lb_oa_os_ob_oc_od_oe_of_lc_m0_n0_s0_og_oh_oo_op_oq_or_om_on_ok_ol_oi_oj_ad0.0.0.0.0.0.0.0.0.0
6-interested=40**aa7.91.1.29.32.7.91.1.16.32_ab_ac_ba50_bb6.1_bc320.500.8.0.1_bd6_be180_ca62.0.40.62.30.34.34.0.15_cb0_da1.0.0.100_db_dd13.3.41.50.45_dh1.35.50.50.2_di5_qa_qb_dc215.1.1.1.1_eh4.df6f1d_ea2.df6f1d.DF6F1D.ffac4f.1.0_ec6.43.df6f1d.df6f1d.ffac4f.40.64.1_ed28.100.1.1.df6f1d.ffac4f_ef_eg_r0_fa12.55.58.70.50.65.56_fb_fh_fc2.1d7b2d.55.2.1d7b2d.55.50.61.61.50.50.50_fd1.0.50.df6f1d.56_fe80.64_ff0000000000_fg1.50_pa0.0.0.0.40.50.85.85.0.0_t0_pb_pc_pd_pe_ga0_gb1_gc60.0_ge0000000000_gh_gf_gg_gd10100000_ha80.80_hb49.1.44.99_hc0.50.25.0.50.25_hd16.1.50.48_ia_if_ib_id_ic_jc_ie_ja_jb_jd_je_jf_jg_ka_kb_kc_kd_ke_kf_la_lb_oa_os_ob_oc_od_oe_of_lc_m0_n0_s0_og_oh_oo_op_oq_or_om_on_ok_ol_oi_oj_ad0.0.0.0.0.0.0.0.0.0
6-excited=40**aa13.43.0.16.55.13.43.0.16.55_ab_ac_ba50_bb6.1_bc440.500.8.0.1_bd6_be180_ca62.0.40.62.30.34.34.0.15_cb0_da1.0.0.100_db_dd13.3.41.50.45_dh1.35.50.50.2_di5_qa_qb_dc197.1.1.1.1_eh4.df6f1d_ea2.df6f1d.DF6F1D.ffac4f.1.0_ec6.43.df6f1d.df6f1d.ffac4f.40.64.1_ed28.100.1.1.df6f1d.ffac4f_ef_eg_r0_fa12.55.58.70.50.65.56_fb_fh_fc2.1d7b2d.55.2.1d7b2d.55.50.61.61.50.50.50_fd1.0.50.df6f1d.56_fe80.64_ff0000000000_fg1.50_pa0.0.0.0.40.50.85.85.0.0_t0_pb_pc_pd_pe_ga0_gb1_gc60.0_ge0000000000_gh_gf_gg_gd10100000_ha100.100_hb49.1.44.99_hc0.51.25.0.51.25_hd34.1.49.49_ia_if_ib_id_ic_jc_ie_ja_jb_jd_je_jf_jg_ka_kb_kc_kd_ke_kf_la_lb_oa_os_ob_oc_od_oe_of_lc_m0_n0_s0_og_oh_oo_op_oq_or_om_on_ok_ol_oi_oj_ad0.0.0.0.0.0.0.0.0.0
6-happy=40**aa7.91.1.29.32.7.91.1.16.32_ab_ac_ba50_bb6.1_bc560.500.8.0.1_bd6_be180_ca62.0.40.62.30.34.34.0.15_cb0_da1.0.0.100_db_dd13.3.41.50.45_dh1.35.50.50.2_di5_qa_qb_dc178.1.1.1.1_eh4.df6f1d_ea2.df6f1d.DF6F1D.ffac4f.1.0_ec6.43.df6f1d.df6f1d.ffac4f.40.64.1_ed28.100.1.1.df6f1d.ffac4f_ef_eg_r0_fa12.55.58.70.50.65.56_fb_fh_fc2.1d7b2d.55.2.1d7b2d.55.50.61.61.50.50.50_fd1.0.50.df6f1d.56_fe80.64_ff0000000000_fg1.50_pa0.0.0.0.40.50.85.85.0.0_t0_pb_pc_pd_pe_ga0_gb1_gc60.0_ge0000000000_gh_gf_gg_gd10100000_ha95.95_hb49.1.44.99_hc0.51.25.0.51.25_hd34.1.49.49_ia_if_ib_id_ic_jc_ie_ja_jb_jd_je_jf_jg_ka_kb_kc_kd_ke_kf_la_lb_oa_os_ob_oc_od_oe_of_lc_m0_n0_s0_og_oh_oo_op_oq_or_om_on_ok_ol_oi_oj_ad0.0.0.0.0.0.0.0.0.0
6-sad=40**aa7.91.1.29.32.7.91.1.16.32_ab_ac_ba50_bb5.1_bc680.500.8.0.1_bd5_be180_ca62.0.40.62.30.34.34.0.15_cb0_da1.0.0.100_db_dd13.3.41.50.45_dh1.35.50.50.2_di5_qa_qb_dc162.1.1.1.1_eh4.df6f1d_ea2.df6f1d.DF6F1D.ffac4f.1.0_ec6.43.df6f1d.df6f1d.ffac4f.40.64.1_ed28.100.1.1.df6f1d.ffac4f_ef_eg_r0_fa12.55.58.70.50.65.56_fb_fh_fc2.1d7b2d.55.2.1d7b2d.55.50.61.61.50.50.50_fd1.0.50.df6f1d.56_fe80.64_ff0000000000_fg1.50_pa0.0.0.0.40.50.85.85.0.0_t0_pb_pc_pd_pe_ga0_gb1_gc60.0_ge0000000000_gh_gf_gg_gd10100000_ha90.90_hb100.1.40.99_hc0.80.25.0.80.25_hd5.1.49.49_ia_if_ib_id_ic_jc_ie_ja_jb_jd_je_jf_jg_ka_kb_kc_kd_ke_kf_la_lb_oa_os_ob_oc_od_oe_of_lc_m0_n0_s0_og_oh_oo_op_oq_or_om_on_ok_ol_oi_oj_ad0.0.0.0.0.0.0.0.0.0
6-angry=40**aa33.79.0.16.24.33.79.0.16.24_ab_ac_ba50_bb6.1_bc800.500.8.0.1_bd6_be180_ca62.0.40.62.30.34.34.0.15_cb0_da1.0.0.100_db_dd13.3.41.50.45_dh1.35.50.50.2_di5_qa_qb_dc168.1.1.1.1_eh4.df6f1d_ea2.df6f1d.DF6F1D.ffac4f.1.0_ec6.43.df6f1d.df6f1d.ffac4f.40.64.1_ed28.100.1.1.df6f1d.ffac4f_ef_eg_r0_fa12.55.58.70.50.65.56_fb_fh_fc2.1d7b2d.55.2.1d7b2d.55.50.61.61.50.50.50_fd1.0.50.df6f1d.56_fe80.64_ff0000000000_fg1.50_pa0.0.0.0.40.50.85.85.0.0_t0_pb_pc_pd_pe_ga0_gb1_gc60.0_ge0000000000_gh_gf_gg_gd10100000_ha90.90_hb49.1.44.99_hc1.35.0.1.35.0_hd4.1.49.49_ia_if_ib_id_ic_jc_ie_ja_jb_jd_je_jf_jg_ka_kb_kc_kd_ke_kf_la_lb_oa_os_ob_oc_od_oe_of_lc_m0_n0_s0_og_oh_oo_op_oq_or_om_on_ok_ol_oi_oj_ad0.0.0.0.0.0.0.0.0.0
6-stunned=40**aa7.75.1.16.50.7.75.1.16.50_ab_ac_ba50_bb5.1_bc200.500.8.0.1_bd5_be180_ca62.0.40.62.30.34.34.0.15_cb0_da1.0.0.100_db_dd13.3.41.50.45_dh1.35.50.50.2_di5_qa_qb_dc176.1.1.1.1_eh4.df6f1d_ea2.df6f1d.DF6F1D.ffac4f.1.0_ec6.43.df6f1d.df6f1d.ffac4f.40.64.1_ed28.100.1.1.df6f1d.ffac4f_ef_eg_r0_fa12.55.58.70.50.65.56_fb_fh_fc2.1d7b2d.55.2.1d7b2d.55.50.61.61.50.50.50_fd1.0.50.df6f1d.56_fe80.64_ff0000000000_fg1.50_pa0.0.0.0.40.50.85.85.0.0_t0_pb_pc_pd_pe_ga0_gb1_gc65.0_ge0000000000_gh_gf_gg_gd10100000_ha97.97_hb49.1.44.99_hc0.51.48.0.51.48_hd38.1.40.40_ia_if_ib_id_ic_jc_ie_ja_jb_jd_je_jf_jg_ka_kb_kc_kd_ke_kf_la_lb_oa_os_ob_oc_od_oe_of_lc_m0_n0_s0_og_oh_oo_op_oq_or_om_on_ok_ol_oi_oj_ad0.0.0.0.0.0.0.0.0.0
6-shocked=40**aa6.95.1.26.50.6.68.1.26.50_ab_ac_ba50_bb5.1_bc320.500.8.0.1_bd5_be180_ca62.0.40.62.30.34.34.0.15_cb0_da1.0.0.100_db_dd13.3.41.50.45_dh1.35.50.50.2_di5_qa_qb_dc171.1.1.1.1_eh4.df6f1d_ea2.df6f1d.DF6F1D.ffac4f.1.0_ec6.43.df6f1d.df6f1d.ffac4f.40.64.1_ed28.100.1.1.df6f1d.ffac4f_ef_eg_r0_fa12.55.58.70.50.65.56_fb_fh_fc2.1d7b2d.55.2.1d7b2d.55.50.61.61.50.50.50_fd1.0.50.df6f1d.56_fe80.64_ff0000000000_fg1.50_pa0.0.0.0.40.50.85.85.0.0_t0_pb_pc_pd_pe_ga0_gb1_gc65.0_ge0000000000_gh_gf_gg_gd10100000_ha100.100_hb49.1.40.70_hc0.51.50.0.51.50_hd40.1.49.49_ia_if_ib_id_ic_jc_ie_ja_jb_jd_je_jf_jg_ka_kb_kc_kd_ke_kf_la_lb_oa_os_ob_oc_od_oe_of_lc_m0_n0_s0_og_oh_oo_op_oq_or_om_on_ok_ol_oi_oj_ad0.0.0.0.0.0.0.0.0.0
6-horny=40**aa26.80.0.0.85.6.0.0.16.50_ab_ac_ba50_bb6.1_bc440.500.8.0.1_bd6_be180_ca62.0.40.62.30.34.34.0.15_cb0_da1.0.0.100_db_dd13.3.41.50.45_dh1.35.50.50.2_di5_qa_qb_dc173.1.1.1.1_eh4.df6f1d_ea2.df6f1d.DF6F1D.ffac4f.1.0_ec6.43.df6f1d.df6f1d.ffac4f.40.64.1_ed28.100.1.1.df6f1d.ffac4f_ef_eg_r0_fa12.55.58.70.50.65.56_fb_fh_fc2.1d7b2d.55.2.1d7b2d.55.50.61.61.50.50.50_fd1.0.50.df6f1d.56_fe80.64_ff0000000000_fg1.50_pa0.0.0.0.40.50.85.85.0.0_t0_pb_pc_pd_pe_ga0_gb1_gc65.0_ge0000000000_gh_gf_gg_gd10100000_ha75.75_hb49.1.50.99_hc0.51.25.0.51.25_hd17.1.49.49_ia_if_ib_id_ic_jc_ie_ja_jb_jd_je_jf_jg_ka_kb_kc_kd_ke_kf_la_lb_oa_os_ob_oc_od_oe_of_lc_m0_n0_s0_og_oh_oo_op_oq_or_om_on_ok_ol_oi_oj_ad0.0.0.0.0.0.0.0.0.0
6-awkward=40**aa7.95.1.16.50.82.35.0.16.50_ab_ac_ba50_bb5.1_bc560.500.8.0.1_bd5_be180_ca62.0.40.62.30.34.34.0.15_cb0_da1.0.0.100_db_dd13.3.41.50.45_dh1.35.50.50.2_di5_qa_qb_dc177.1.1.1.1_eh4.df6f1d_ea2.df6f1d.DF6F1D.ffac4f.1.0_ec6.43.df6f1d.df6f1d.ffac4f.40.64.1_ed28.100.1.1.df6f1d.ffac4f_ef_eg_r0_fa12.55.58.70.50.65.56_fb_fh_fc2.1d7b2d.55.2.1d7b2d.55.50.61.61.50.50.50_fd1.0.50.df6f1d.56_fe80.64_ff0000000000_fg1.50_pa0.0.0.0.40.50.85.85.0.0_t0_pb_pc_pd_pe_ga0_gb1_gc65.0_ge0000000000_gh_gf_gg_gd10100000_ha83.83_hb100.1.44.99_hc0.51.48.0.51.48_hd4.1.40.40_ia_if_ib_id_ic_jc_ie_ja_jb_jd_je_jf_jg_ka_kb_kc_kd_ke_kf_la_lb_oa_os_ob_oc_od_oe_of_lc_m0_n0_s0_og_oh_oo_op_oq_or_om_on_ok_ol_oi_oj_ad0.0.0.0.0.0.0.0.0.0
6-finished=40**aa6.100.0.3.58.6.100.0.3.58_ab_ac_ba50_bb46.0_bc680.500.8.0.1_bd46_be180_ca62.0.40.62.30.34.34.0.15_cb0_da1.0.0.100_db_dd13.3.41.50.45_dh1.35.50.50.2_di5_qa_qb_dc179.1.1.1.1_eh4.df6f1d_ea2.df6f1d.DF6F1D.ffac4f.1.0_ec6.43.df6f1d.df6f1d.ffac4f.40.64.1_ed28.100.1.1.df6f1d.ffac4f_ef_eg_r0_fa12.55.58.70.50.65.56_fb_fh_fc2.1d7b2d.55.2.1d7b2d.55.50.61.61.50.50.50_fd1.0.50.df6f1d.56_fe80.64_ff0000000000_fg1.50_pa0.0.0.0.40.50.85.85.0.0_t0_pb_pc_pd_pe_ga0_gb1_gc65.0_ge0000000000_gh_gf_gg_gd10100010_ha66.66_hb50.1.100.100_hc0.40.22.0.40.22_hd31.1.35.35_ia_if_ib_id_ic_jc_ie_ja_jb_jd_je_jf_jg_ka_kb_kc_kd_ke_kf_la_lb_oa_os_ob_oc_od_oe_of_lc_m0_n0_s0_og_oh_oo_op_oq_or_om_on_ok_ol_oi_oj_ad0.0.0.0.0.0.0.0.0.0
6-defeat=40**aa26.80.0.0.85.11.45.0.16.50_ab_ac_ba50_bb6.0_bc800.500.8.0.1_bd6_be180_ca62.0.40.62.30.34.34.0.15_cb0_da1.0.0.100_db_dd13.3.41.50.45_dh1.35.50.50.2_di5_qa_qb_dc179.1.1.1.1_eh4.df6f1d_ea2.df6f1d.DF6F1D.ffac4f.1.0_ec6.43.df6f1d.df6f1d.ffac4f.40.64.1_ed28.100.1.1.df6f1d.ffac4f_ef_eg_r0_fa12.55.58.70.50.65.56_fb_fh_fc2.1d7b2d.55.2.1d7b2d.55.50.61.61.50.50.50_fd1.0.50.df6f1d.56_fe80.64_ff0000000000_fg1.50_pa0.0.0.0.40.50.85.85.0.0_t0_pb_pc_pd_pe_ga0_gb1_gc65.0_ge0000000000_gh_gf_gg_gd10100000_ha95.95_hb50.1.45.95_hc0.49.12.0.49.12_hd34.1.35.35_ia_if_ib_id_ic_jc_ie_ja_jb_jd_je_jf_jg_ka_kb_kc_kd_ke_kf_la_lb_oa_os_ob_oc_od_oe_of_lc_m0_n0_s0_og_oh_oo_op_oq_or_om_on_ok_ol_oi_oj_ad0.0.0.0.0.0.0.0.0.0

