#40***aa7.94.1.16.50.7.94.1.16.50_ab_ac_ba50_bb5.1_bc200.500.3.0.1_bd5_be180_ca62.0.40.62.30.34.34.0.15_cb0_da1.0.0.100_db_dd13.3.41.50.45_dh1.35.50.50.2_di3_qa_qb_dc9.1.1.1.1_eh4.df6f1d_ea2.df6f1d.DF6F1D.ffac4f.1.0_ec6.43.df6f1d.df6f1d.ffac4f.40.64.1_ed28.100.1.1.df6f1d.ffac4f_ef_eg_r0_fa12.55.58.70.50.65.56_fb_fh_fc2.1d7b2d.55.2.1d7b2d.55.50.61.61.50.50.50_fd1.0.50.df6f1d.56_fe80.64_ff0000000000_fg1.50_pa0.0.0.0.40.50.85.85.0.0_t0_pb_pc_pd_pe_ga0_gb1_gc60.0_ge0000000000_gh_gf_gg_gd10100000_ha100.100_hb49.1.44.99_hc0.51.48.0.51.48_hd38.1.40.40_ia_if_ib_id_ic_jc_ie_ja_jb_jd_je_jf_jg_ka_kb_kc_kd_ke_kf_la_lb_oa_os_ob_oc_od_oe_of_lc_m0_n0_s0_og_oh_oo_op_oq_or_om_on_ok_ol_oi_oj_ad0.0.0.0.0.0.0.0.0.0*aa7.70.1.26.50.7.92.1.26.50_ab_ac_ba50_bb5.1_bc320.500.4.0.1_bd5_be180_ca62.0.40.62.30.34.34.0.15_cb0_da1.0.0.100_db_dd13.3.41.50.45_dh1.35.50.50.2_di3_qa_qb_dc9.1.1.1.1_eh4.df6f1d_ea2.df6f1d.DF6F1D.ffac4f.1.0_ec6.43.df6f1d.df6f1d.ffac4f.40.64.1_ed28.100.1.1.df6f1d.ffac4f_ef_eg_r0_fa12.55.58.70.50.65.56_fb_fh_fc2.1d7b2d.55.2.1d7b2d.55.50.61.61.50.50.50_fd1.0.50.df6f1d.56_fe80.64_ff0000000000_fg1.50_pa0.0.0.0.40.50.85.85.0.0_t0_pb_pc_pd_pe_ga0_gb1_gc60.0_ge0000000000_gh_gf_gg_gd10100000_ha100.100_hb49.1.40.70_hc0.51.50.0.51.50_hd40.1.49.49_ia_if_ib_id_ic_jc_ie_ja_jb_jd_je_jf_jg_ka_kb_kc_kd_ke_kf_la_lb_oa_os_ob_oc_od_oe_of_lc_m0_n0_s0_og_oh_oo_op_oq_or_om_on_ok_ol_oi_oj_ad0.0.0.0.0.0.0.0.0.0*aa26.80.0.0.85.6.0.0.16.50_ab_ac_ba50_bb6.1_bc440.500.5.0.1_bd6_be180_ca62.0.40.62.30.34.34.0.15_cb0_da1.0.0.100_db_dd13.3.41.50.45_dh1.35.50.50.2_di3_qa_qb_dc9.1.1.1.1_eh4.df6f1d_ea2.df6f1d.DF6F1D.ffac4f.1.0_ec6.43.df6f1d.df6f1d.ffac4f.40.64.1_ed28.100.1.1.df6f1d.ffac4f_ef_eg_r0_fa12.55.58.70.50.65.56_fb_fh_fc2.1d7b2d.55.2.1d7b2d.55.50.61.61.50.50.50_fd1.0.50.df6f1d.56_fe80.64_ff0000000000_fg1.50_pa0.0.0.0.40.50.85.85.0.0_t0_pb_pc_pd_pe_ga0_gb1_gc60.0_ge0000000000_gh_gf_gg_gd10100000_ha75.75_hb49.1.50.99_hc0.51.25.0.51.25_hd17.1.49.49_ia_if_ib_id_ic_jc_ie_ja_jb_jd_je_jf_jg_ka_kb_kc_kd_ke_kf_la_lb_oa_os_ob_oc_od_oe_of_lc_m0_n0_s0_og_oh_oo_op_oq_or_om_on_ok_ol_oi_oj_ad0.0.0.0.0.0.0.0.0.0*aa7.93.1.16.35.7.92.1.16.36_ab_ac_ba50_bb5.1_bc680.500.7.0.1_bd5_be180_ca62.0.40.62.30.34.34.0.15_cb0_da1.0.0.100_db_dd13.3.41.50.45_dh1.35.50.50.2_di3_qa_qb_dc9.1.1.1.1_eh4.df6f1d_ea2.df6f1d.DF6F1D.ffac4f.1.0_ec6.43.df6f1d.df6f1d.ffac4f.40.64.1_ed28.100.1.1.df6f1d.ffac4f_ef_eg_r0_fa12.55.58.70.50.65.56_fb_fh_fc2.1d7b2d.55.2.1d7b2d.55.50.61.61.50.50.50_fd1.0.50.df6f1d.56_fe80.64_ff0000000000_fg1.50_pa0.0.0.0.40.50.85.85.0.0_t0_pb_pc_pd_pe_ga0_gb1_gc65.0_ge0000000000_gh_gf_gg_gd10100000_ha84.84_hb50.1.40.88_hc0.40.22.0.40.22_hd10.1.35.35_ia_if_ib_id_ic_jc_ie_ja_jb_jd_je_jf_jg_ka_kb_kc_kd_ke_kf_la_lb_oa_os_ob_oc_od_oe_of_lc_m0_n0_s0_og_oh_oo_op_oq_or_om_on_ok_ol_oi_oj_ad0.0.0.0.0.0.0.0.0.0*aa7.92.1.16.50.6.66.0.16.50_ab_ac_ba50_bb5.1_bc560.500.6.0.1_bd5_be180_ca62.0.40.62.30.34.34.0.15_cb0_da1.0.0.100_db_dd13.3.41.50.45_dh1.35.50.50.2_di3_qa_qb_dc9.1.1.1.1_eh4.df6f1d_ea2.df6f1d.DF6F1D.ffac4f.1.0_ec6.43.df6f1d.df6f1d.ffac4f.40.64.1_ed28.100.1.1.df6f1d.ffac4f_ef_eg_r0_fa12.55.58.70.50.65.56_fb_fh_fc2.1d7b2d.55.2.1d7b2d.55.50.61.61.50.50.50_fd1.0.50.df6f1d.56_fe80.64_ff0000000000_fg1.50_pa0.0.0.0.40.50.85.85.0.0_t0_pb_pc_pd_pe_ga0_gb1_gc60.0_ge0000000000_gh_gf_gg_gd10100000_ha83.83_hb100.1.44.99_hc0.51.48.0.51.48_hd4.1.40.40_ia_if_ib_id_ic_jc_ie_ja_jb_jd_je_jf_jg_ka_kb_kc_kd_ke_kf_la_lb_oa_os_ob_oc_od_oe_of_lc_m0_n0_s0_og_oh_oo_op_oq_or_om_on_ok_ol_oi_oj_ad0.0.0.0.0.0.0.0.0.0*aa6.92.1.45.60.6.95.1.26.63_ab_ac_ba50_bb5.0_bc800.500.8.0.1_bd5_be180_ca62.0.40.62.30.34.34.0.15_cb0_da1.0.0.100_db_dd13.3.41.50.45_dh1.35.50.50.2_di3_qa_qb_dc35.1.1.1.1_eh4.df6f1d_ea2.df6f1d.DF6F1D.ffac4f.1.0_ec6.43.df6f1d.df6f1d.ffac4f.40.64.1_ed28.100.1.1.df6f1d.ffac4f_ef_eg_r0_fa12.55.58.70.50.65.56_fb_fh_fc2.1d7b2d.55.2.1d7b2d.55.50.61.61.50.50.50_fd1.0.50.df6f1d.56_fe80.64_ff0000000000_fg1.50_pa0.0.0.0.40.50.85.85.0.0_t0_pb_pc_pd_pe_ga0_gb1_gc65.0_ge0000000000_gh_gf_gg_gd10100000_ha30.30_hb50.1.45.90_hc0.49.12.0.49.12_hd21.1.35.35_ia_if_ib_id_ic_jc_ie_ja_jb_jd_je_jf_jg_ka_kb_kc_kd_ke_kf_la_lb_oa_os_ob_oc_od_oe_of_lc_m0_n0_s0_og_oh_oo_op_oq_or_om_on_ok_ol_oi_oj_ad0.0.0.0.0.0.0.0.0.0*0*0*0#/]a00_b00_c00_d00_w00_x00_y00_z00_ua0.55.0.0.100_uf0.0.0.0_ue_ub_u0_v0_uc0.0.0_ud7.3

4-stunned=40**aa7.94.1.16.50.7.94.1.16.50_ab_ac_ba50_bb5.1_bc200.500.8.0.1_bd5_be180_ca62.0.40.62.30.34.34.0.15_cb0_da1.0.0.100_db_dd13.3.41.50.45_dh1.35.50.50.2_di5_qa_qb_dc9.1.1.1.1_eh4.df6f1d_ea2.df6f1d.DF6F1D.ffac4f.1.0_ec6.43.df6f1d.df6f1d.ffac4f.40.64.1_ed28.100.1.1.df6f1d.ffac4f_ef_eg_r0_fa12.55.58.70.50.65.56_fb_fh_fc2.1d7b2d.55.2.1d7b2d.55.50.61.61.50.50.50_fd1.0.50.df6f1d.56_fe80.64_ff0000000000_fg1.50_pa0.0.0.0.40.50.85.85.0.0_t0_pb_pc_pd_pe_ga0_gb1_gc60.0_ge0000000000_gh_gf_gg_gd10100000_ha100.100_hb49.1.44.99_hc0.51.48.0.51.48_hd38.1.40.40_ia_if_ib_id_ic_jc_ie_ja_jb_jd_je_jf_jg_ka_kb_kc_kd_ke_kf_la_lb_oa_os_ob_oc_od_oe_of_lc_m0_n0_s0_og_oh_oo_op_oq_or_om_on_ok_ol_oi_oj_ad0.0.0.0.0.0.0.0.0.0
4-shocked=40**aa7.70.1.26.50.7.92.1.26.50_ab_ac_ba50_bb5.1_bc320.500.8.0.1_bd5_be180_ca62.0.40.62.30.34.34.0.15_cb0_da1.0.0.100_db_dd13.3.41.50.45_dh1.35.50.50.2_di5_qa_qb_dc9.1.1.1.1_eh4.df6f1d_ea2.df6f1d.DF6F1D.ffac4f.1.0_ec6.43.df6f1d.df6f1d.ffac4f.40.64.1_ed28.100.1.1.df6f1d.ffac4f_ef_eg_r0_fa12.55.58.70.50.65.56_fb_fh_fc2.1d7b2d.55.2.1d7b2d.55.50.61.61.50.50.50_fd1.0.50.df6f1d.56_fe80.64_ff0000000000_fg1.50_pa0.0.0.0.40.50.85.85.0.0_t0_pb_pc_pd_pe_ga0_gb1_gc60.0_ge0000000000_gh_gf_gg_gd10100000_ha100.100_hb49.1.40.70_hc0.51.50.0.51.50_hd40.1.49.49_ia_if_ib_id_ic_jc_ie_ja_jb_jd_je_jf_jg_ka_kb_kc_kd_ke_kf_la_lb_oa_os_ob_oc_od_oe_of_lc_m0_n0_s0_og_oh_oo_op_oq_or_om_on_ok_ol_oi_oj_ad0.0.0.0.0.0.0.0.0.0
4-horny=40**aa26.80.0.0.85.6.0.0.16.50_ab_ac_ba50_bb6.1_bc440.500.8.0.1_bd6_be180_ca62.0.40.62.30.34.34.0.15_cb0_da1.0.0.100_db_dd13.3.41.50.45_dh1.35.50.50.2_di5_qa_qb_dc9.1.1.1.1_eh4.df6f1d_ea2.df6f1d.DF6F1D.ffac4f.1.0_ec6.43.df6f1d.df6f1d.ffac4f.40.64.1_ed28.100.1.1.df6f1d.ffac4f_ef_eg_r0_fa12.55.58.70.50.65.56_fb_fh_fc2.1d7b2d.55.2.1d7b2d.55.50.61.61.50.50.50_fd1.0.50.df6f1d.56_fe80.64_ff0000000000_fg1.50_pa0.0.0.0.40.50.85.85.0.0_t0_pb_pc_pd_pe_ga0_gb1_gc60.0_ge0000000000_gh_gf_gg_gd10100000_ha75.75_hb49.1.50.99_hc0.51.25.0.51.25_hd17.1.49.49_ia_if_ib_id_ic_jc_ie_ja_jb_jd_je_jf_jg_ka_kb_kc_kd_ke_kf_la_lb_oa_os_ob_oc_od_oe_of_lc_m0_n0_s0_og_oh_oo_op_oq_or_om_on_ok_ol_oi_oj_ad0.0.0.0.0.0.0.0.0.0
4-awkward=40**aa7.92.1.16.50.6.66.0.16.50_ab_ac_ba50_bb5.1_bc560.500.8.0.1_bd5_be180_ca62.0.40.62.30.34.34.0.15_cb0_da1.0.0.100_db_dd13.3.41.50.45_dh1.35.50.50.2_di5_qa_qb_dc9.1.1.1.1_eh4.df6f1d_ea2.df6f1d.DF6F1D.ffac4f.1.0_ec6.43.df6f1d.df6f1d.ffac4f.40.64.1_ed28.100.1.1.df6f1d.ffac4f_ef_eg_r0_fa12.55.58.70.50.65.56_fb_fh_fc2.1d7b2d.55.2.1d7b2d.55.50.61.61.50.50.50_fd1.0.50.df6f1d.56_fe80.64_ff0000000000_fg1.50_pa0.0.0.0.40.50.85.85.0.0_t0_pb_pc_pd_pe_ga0_gb1_gc60.0_ge0000000000_gh_gf_gg_gd10100000_ha83.83_hb100.1.44.99_hc0.51.48.0.51.48_hd4.1.40.40_ia_if_ib_id_ic_jc_ie_ja_jb_jd_je_jf_jg_ka_kb_kc_kd_ke_kf_la_lb_oa_os_ob_oc_od_oe_of_lc_m0_n0_s0_og_oh_oo_op_oq_or_om_on_ok_ol_oi_oj_ad0.0.0.0.0.0.0.0.0.0
4-loss=40**aa7.93.1.16.35.7.92.1.16.36_ab_ac_ba50_bb5.1_bc680.500.8.0.1_bd5_be180_ca62.0.40.62.30.34.34.0.15_cb0_da1.0.0.100_db_dd13.3.41.50.45_dh1.35.50.50.2_di5_qa_qb_dc9.1.1.1.1_eh4.df6f1d_ea2.df6f1d.DF6F1D.ffac4f.1.0_ec6.43.df6f1d.df6f1d.ffac4f.40.64.1_ed28.100.1.1.df6f1d.ffac4f_ef_eg_r0_fa12.55.58.70.50.65.56_fb_fh_fc2.1d7b2d.55.2.1d7b2d.55.50.61.61.50.50.50_fd1.0.50.df6f1d.56_fe80.64_ff0000000000_fg1.50_pa0.0.0.0.40.50.85.85.0.0_t0_pb_pc_pd_pe_ga0_gb1_gc65.0_ge0000000000_gh_gf_gg_gd10100000_ha84.84_hb50.1.40.88_hc0.40.22.0.40.22_hd10.1.35.35_ia_if_ib_id_ic_jc_ie_ja_jb_jd_je_jf_jg_ka_kb_kc_kd_ke_kf_la_lb_oa_os_ob_oc_od_oe_of_lc_m0_n0_s0_og_oh_oo_op_oq_or_om_on_ok_ol_oi_oj_ad0.0.0.0.0.0.0.0.0.0
5-starting=40**aa6.92.1.45.60.6.95.1.26.63_ab_ac_ba50_bb5.0_bc800.500.8.0.1_bd5_be180_ca62.0.40.62.30.34.34.0.15_cb0_da1.0.0.100_db_dd13.3.41.50.45_dh1.35.50.50.2_di5_qa_qb_dc35.1.1.1.1_eh4.df6f1d_ea2.df6f1d.DF6F1D.ffac4f.1.0_ec6.43.df6f1d.df6f1d.ffac4f.40.64.1_ed28.100.1.1.df6f1d.ffac4f_ef_eg_r0_fa12.55.58.70.50.65.56_fb_fh_fc2.1d7b2d.55.2.1d7b2d.55.50.61.61.50.50.50_fd1.0.50.df6f1d.56_fe80.64_ff0000000000_fg1.50_pa0.0.0.0.40.50.85.85.0.0_t0_pb_pc_pd_pe_ga0_gb1_gc65.0_ge0000000000_gh_gf_gg_gd10100000_ha30.30_hb50.1.45.90_hc0.49.12.0.49.12_hd21.1.35.35_ia_if_ib_id_ic_jc_ie_ja_jb_jd_je_jf_jg_ka_kb_kc_kd_ke_kf_la_lb_oa_os_ob_oc_od_oe_of_lc_m0_n0_s0_og_oh_oo_op_oq_or_om_on_ok_ol_oi_oj_ad0.0.0.0.0.0.0.0.0.0
